Business Unit,Sales SKU
Electronics,ELSam0036552
Electronics,MXApp0015681
Electronics,MXApp0019667
Electronics,MXApp0015680
Electronics,MXApp0019675
Electronics,ELAir0036772
Electronics,MXSam0015284
Electronics,MXXIA0026464
Electronics,MXApp0019674
Electronics,MXXIA0026461
Electronics,MXXIA0026462
Electronics,MXXIA0026463
Electronics,ELAsu0034822
Electronics,MXXIA0026465
Electronics,MXElo0026038
Electronics,MXFit0026299
Electronics,MXSon0019626
Electronics,MXAJ0023351
Electronics,MXAva0021898
Electronics,MXSam0019635
Electronics,MXGoP0022410
Electronics,MXGoP0016241
Electronics,MXLen0020099
Electronics,MXSea0019616
Electronics,MXSam0019647
Electronics,ELJBL0038500
Electronics,MXOL 0032979
Electronics,MXAva0021899
Electronics,ELJBL0038501
Electronics,MXOL 0032978
Electronics,MXFit0026293
Electronics,MXAva0021901
Electronics,ELJBL0038502
Electronics,MXelo0015900
Electronics,MXOL 0032981
Electronics,MXUrb0015029
Electronics,MXUrb0015031
Electronics,ELFit0041267
Electronics,MXLen0020100
Electronics,ELSea0041273
Electronics,ELBea0040101
Electronics,ELApp0035427
Electronics,MXIHE0013552
Electronics,MXPar0031334
Electronics,MXAJ0023353
Electronics,MXOL 0032980
Electronics,MXSan0026729
Electronics,MXElo0026039
Electronics,MXelo0015899
Electronics,MXWik0033466
Electronics,ELApp0035426
Electronics,MXHap0027493
Electronics,MXHap0027494
Electronics,MXHap0027495
Electronics,MXHap0027496
Electronics,MXAJ0023338
Electronics,MXAJ0023352
Electronics,ELSea0041271
Electronics,ELSea0041272
Electronics,MXXIA0029951
Electronics,ELLog0038104
Electronics,ELLog0038109
Electronics,ELFit0041269
Electronics,ELWik0040355
Electronics,ELWik0040356
Electronics,ELWik0040357
Electronics,MXCHU0019126
Electronics,MXelo0015901
Electronics,MXAJ0023350
Electronics,MXGP 0024338
Electronics,MXWD0021338
Electronics,MXSan0026746
Electronics,MXElo0026040
Electronics,MXGP 0024339
Electronics,MXGP 0024340
Electronics,MXAva0026480
Electronics,ELJBL0038503
Electronics,ELJBL0038507
Electronics,ELLog0038103
Electronics,MXWD0021335
Electronics,MXWD0021336
Electronics,ELApp0035432
Electronics,ELXIA0037893
Electronics,ELAJ0041905
Electronics,MXAJ0023341
Electronics,MXAJ0023334
Electronics,MXAJ0023347
Electronics,MXAJ0023349
Electronics,MXAva0026481
Electronics,ELXIA0035763
Electronics,MXElo0032795
Electronics,ELAWE0042118
Electronics,ELAWE0042119
Electronics,MXHTC0021944
Electronics,MXTar0023552
Electronics,MXRap0026760
Electronics,ELJab0038371
Electronics,ELJab0038372
Electronics,ELJab0038373
Electronics,MXMyA0026061
Electronics,ELREM0040019
Electronics,ELREM0040020
Electronics,ELREM0040021
Electronics,MXAva0021903
Electronics,MXTar0023543
Electronics,MXTar0023544
Electronics,MXCol0015017
Electronics,MXCol0015018
Electronics,MXCol0015019
Electronics,MXDDP0024772
Electronics,MXDDP0024773
Electronics,ELAva0039472
Electronics,ELXIA0042099
Electronics,MXXIA0026469
Electronics,ELBel0037276
Electronics,MXWik0033467
Electronics,MXRet0015896
Electronics,MXFUJ0016833
Electronics,MXiFa0022899
Electronics,ELApp0035438
Electronics,ELAJ0041910
Electronics,MXAJ0023335
Electronics,MXDiv0032944
Electronics,MXAJ0023336
Electronics,MXAJ0023340
Electronics,MXStr0031115
Electronics,ELMic0038376
Electronics,MXiFa0022880
Electronics,MXiFa0022897
Electronics,MXiFa0022898
Electronics,MXUrb0015030
Electronics,MXHav0030381
Electronics,ELFit0041270
Electronics,ELJBL0038508
Electronics,MXStr0031114
Electronics,MXAJ0023342
Electronics,MXAJ0023348
Electronics,ELApp0035431
Electronics,ELAJ0041909
Electronics,ELJBL0038504
Electronics,MXTar0023546
Electronics,ELREM0040025
Electronics,MXLen0028193
Electronics,ELLog0038116
Electronics,MXHav0030379
Electronics,MXiFa0022882
Electronics,MXiFa0022883
Electronics,MXiFa0022884
Electronics,MXiFa0022885
Electronics,MXVOX0033479
Electronics,MXREM0032928
Electronics,MXREM0032929
Electronics,ELLog0038110
Electronics,ELLog0038111
Electronics,MXDDP0024766
Electronics,MXDDP0024767
Electronics,MXDDP0024768
Electronics,MXDDP0024769
Electronics,MXDDP0024771
Electronics,ELAJ0041911
Electronics,MXIHE0013551
Electronics,MXTar0023555
Electronics,ELALL0037123
Electronics,ELALL0037124
Electronics,MXUrb0015020
Electronics,ELJBL0038492
Electronics,ELJBL0038493
Electronics,ELJBL0038494
Electronics,ELJBL0038495
Electronics,ELJBL0038497
Electronics,ELJBL0038498
Electronics,ELJBL0038499
Electronics,MXHap0027502
Electronics,MXHap0027503
Electronics,ELLog0038098
Electronics,MXRap0026757
Electronics,MXTOK0020350
Electronics,MXXIA0027759
Electronics,MXHav0030380
Electronics,MXJus0013572
Electronics,MXREM0032861
Electronics,MXDDP0024774
Electronics,MXHav0030378
Electronics,MXAva0021900
Electronics,MXTWE0013680
Electronics,MXStr0031113
Electronics,ELSon0038378
Electronics,ELSon0038379
Electronics,ELSon0038380
Electronics,MXiFa0022900
Electronics,MXHap0027497
Electronics,MXHap0027498
Electronics,MXHap0027499
Electronics,MXHap0027500
Electronics,MXHap0027501
Electronics,MXHap0027505
Electronics,MXHap0027506
Electronics,MXHap0027507
Electronics,MXHap0027508
Electronics,MXAva0026479
Electronics,MXAwe0026215
Electronics,MXAwe0026216
Electronics,MXWD0021337
Electronics,MXREM0026075
Electronics,MXSan0030082
Electronics,MXSan0030062
Electronics,ELApp0035435
Electronics,MXWD0021334
Electronics,MXEWA0026045
Electronics,ELAJ0041912
Electronics,ELAJ0041913
Electronics,ELAco0043578
Electronics,MXAJ0023345
Electronics,MXBTK0021914
Electronics,ELAJ0041907
Electronics,MXHap0027490
Electronics,MXHap0027491
Electronics,ELXIA0035760
Electronics,ELXIA0035761
Electronics,ELXIA0035762
Electronics,ELAsu0043662
Electronics,MXDiv0032972
Electronics,MXPar0026065
Electronics,MXPar0026066
Electronics,ELLog0038089
Electronics,MXDiv0032955
Electronics,MXiFa0022878
Electronics,MXiFa0022879
Electronics,MXiFa0022881
Electronics,MXStr0031100
Electronics,MXAwe0026206
Electronics,MXAwe0026207
Electronics,MXTar0023545
Electronics,MXElo0026034
Electronics,MXiFa0022886
Electronics,MXiFa0022887
Electronics,MXiFa0022888
Electronics,MXiFa0022889
Electronics,MXREM0032924
Electronics,MXSta0019700
Electronics,MXVOX0033480
Electronics,MXREM0032927
Electronics,MXREM0032936
Electronics,MXDiv0032943
Electronics,MXHav0030382
Electronics,MXAva0021905
Electronics,MXAJ0023346
Electronics,ELLog0038115
Electronics,MXMyA0026060
Electronics,MXPin0026483
Electronics,MXPHI0019005
Electronics,MXRap0026759
Electronics,MXRap0026761
Electronics,MXSan0026727
Electronics,MXSan0026736
Electronics,MXREM0032932
Electronics,MXREM0032940
Electronics,MXMUS0026051
Electronics,ELRap0035987
Electronics,MXKis0014574
Electronics,MXDiv0032960
Electronics,ELAJ0041903
Electronics,MXAJ0023333
Electronics,MXAJ0023344
Electronics,MXiRi0022902
Electronics,ELMic0038377
Electronics,MXHap0027510
Electronics,MXHap0027511
Electronics,MXHap0027484
Electronics,MXHap0027485
Electronics,MXHap0027486
Electronics,MXHap0027488
Electronics,MXKin0019484
Electronics,MXFit0026292
Electronics,MXSan0026740
Electronics,MXREM0032899
Electronics,MXSan0030080
Electronics,MXDDP0024770
Electronics,MXWD0021340
Electronics,MXAJ0023339
Electronics,GADWAS0021545
Electronics,MXWAS0016687
Electronics,MXAJ0023354
Electronics,MXREM0032830
Electronics,MXLog0023534
Electronics,ELAPO0039506
Electronics,ELAPO0039507
Electronics,ELAPO0039508
Electronics,ELAPO0039509
Electronics,MXSSK0021918
Electronics,MXSan0026741
Electronics,ELLog0038105
Electronics,BunELDEN0038514
Electronics,ELJBL0038496
Electronics,MXiRi0022901
Electronics,ELLog0038094
Electronics,MXDiv0032971
Electronics,MXDiv0032973
Electronics,MXCol0015009
Electronics,MXSan0026739
Electronics,MXTJJ0019194
Electronics,MXREM0032858
Electronics,MXREM0032859
Electronics,MXTJJ0019202
Electronics,MXRap0026754
Electronics,MXHav0030374
Electronics,MXHav0030377
Electronics,MXCas0032808
Electronics,MXXIA0026466
Electronics,MXSea0019621
Electronics,ELAWE0042372
Electronics,ELAWE0042373
Electronics,ELAWE0042374
Electronics,ELAWE0042375
Electronics,MXKin0019491
Electronics,MXSan0030081
Electronics,ELLog0038102
Electronics,MXAva0026476
Electronics,MXREM0032930
Electronics,MXUrb0015022
Electronics,MXAwe0026217
Electronics,MXTar0023548
Electronics,ELAJ0041906
Electronics,ELSea0041274
Electronics,ELApp0035430
Electronics,MXAwe0026210
Electronics,MXAwe0026213
Electronics,MXAwe0026214
Electronics,ELRap0035988
Electronics,ELRap0035990
Electronics,ELRap0035992
Electronics,MXCol0015011
Electronics,MXCol0015013
Electronics,MXCol0015014
Electronics,MXCHU0016486
Electronics,GADCHU0021534
Electronics,ELAco0043577
Electronics,MXLog0019497
Electronics,MXHap0027504
Electronics,MXHav0030376
Electronics,MXiRi0022904
Electronics,ELiGo0034177
Electronics,ELiGo0034178
Electronics,ELiGo0034179
Electronics,ELiGo0034180
Electronics,MXVOX0033481
Electronics,MXVOX0033482
Electronics,MXVOX0033483
Electronics,MXVOX0033487
Electronics,ELLog0038090
Electronics,MXStr0031109
Electronics,MXREM0032862
Electronics,MXSan0019118
Electronics,GADSan0028999
Electronics,ELAni0039594
Electronics,ELAni0039595
Electronics,ELAni0039597
Electronics,MXSan0019509
Electronics,MXStr0031102
Electronics,MXiWi0029451
Electronics,MXHav0030375
Electronics,MXHap0027487
Electronics,MXHap0027489
Electronics,MXREM0032935
Electronics,MXDiv0032967
Electronics,MXDiv0032968
Electronics,MXREM0032873
Electronics,MXREM0032874
Electronics,MXREM0032875
Electronics,ELEle0038399
Electronics,MXSan0019512
Electronics,ELXIA0035759
Electronics,MXAwe0026203
Electronics,MXAwe0026208
Electronics,MXKis0014575
Electronics,MXSta0019698
Electronics,MXElo0026036
Electronics,ELTDD0038213
Electronics,MXKin0019476
Electronics,MXLog0023540
Electronics,MXDiv0032957
Electronics,MXDiv0032959
Electronics,MXiWi0029452
Electronics,MXRap0026755
Electronics,MXCHU0016487
Electronics,GADCHU0021535
Electronics,GADCHU0021536
Electronics,MXCHU0016488
Electronics,GADCHU0021537
Electronics,MXCHU0016489
Electronics,MXREM0032925
Electronics,ELAni0039598
Electronics,MXTar0023550
Electronics,MXMUS0026053
Electronics,MXMUS0026056
Electronics,MXM&T0026470
Electronics,ELEle0038400
Electronics,MXVOX0033484
Electronics,MXVOX0033486
Electronics,MXVOX0033488
Electronics,MXREM0032934
Electronics,MXGP 0024337
Electronics,ELAJ0041904
Electronics,ELAJ0041908
Electronics,ELAni0039554
Electronics,MXHap0027492
Electronics,MXVOX0033489
Electronics,MXLog0019499
Electronics,ELREM0040023
Electronics,MXSib0029446
Electronics,MXDiv0032952
Electronics,MXDiv0032953
Electronics,MXAwe0031131
Electronics,MXAwe0031132
Electronics,MXAwe0031133
Electronics,MXiWi0029453
Electronics,ELRap0035986
Electronics,MXAva0021912
Electronics,MXStr0031110
Electronics,GADWAS0021546
Electronics,MXWAS0016688
Electronics,MXSan0026728
Electronics,MXHap0027509
Electronics,MXREM0032864
Electronics,MXiFa0022890
Electronics,MXiFa0022891
Electronics,MXiFa0022892
Electronics,MXiFa0022893
Electronics,MXVOX0033485
Electronics,ELCRE0038375
Electronics,MXSan0019519
Electronics,ELAni0039553
Electronics,ELboy0038219
Electronics,ELboy0038220
Electronics,ELboy0038221
Electronics,MXSan0026743
Electronics,ELXIA0035758
Electronics,MXInn0026724
Electronics,MXSib0029448
Electronics,ELX30042253
Electronics,ELX30042256
Electronics,MXAwe0026209
Electronics,MXAwe0026211
Electronics,MXAwe0026212
Electronics,MXAwe0031128
Electronics,MXAwe0031130
Electronics,ELREM0040024
Electronics,ELRap0035989
Electronics,ELRap0035991
Electronics,MXAJ0023343
Electronics,MXDiv0032961
Electronics,MXDiv0032962
Electronics,MXiFa0022895
Electronics,MXiFa0022896
Electronics,MXAwe0031125
Electronics,MXAwe0031126
Electronics,MXAwe0031127
Electronics,MXREM0032824
Electronics,MXiWi0029454
Electronics,MXCol0015010
Electronics,MXLog0019501
Electronics,MXREM0032901
Electronics,ELApp0035434
Electronics,MXEWA0026047
Electronics,MXSib0029444
Electronics,MXSib0029449
Electronics,MXTar0023549
Electronics,MXStr0031111
Electronics,ELAco0043576
Electronics,ELAco0043580
Electronics,MXREM0032832
Electronics,ELApp0035429
Electronics,MXStr0031112
Electronics,MXPar0026063
Electronics,MXDiv0032942
Electronics,ELAni0039571
Electronics,ELLog0038086
Electronics,MXSan0026730
Electronics,MXREM0032817
Electronics,ELREM0040017
Electronics,MXAva0021911
Electronics,MXAwe0026200
Electronics,MXAwe0026201
Electronics,MXAwe0026202
Electronics,ELTDD0042112
Electronics,ELTDD0042115
Electronics,ELTDD0042116
Electronics,MXStr0031104
Electronics,ELREM0040014
Electronics,MXRap0026752
Electronics,MXRap0026753
Electronics,MXRap0026756
Electronics,MXVOX0033490
Electronics,MXREM0032892
Electronics,MXKin0019486
Electronics,MXSib0029447
Electronics,MXSan0030070
Electronics,MXSan0030074
Electronics,MXSan0030078
Electronics,ELAco0043581
Electronics,MXAJ0023337
Electronics,MXAva0028482
Electronics,ELCRE0038374
Electronics,ELREM0038215
Electronics,ELREM0040022
Electronics,ELAni0039561
Electronics,ELAni0039565
Electronics,ELEle0038401
Electronics,MXLog0019494
Electronics,MXSan0019527
Electronics,MXiWi0029450
Electronics,MXREM0032866
Electronics,MXXIA0026468
Electronics,ELAni0039557
Electronics,ELAni0039558
Electronics,ELAni0039559
Electronics,MXREM0032926
Electronics,MXSan0026734
Electronics,ELboy0038218
Electronics,MXSan0019521
Electronics,MXSan0030077
Electronics,MXLog0019498
Electronics,MXREM0032823
Electronics,MXSib0029445
Electronics,ELREM0040013
Electronics,ELTDD0039499
Electronics,ELTDD0039500
Electronics,ELTDD0039501
Electronics,ELTDD0039502
Electronics,ELTDD0039503
Electronics,ELTDD0039504
Electronics,ELTDD0039505
Electronics,MXDiv0032965
Electronics,MXDiv0032966
Electronics,MXREM0032872
Electronics,MXRap0026762
Electronics,ELAni0039566
Electronics,MXREM0032828
Electronics,MXPro0026069
Electronics,MXREM0032850
Electronics,MXMUS0026052
Electronics,ELKin0035765
Electronics,MXAva0021902
Electronics,MXM&T0026471
Electronics,MXSti0022608
Electronics,MXDiv0032964
Electronics,ELAni0039582
Electronics,ELAni0039543
Electronics,ELAni0039549
Electronics,MXTJJ0019196
Electronics,MXTJJ0019197
Electronics,ELTDD0042114
Electronics,ELAni0039591
Electronics,MXRap0019623
Electronics,MXSan0030076
Electronics,ELREM0040012
Electronics,MXSan0030065
Electronics,MXKin0019477
Electronics,ELREM0040018
Electronics,MXCas0032797
Electronics,MXCas0032798
Electronics,MXCas0032799
Electronics,MXCas0032800
Electronics,MXCas0032801
Electronics,MXCas0032802
Electronics,MXCas0032804
Electronics,MXCas0032805
Electronics,MXCas0032807
Electronics,MXCas0032810
Electronics,MXCas0032811
Electronics,MXSti0022612
Electronics,MXSti0022619
Electronics,MXXIA0026467
Electronics,ELREM0040016
Electronics,MXREM0032931
Electronics,ELAni0039592
Electronics,ELAni0039564
Electronics,ELAni0039567
Electronics,ELAni0039568
Electronics,ELAni0039563
Electronics,MXCol0015007
Electronics,MXDiv0032970
Electronics,MXSan0030069
Electronics,MXTJJ0019201
Electronics,ELAni0039600
Electronics,MXSan0030073
Electronics,MXX30026079
Electronics,MXTar0023553
Electronics,MXSan0019511
Electronics,MXAva0021940
Electronics,MXREM0032863
Electronics,MXSti0022618
Electronics,ELREM0038216
Electronics,ELX30042258
Electronics,ELAni0039555
Electronics,MXSti0022611
Electronics,MXPar0031333
Electronics,MXREM0032815
Electronics,MXStr0031105
Electronics,ELAni0039556
Electronics,MXSan0030071
Electronics,MXSan0033493
Electronics,ELAni0039547
Electronics,ELAni0039548
Electronics,ELAni0039550
Electronics,ELAni0039551
Electronics,ELLog0038096
Electronics,MXEWA0026044
Electronics,MXEWA0026046
Electronics,MXAJ0023356
Electronics,ELAni0039581
Electronics,ELAni0039593
Electronics,MXPar0026067
Electronics,ELLog0038091
Electronics,MXSan0030079
Electronics,MXSan0019517
Electronics,MXREM0032821
Electronics,MXAwe0026204
Electronics,MXAwe0026205
Electronics,MXHav0030373
Electronics,MXREM0032841
Electronics,MXSti0022610
Electronics,MXTOK0022256
Electronics,MXKin0019490
Electronics,MXMyA0026057
Electronics,MXMyA0026058
Electronics,MXMUS0026054
Electronics,MXMUS0026055
Electronics,MXRos0031379
Electronics,MXAva0028480
Electronics,MXAva0028481
Electronics,MXSan0019526
Electronics,ELAJ0041901
Electronics,MXAJ0023355
Electronics,ELAni0039541
Electronics,MXREM0032885
Electronics,ELAni0039552
Electronics,MXLog0019500
Electronics,MXREM0032897
Electronics,MXREM0032898
Electronics,MXREM0032900
Electronics,MXKin0019483
Electronics,MXRap0026750
Electronics,ELAni0039539
Electronics,ELAni0039540
Electronics,MXREM0032822
Electronics,ELAni0039546
Electronics,ELAni0039588
Electronics,MXSti0022620
Electronics,MXSan0019516
Electronics,MXAwe0031129
Electronics,MXREM0032827
Electronics,ELAni0039536
Electronics,ELAni0039538
Electronics,ELLog0038087
Electronics,ELAni0039532
Electronics,ELAni0039596
Electronics,ELAni0039545
Electronics,MXStr0031108
Electronics,MXEWA0026048
Electronics,MXM&T0026472
Electronics,ELAni0039572
Electronics,MXCas0032812
Electronics,MXREM0032889
Electronics,MXSta0019701
Electronics,MXKin0019488
Electronics,MXKin0019493
Electronics,ELSan0040340
Electronics,MXTOK0022252
Electronics,MXKin0019485
Electronics,ELPIN0038226
Electronics,MXKin0019475
Electronics,MXSti0022613
Electronics,MXSan0026735
Electronics,ELAni0039590
Electronics,MXSti0022615
Electronics,MXRos0031372
Electronics,MXSan0019507
Electronics,MXX30026082
Electronics,MXLog0019496
Electronics,ELSan0040336
Electronics,ELAni0039560
Electronics,MXAva0021904
Electronics,ELAni0039574
Electronics,MXCHU0019124
Electronics,MXSta0019699
Electronics,MXKin0019487
Electronics,MXSti0022617
Electronics,MXKin0019479
Electronics,ELAni0039534
Electronics,MXStr0031103
Electronics,MXStr0031107
Electronics,MXKin0019482
Electronics,ELAni0039544
Electronics,MXSan0019518
Electronics,MXSan0019520
Electronics,MXRos0031378
Electronics,MXRos0031380
Electronics,MXCas0032796
Electronics,MXCas0032803
Electronics,MXCas0032806
Electronics,MXCas0032809
Electronics,MXREM0032831
Electronics,MXSan0019508
Electronics,ELAni0039562
Electronics,ELAni0039579
Electronics,ELAni0039580
Electronics,MXSan0019505
Electronics,MXX30026081
Electronics,MXX30026078
Electronics,ELTDD0042113
Electronics,ELTDD0042117
Electronics,MXSti0022616
Electronics,MXStr0031099
Electronics,MXREM0032847
Electronics,MXRos0031373
Electronics,MXRos0031383
Electronics,MXStr0031101
Electronics,ELAni0039569
Electronics,ELAni0039599
Electronics,MXREM0032878
Electronics,MXKin0033494
Electronics,MXREM0032867
Electronics,MXREM0032816
Electronics,ELSan0040337
Electronics,MXRap0026749
Electronics,ELAni0039584
Electronics,ELAni0039586
Electronics,MXSti0022607
Electronics,MXKin0019492
Electronics,ELAni0039537
Electronics,MXSta0019702
Electronics,MXREM0032818
Electronics,ELAni0039533
Electronics,ELAni0039535
Electronics,ELAni0039587
Electronics,MXSan0019506
Electronics,MXStr0031106
Electronics,MXRos0031385
Electronics,MXREM0032845
Electronics,MXGOL0026049
Electronics,MXREM0032890
Electronics,ELAni0039589
Electronics,ELLog0038092
Electronics,ELREM0038217
Electronics,BunELLen0041976
Electronics,BunELLen0041972
Electronics,GadLen0033329
Electronics,GadLen0033328
Electronics,ELLen0035716
Electronics,GadLen0033326
Electronics,GadLen0033327
Electronics,GadLen0033333
Electronics,GadLen0033334
Electronics,GadLen0033309
Electronics,ELLen0035714
Electronics,BunELLen0041977
Electronics,GadLen0033331
Electronics,GadLen0033335
Electronics,GadLen0033330
Electronics,BunELLen0041966
Electronics,GadLen0033324
Electronics,BunELLen0041970
Electronics,BunELLen0041967
Electronics,GadLen0033325
Electronics,BunELLen0041965
Electronics,ELLen0035715
Electronics,ELLen0035717
Electronics,GadLen0033332
Electronics,BunELLen0041797
Electronics,BunELLen0041796
Electronics,GadLen0033336
Electronics,GadLen0033337
Electronics,ELLen0035718
Electronics,BunELLen0041968
Electronics,MXLog0023537
Electronics,MXApp0015287
Electronics,MXApp0015286
Electronics,MXApp0014577
Electronics,MXApp0014576
Electronics,MXREM0032839
Electronics,MXREM0032871
Electronics,MXRap0026747
Electronics,MXSan0030068
Electronics,MXSea0019618
Electronics,MXTJJ0019203
