<?xml version="1.0" standalone="no"?>
<!DOCTYPE svg PUBLIC "-//W3C//DTD SVG 1.1//EN" "http://www.w3.org/Graphics/SVG/1.1/DTD/svg11.dtd" >
<svg xmlns="http://www.w3.org/2000/svg">
<metadata></metadata>
<defs>
<font id="thaisans_neueregular" horiz-adv-x="274" >
<font-face units-per-em="2048" ascent="1542" descent="-506" />
<missing-glyph horiz-adv-x="659" />
<glyph horiz-adv-x="0" />
<glyph unicode="&#xd;" horiz-adv-x="659" />
<glyph unicode=" "  horiz-adv-x="659" />
<glyph unicode="&#x09;" horiz-adv-x="659" />
<glyph unicode="&#xa0;" horiz-adv-x="659" />
<glyph unicode="!" d="M76 0v123h123v-123h-123zM76 246v819h123v-819h-123z" />
<glyph unicode="&#x22;" horiz-adv-x="499" d="M76 737v328h123v-328h-123zM301 737v328h123v-328h-123z" />
<glyph unicode="#" horiz-adv-x="1118" d="M76 301l26 100h156l57 215h-155l24 101h158l78 287h119l-78 -287h287l77 287h119l-78 -287h176l-26 -101h-176l-58 -215h176l-28 -100h-174l-80 -301h-119l80 301h-287l-80 -301h-118l79 301h-155zM377 401h287l57 215h-287z" />
<glyph unicode="$" horiz-adv-x="806" d="M76 61v103q41 -23 90 -41q41 -16 95 -28.5t114 -12.5q113 0 173 54t60 151q0 70 -40 109.5t-98 65t-128 46t-128 51.5t-98 82t-40 137q0 53 23.5 96.5t62.5 74t89 48t103 23.5v156h117v-156q55 -4 95 -13.5t69 -19.5q33 -10 55 -24v-103q-33 16 -74 31q-37 10 -89 20.5 t-124 10.5q-35 0 -71.5 -10.5t-66 -29t-48 -45t-18.5 -59.5q0 -57 40 -91t98 -57.5t128 -46t128 -57t98 -91t40 -148.5q0 -53 -12 -102.5t-41 -89.5t-80 -68.5t-127 -36.5v-158h-117v152q-70 2 -122 14t-87 27q-41 16 -69 36z" />
<glyph unicode="%" horiz-adv-x="1173" d="M76 854q0 145 56 221t144 76q84 0 137.5 -71.5t53.5 -213.5q0 -141 -58.5 -214.5t-142.5 -73.5t-137 70.5t-53 205.5zM195 858q0 -57 6 -93t16 -55.5t24.5 -25.5t30.5 -6q14 0 29.5 7t26 26.5t17.5 55.5t7 93t-7 95t-17.5 58.5t-25.5 29t-30 8.5q-16 0 -30.5 -8.5 t-24.5 -30t-16 -58t-6 -96.5zM215 0l688 1233h129l-688 -1233h-129zM707 248q0 145 56 221t144 76q84 0 137.5 -72t53.5 -213t-58.5 -213t-142.5 -72q-82 0 -136 69t-54 204zM825 252q0 -57 6.5 -93t16.5 -55.5t24.5 -25.5t30.5 -6t30.5 7t26 26.5t17.5 55.5t6 93t-6 95 t-17.5 58.5t-25.5 28.5t-31 8q-16 0 -30.5 -8t-24.5 -29.5t-16.5 -58.5t-6.5 -96z" />
<glyph unicode="&#x26;" horiz-adv-x="1134" d="M76 260q0 113 56 189.5t173 130.5q-45 29 -86 83t-41 132q0 111 80 170t197 59q49 0 96 -14.5t82 -42t56.5 -66.5t21.5 -86q0 -94 -53.5 -149.5t-153.5 -96.5q111 -59 172 -130.5t108 -141.5q33 47 57.5 98t41 102.5t24.5 98.5t8 86v35h123q-6 -121 -56 -257t-132 -251 q39 -47 85 -77t124 -30v-102q-104 0 -170 35t-113 88q-143 -139 -364 -139q-160 0 -248 65.5t-88 210.5zM199 260q0 -100 58.5 -139t154.5 -39q180 0 297 121q-31 43 -61 87t-65.5 85t-81.5 75.5t-108 57.5q-49 -20 -85 -41t-60.5 -48.5t-36.5 -65.5t-12 -93zM301 795 q0 -53 27.5 -99.5t83.5 -77.5q92 35 134 83t42 114q0 27 -14.5 46.5t-34 31.5t-43 18.5t-41.5 6.5q-76 0 -115 -37t-39 -86z" />
<glyph unicode="'" d="M76 737v328h123v-328h-123z" />
<glyph unicode="(" horiz-adv-x="417" d="M45 383q0 203 62.5 375t183.5 315h112q-121 -147 -182 -320t-61 -370q0 -195 61.5 -359.5t181.5 -308.5h-112q-121 135 -183.5 302t-62.5 366z" />
<glyph unicode=")" horiz-adv-x="417" d="M14 -285q121 143 182.5 308t61.5 360q0 197 -61.5 370t-182.5 320h113q121 -143 183.5 -315t62.5 -375q0 -199 -62.5 -366t-183.5 -302h-113z" />
<glyph unicode="*" horiz-adv-x="591" d="M76 788l166 86l-166 87l67 92l117 -111l-22 162h114l-24 -164l121 113l67 -92l-168 -87l168 -86l-67 -92l-121 113l24 -164h-114l22 162l-117 -111z" />
<glyph unicode="+" horiz-adv-x="765" d="M76 369v102h256v270h102v-270h256v-102h-256v-246h-102v246h-256z" />
<glyph unicode="," d="M-43 -221q33 37 59 74q23 33 41.5 71.5t18.5 75.5v123h123v-123q0 -45 -22.5 -85t-49.5 -71q-33 -37 -72 -65h-98z" />
<glyph unicode="-" horiz-adv-x="550" d="M76 389v103h399v-103h-399z" />
<glyph unicode="." d="M76 0v123h123v-123h-123z" />
<glyph unicode="/" horiz-adv-x="473" d="M14 0l330 1233h115l-330 -1233h-115z" />
<glyph unicode="0" horiz-adv-x="847" d="M45 481q0 133 27.5 234.5t79 170t120 103.5t152.5 35q80 0 148.5 -31.5t119.5 -96.5t81 -163t30 -229q0 -129 -33 -226.5t-87 -163t-126 -98t-151 -32.5q-78 0 -144.5 30.5t-115 93t-75 155.5t-26.5 218zM168 487q0 -211 71.5 -308t176.5 -97q55 0 103 24.5t84 75.5 t56.5 129.5t20.5 182.5q0 109 -20.5 188.5t-56.5 132.5t-84 80t-103 27q-104 0 -176 -106.5t-72 -328.5z" />
<glyph unicode="1" horiz-adv-x="468" d="M45 737v103q47 18 88 45.5t72 54.5q37 31 67 64h121v-1004h-123v840q-35 -23 -97 -55.5t-128 -47.5z" />
<glyph unicode="2" horiz-adv-x="694" d="M45 0v94q0 59 35 114.5t87 108t113.5 103.5t113.5 103t87 106.5t35 115.5q0 96 -49 136.5t-125 40.5q-66 0 -137.5 -20.5t-118.5 -67.5v102q43 45 108.5 66.5t147.5 21.5q129 0 213 -68.5t84 -197.5q0 -74 -33 -138.5t-83 -121t-109.5 -106.5t-111.5 -98t-89 -95t-43 -97 h510v-102h-635z" />
<glyph unicode="3" horiz-adv-x="714" d="M76 41v109q49 -41 107.5 -54.5t125.5 -13.5q49 0 92 11t75 34t51.5 56.5t19.5 80.5q0 102 -82 152.5t-287 50.5v96q92 0 164 23q31 8 60.5 22.5t52 34t37 47t14.5 62.5q0 94 -46 132t-116 38q-53 0 -116.5 -13.5t-110.5 -48.5v103q47 31 101 46t126 15q57 0 109.5 -18.5 t91.5 -51t61.5 -75.5t22.5 -95q0 -104 -52.5 -167.5t-152.5 -94.5q49 -6 93 -26.5t78 -53t54.5 -75t20.5 -93.5q0 -70 -27 -124t-75 -90.5t-114.5 -56t-144.5 -19.5q-72 0 -131 16t-102 41z" />
<glyph unicode="4" horiz-adv-x="737" d="M14 244v104l461 656h123v-656h125v-104h-125v-244h-123v244h-461zM147 348h328v473z" />
<glyph unicode="5" horiz-adv-x="673" d="M76 20v107q23 -14 53 -23q27 -10 62.5 -16t78.5 -6q115 0 175.5 53t60.5 156q0 102 -63.5 161.5t-170.5 59.5q-47 0 -83.5 -3t-61.5 -7q-29 -6 -51 -10v512h483v-103h-360v-297h73q172 0 264.5 -84t92.5 -221q0 -154 -96.5 -234.5t-262.5 -80.5q-72 0 -116.5 10t-77.5 26 z" />
<glyph unicode="6" horiz-adv-x="743" d="M45 442q0 287 111.5 434.5t304.5 147.5q47 0 94 -2t84 -18v-103q-23 4 -49 10q-23 4 -55.5 7.5t-73.5 3.5q-137 0 -215 -103.5t-78 -290.5q18 31 45 51.5t57.5 32t61 15.5t55.5 4q63 0 119.5 -23.5t99.5 -65.5t67.5 -101.5t24.5 -129.5q0 -72 -24.5 -132t-67.5 -103 t-102.5 -67.5t-130.5 -24.5q-147 0 -237.5 120.5t-90.5 337.5zM176 332q0 -117 51.5 -183.5t145.5 -66.5q41 0 77.5 18.5t65.5 49t45.5 72.5t16.5 89q0 109 -54.5 164t-150.5 55q-51 0 -88 -21.5t-61.5 -52t-36 -64t-11.5 -60.5z" />
<glyph unicode="7" horiz-adv-x="684" d="M14 901v103h656v-62l-359 -942h-123l338 901h-512z" />
<glyph unicode="8" horiz-adv-x="724" d="M45 266q0 88 44 161t132 116q-63 35 -99 93t-36 130q0 55 20.5 102t56.5 82t87 54.5t112 19.5q57 0 107.5 -21.5t88.5 -56.5t59.5 -82t21.5 -98q0 -72 -35 -130t-98 -93q88 -41 131 -117t43 -160q0 -139 -89 -210.5t-229 -71.5q-147 0 -232 71.5t-85 210.5zM168 287 q0 -92 50 -148.5t144 -56.5q92 0 143.5 56.5t51.5 148.5q0 39 -13.5 75.5t-38 65.5t-60.5 46.5t-83 17.5q-86 0 -140 -56.5t-54 -148.5zM209 754q0 -66 39 -113t114 -47q66 0 111 47t45 113q0 72 -45 120t-111 48q-78 0 -115.5 -48t-37.5 -120z" />
<glyph unicode="9" horiz-adv-x="743" d="M45 692q0 72 24.5 132.5t67.5 105.5t102.5 69.5t131.5 24.5q147 0 237 -123t90 -340q0 -287 -111.5 -432t-303.5 -145q-47 0 -94.5 2t-84.5 14v102q23 -6 50 -10q51 -10 129 -10q137 0 214.5 103.5t77.5 289.5q-18 -31 -44.5 -51.5t-57.5 -31.5t-61.5 -15t-55.5 -4 q-63 0 -119.5 23.5t-99.5 65.5t-67.5 100.5t-24.5 129.5zM166 692q0 -109 54 -164t151 -55q51 0 88 21.5t61.5 52.5t35.5 64.5t11 60.5q0 117 -51 183.5t-145 66.5q-41 0 -78 -18.5t-65.5 -49.5t-45 -73t-16.5 -89z" />
<glyph unicode=":" d="M76 0v123h123v-123h-123zM76 594v123h123v-123h-123z" />
<glyph unicode=";" d="M-43 -221q33 37 59 74q23 33 41.5 71.5t18.5 75.5v123h123v-123q0 -45 -22.5 -85t-49.5 -71q-33 -37 -72 -65h-98zM76 594v123h123v-123h-123z" />
<glyph unicode="&#x3c;" horiz-adv-x="739" d="M45 311v54l680 380v-114l-516 -293l516 -252v-111z" />
<glyph unicode="=" horiz-adv-x="765" d="M76 246v102h614v-102h-614zM76 471v102h614v-102h-614z" />
<glyph unicode="&#x3e;" horiz-adv-x="739" d="M14 -25v111l516 252l-516 293v114l680 -380v-54z" />
<glyph unicode="?" horiz-adv-x="643" d="M76 840v102q18 23 51 41q29 16 71 28.5t105 12.5q49 0 97.5 -14.5t85 -42t59 -70.5t22.5 -98q0 -53 -18.5 -92t-45 -69t-59 -53.5t-59.5 -45t-45 -45t-18 -52.5v-196h-123v196q0 59 37.5 98.5t84 74t85 73.5t38.5 98q0 72 -42 104t-99 32q-55 0 -97 -12.5t-71 -28.5 q-35 -18 -59 -41zM199 0v123h123v-123h-123z" />
<glyph unicode="@" horiz-adv-x="1339" d="M76 383q0 121 50 226.5t134 184t195.5 124t234.5 45.5q119 0 223.5 -38t182.5 -105.5t123 -159t45 -197.5q0 -82 -27 -148.5t-71 -113.5t-98 -73t-110 -26q-84 0 -119.5 37t-41.5 121q-37 -84 -84 -121t-123 -37q-47 0 -91 15.5t-79 49.5t-56.5 86t-21.5 124 q0 68 27.5 126t72.5 101t104.5 67.5t121.5 24.5q57 0 95 -23.5t54 -58.5l17 82h114l-57 -336q0 -43 8 -77q6 -29 19.5 -53.5t39.5 -24.5q45 0 79 26.5t57.5 65.5t35 84t11.5 82q0 59 -30 129t-86 129t-140 99t-195 40t-202 -46t-155.5 -115.5t-99 -154.5t-34.5 -161 q0 -82 30.5 -161t91 -141.5t147.5 -100t200 -37.5q80 0 156.5 17t138.5 40v-104q-70 -23 -144 -39.5t-151 -16.5q-123 0 -230.5 40t-187.5 113t-127 172t-47 218zM465 377q0 -94 40 -133t85 -39q86 0 133 64.5t47 217.5q0 53 -27.5 80t-74.5 27q-82 0 -142.5 -54.5 t-60.5 -162.5z" />
<glyph unicode="A" horiz-adv-x="888" d="M14 0l369 1004h123l368 -1004h-122l-99 266h-422l-100 -266h-117zM266 369h352l-174 501z" />
<glyph unicode="B" horiz-adv-x="786" d="M76 0v1004h286q135 0 211 -67t76 -169q0 -80 -47 -146.5t-129 -89.5q98 -16 168 -79.5t70 -165.5q0 -63 -26 -115.5t-72 -90.5t-109.5 -59.5t-136.5 -21.5h-291zM199 102h155q102 0 168 53.5t66 131.5q0 90 -66.5 142t-189.5 52h-133v-379zM199 584h120q94 0 150.5 41 t56.5 123q0 72 -48 112.5t-146 40.5h-133v-317z" />
<glyph unicode="C" horiz-adv-x="837" d="M45 492q0 123 37 221t103.5 167.5t158.5 106.5t205 37q76 0 150.5 -9t123.5 -32l-41 -102q-59 29 -113.5 35t-119.5 6q-86 0 -156.5 -31t-120 -87t-77 -136t-27.5 -176q0 -193 103.5 -301.5t277.5 -108.5q78 0 126 15.5t107 45.5l41 -102q-59 -33 -132 -45t-156 -12 q-111 0 -201 35.5t-154.5 101t-99.5 160t-35 211.5z" />
<glyph unicode="D" horiz-adv-x="940" d="M76 0v1004h280q264 0 401.5 -122t137.5 -370q0 -115 -40 -209t-111.5 -161.5t-174 -104.5t-225.5 -37h-268zM199 102h145q197 0 312.5 108.5t115.5 301.5q0 197 -108.5 293t-313.5 96h-151v-799z" />
<glyph unicode="E" horiz-adv-x="684" d="M76 0v1004h532v-103h-409v-348h368v-102h-368v-349h409v-102h-532z" />
<glyph unicode="F" horiz-adv-x="622" d="M76 0v1004h532v-103h-409v-348h368v-102h-368v-451h-123z" />
<glyph unicode="G" horiz-adv-x="960" d="M45 481q0 119 41 219.5t112.5 172t170 111.5t213.5 40q76 0 129 -10t88 -21q39 -14 65 -30v-103q-27 16 -67 31q-35 10 -91.5 20.5t-136.5 10.5q-88 0 -161.5 -33t-127 -91.5t-83 -139t-29.5 -177.5q0 -195 105.5 -297t281.5 -102q66 0 113 10t94 35v283h-225v102h348 v-459q-78 -41 -162 -55t-182 -14q-109 0 -200 33.5t-156.5 98t-102.5 157t-37 208.5z" />
<glyph unicode="H" horiz-adv-x="909" d="M76 0v1004h123v-431h512v431h123v-1004h-123v471h-512v-471h-123z" />
<glyph unicode="I" d="M76 0v1004h123v-1004h-123z" />
<glyph unicode="J" horiz-adv-x="520" d="M14 6l41 92q12 -4 29 -8q14 -4 32.5 -6t41.5 -2q164 0 164 270v652h122v-652q0 -180 -77.5 -274t-208.5 -94q-74 0 -111 10q-20 6 -33 12z" />
<glyph unicode="K" horiz-adv-x="796" d="M76 0v1004h123v-508l407 508h144l-275 -342l307 -662h-127l-260 561l-196 -248v-313h-123z" />
<glyph unicode="L" horiz-adv-x="622" d="M76 0v1004h123v-902h409v-102h-532z" />
<glyph unicode="M" horiz-adv-x="1196" d="M76 0v1004h164l348 -820l368 820h164v-1004h-123v829l-379 -829h-61l-358 825v-825h-123z" />
<glyph unicode="N" horiz-adv-x="970" d="M76 0v1004h153l543 -844v844h123v-1004h-154l-542 834v-834h-123z" />
<glyph unicode="O" horiz-adv-x="1052" d="M45 487q0 125 34 224.5t96.5 169t153.5 106.5t206 37q106 0 193 -37t149.5 -104.5t96.5 -161.5t34 -211q0 -125 -35 -223.5t-98.5 -166t-155.5 -102t-205 -34.5q-106 0 -193.5 34.5t-148.5 100t-94 159t-33 209.5zM168 487q0 -186 93 -295.5t253 -109.5 q172 0 271.5 111.5t99.5 316.5q0 92 -25.5 169t-72 130t-111 83t-141.5 30q-174 0 -270.5 -116t-96.5 -319z" />
<glyph unicode="P" horiz-adv-x="735" d="M76 0v1004h278q160 0 248 -79t88 -229q0 -147 -96 -237t-268 -90h-127v-369h-123zM199 471h127q121 0 181 62.5t60 160.5q0 100 -46 153.5t-167 53.5h-155v-430z" />
<glyph unicode="Q" horiz-adv-x="1052" d="M45 487q0 125 34 224.5t96.5 169t153.5 106.5t206 37q106 0 193 -37t149.5 -104.5t96.5 -161.5t34 -211q0 -170 -62.5 -289t-173.5 -180q25 -10 51.5 -24.5t48 -36t35 -51t13.5 -68.5h-115q0 29 -16.5 51t-40 39.5t-50 30t-45.5 18.5q-69 -16 -139 -16 q-106 0 -193.5 34.5t-148.5 100t-94 159t-33 209.5zM168 487q0 -186 93 -295.5t253 -109.5q172 0 271.5 111.5t99.5 316.5q0 92 -25.5 169t-72 130t-111 83t-141.5 30q-174 0 -270.5 -116t-96.5 -319z" />
<glyph unicode="R" horiz-adv-x="817" d="M76 0v1004h307q61 0 117.5 -17.5t98.5 -52.5t66.5 -86t24.5 -119q0 -104 -65.5 -164.5t-165.5 -83.5q47 -16 83 -71.5t70 -110.5l191 -299h-139l-175 279q-45 72 -87 111.5t-107 39.5h-96v-430h-123zM199 532h159q90 0 149.5 49.5t59.5 147.5q0 78 -55 125t-154 47h-159 v-369z" />
<glyph unicode="S" horiz-adv-x="806" d="M76 61v103q41 -23 90 -41q41 -16 95 -28.5t114 -12.5q113 0 173 54t60 151q0 70 -40 109.5t-98 65t-128 46t-128 51.5t-98 82t-40 137q0 59 28.5 105.5t74.5 77t105.5 47t118.5 16.5q72 0 127.5 -10t90.5 -21q41 -14 69 -30v-103q-33 16 -74 31q-37 10 -89 20.5 t-124 10.5q-35 0 -71.5 -10.5t-66 -29t-48 -45t-18.5 -59.5q0 -57 40 -91t98 -57.5t128 -46t128 -57t98 -91t40 -148.5q0 -59 -15.5 -114.5t-55 -97.5t-109.5 -66.5t-176 -24.5q-74 0 -130.5 11t-92.5 28q-45 16 -76 38z" />
<glyph unicode="T" horiz-adv-x="714" d="M14 901v103h686v-103h-276v-901h-123v901h-287z" />
<glyph unicode="U" horiz-adv-x="909" d="M76 381v623h123v-615q0 -154 56 -230.5t189 -76.5q129 0 198 71.5t69 223.5v627h123v-609q0 -213 -98.5 -312t-291.5 -99q-184 0 -276 96t-92 301z" />
<glyph unicode="V" horiz-adv-x="888" d="M14 1004h123l307 -861l308 861h122l-368 -1004h-123z" />
<glyph unicode="W" horiz-adv-x="1318" d="M14 1004h123l236 -861l256 861h82l215 -861l256 861h123l-308 -1004h-143l-184 799l-226 -799h-143z" />
<glyph unicode="X" horiz-adv-x="827" d="M14 0l328 502l-307 502h143l236 -400l256 400h143l-328 -502l328 -502h-143l-256 399l-256 -399h-144z" />
<glyph unicode="Y" horiz-adv-x="786" d="M14 1004h123l246 -515l266 515h123l-328 -637v-367h-122v360z" />
<glyph unicode="Z" horiz-adv-x="786" d="M14 0v31l574 870h-533v103h717v-31l-573 -871h551l2 -102h-738z" />
<glyph unicode="[" horiz-adv-x="401" d="M76 -285v1360h311v-100h-201v-1159h201v-101h-311z" />
<glyph unicode="\" horiz-adv-x="473" d="M14 1233h115l330 -1233h-115z" />
<glyph unicode="]" horiz-adv-x="401" d="M14 -184h201v1159h-201v100h312v-1360h-312v101z" />
<glyph unicode="^" horiz-adv-x="925" d="M76 395l340 680h53l381 -680h-115l-293 516l-252 -516h-114z" />
<glyph unicode="_" horiz-adv-x="765" d="M76 0h614v-98h-614v98z" />
<glyph unicode="`" horiz-adv-x="434" d="M76 1128h123l159 -227h-102z" />
<glyph unicode="a" horiz-adv-x="724" d="M76 195q2 68 29.5 109.5t67.5 65t85 32t84 8.5q53 0 91 4t61 10q27 8 43 16q0 117 -52.5 166t-138.5 49q-63 0 -106 -21.5t-72 -45.5q-33 -29 -51 -66l-41 92q20 37 57 66q31 25 83 46.5t130 21.5q53 0 107.5 -14.5t97.5 -47.5t70.5 -86t27.5 -129v-471h-112v82 q-29 -33 -83.5 -65.5t-131.5 -32.5q-110 0 -180 52q-67 49 -66 148v11zM188 195q0 -72 47.5 -97.5t106.5 -25.5q61 0 115.5 33.5t79.5 68.5v174l-58 -16q-25 -6 -55.5 -10.5t-61.5 -4.5t-61.5 -7t-56 -22.5t-41 -39t-15.5 -53.5z" />
<glyph unicode="b" horiz-adv-x="827" d="M76 0v1065h112v-430q25 31 62 55q31 23 77 40.5t107 17.5q53 0 114.5 -21.5t114 -67t86 -115t33.5 -163.5q0 -104 -31.5 -178t-80.5 -120t-111.5 -67.5t-124.5 -21.5q-61 0 -107 16.5t-77 36.5q-37 23 -62 55v-102h-112zM188 195q33 -33 70 -58q33 -23 78 -39t98 -16 q39 0 80 16.5t76 52t57.5 92t22.5 138.5q0 63 -22.5 114.5t-57.5 87t-76 54t-80 18.5q-53 0 -98 -17t-78 -40q-37 -25 -70 -55v-348z" />
<glyph unicode="c" horiz-adv-x="622" d="M45 348q0 90 27.5 164t78 126t119 81t150.5 29q41 0 73.5 -8.5t59.5 -18.5q29 -10 55 -25l-41 -92q-18 14 -41 25q-20 10 -46.5 18t-59.5 8q-53 0 -100.5 -21.5t-83 -61.5t-57 -96t-21.5 -128q0 -70 21.5 -120t57 -82.5t83 -48t100.5 -15.5q33 0 59.5 7t46.5 17 q23 10 41 27l41 -92q-25 -14 -55 -25q-27 -10 -63.5 -16t-79.5 -6q-80 0 -146.5 23.5t-116 68.5t-76 110.5t-26.5 151.5z" />
<glyph unicode="d" horiz-adv-x="827" d="M45 381q0 94 34 163.5t86 115t113.5 67t114.5 21.5q61 0 107.5 -17.5t77.5 -40.5q37 -25 61 -55v430h113v-1065h-113v102q-25 -33 -61 -55q-31 -20 -77 -36.5t-108 -16.5q-61 0 -123.5 21.5t-111.5 67.5t-81 119.5t-32 178.5zM158 381q0 -82 22.5 -138.5t57 -92t75.5 -52 t80 -16.5q53 0 98.5 16.5t77.5 38.5q37 25 70 58v348q-33 31 -70 55q-33 23 -78 40t-98 17q-39 0 -80 -18.5t-75.5 -54t-57 -87t-22.5 -114.5z" />
<glyph unicode="e" horiz-adv-x="722" d="M45 356q0 84 24.5 156t68.5 124t103.5 82t131.5 30q141 0 223 -92.5t82 -264.5v-53h-520q0 -131 68.5 -193.5t168.5 -62.5q55 0 92 10t60 25q25 16 41 37l41 -93q-27 -20 -62 -34q-31 -12 -73.5 -22.5t-98.5 -10.5q-78 0 -141.5 20.5t-110.5 64.5t-72.5 112.5 t-25.5 164.5zM158 430h403q-4 104 -53 164.5t-135 60.5q-84 0 -142.5 -63.5t-72.5 -161.5z" />
<glyph unicode="f" horiz-adv-x="479" d="M14 625v92h133v110q0 121 48.5 189.5t152.5 68.5q35 0 58.5 -2t35.5 -4q14 -2 23 -4v-92q-8 2 -19 4q-10 2 -23 4t-36 2q-66 0 -96.5 -39t-30.5 -127v-110h205v-92h-205v-625h-113v625h-133z" />
<glyph unicode="g" horiz-adv-x="827" d="M45 356q0 104 32 178t81 122.5t111.5 70t123.5 21.5t107.5 -17.5t77.5 -40.5q37 -25 61 -55v102h113v-714q0 -199 -94.5 -288t-295.5 -89q-61 0 -107 10t-77 25q-37 16 -61 36l41 93q20 -20 49 -37q25 -14 63.5 -24.5t91.5 -10.5q137 0 207 61.5t70 202.5v100 q-25 -33 -61 -55q-31 -20 -77 -36.5t-108 -16.5q-53 0 -114.5 20.5t-113.5 65.5t-86 112.5t-34 163.5zM158 356q0 -66 22.5 -116t57 -85.5t75.5 -54t80 -18.5q53 0 98.5 16.5t77.5 38.5q37 25 70 58v348q-33 31 -70 55q-33 23 -78 40t-98 17q-39 0 -80 -16t-75.5 -52 t-57 -92.5t-22.5 -138.5z" />
<glyph unicode="h" horiz-adv-x="765" d="M76 0v1065h112v-451q18 37 52 66q29 25 70.5 46.5t103.5 21.5q74 0 127 -20.5t85.5 -57.5t48 -86t15.5 -107v-477h-112v483q0 74 -53.5 118t-131.5 44q-53 0 -92 -19.5t-63 -41.5q-29 -27 -50 -62v-522h-112z" />
<glyph unicode="i" horiz-adv-x="264" d="M76 0v737h112v-737h-112zM76 852v111h112v-111h-112z" />
<glyph unicode="j" horiz-adv-x="264" d="M-207 -324l41 93q12 -8 25 -17q25 -14 53 -14q78 0 121 63.5t43 190.5v745h112v-725q0 -174 -72.5 -270t-203.5 -96q-33 0 -54.5 4t-35.5 10q-16 8 -29 16zM76 852v111h112v-111h-112z" />
<glyph unicode="k" horiz-adv-x="673" d="M76 0v1065h112v-739l314 391h125l-191 -238l223 -479h-106l-182 397l-183 -229v-168h-112z" />
<glyph unicode="l" horiz-adv-x="264" d="M76 0v1065h112v-1065h-112z" />
<glyph unicode="m" horiz-adv-x="1267" d="M76 0v737h112v-123q0 2 13.5 23.5t41 46.5t69.5 44.5t102 19.5q104 0 163.5 -39t88.5 -103q8 12 27.5 36t51 47.5t74.5 41t96 17.5q74 0 127.5 -20.5t86 -57.5t48 -86t15.5 -107v-477h-113v483q0 74 -53 118t-131 44q-53 0 -92 -19.5t-64 -41.5q-29 -27 -49 -62v-522 h-112v483q0 74 -53.5 118t-131.5 44q-53 0 -92 -19.5t-63 -41.5q-29 -27 -50 -62v-522h-112z" />
<glyph unicode="n" horiz-adv-x="765" d="M76 0v737h112v-123q18 37 52 66q29 25 70.5 46.5t103.5 21.5q74 0 127 -20.5t85.5 -57.5t48 -86t15.5 -107v-477h-112v483q0 74 -53.5 118t-131.5 44q-53 0 -92 -19.5t-63 -41.5q-29 -27 -50 -62v-522h-112z" />
<glyph unicode="o" horiz-adv-x="804" d="M45 358q0 186 97.5 288t267.5 102q160 0 255 -99.5t95 -273.5q0 -186 -97.5 -283.5t-267.5 -97.5q-160 0 -255 95t-95 269zM158 358q0 -131 64 -203.5t173 -72.5q117 0 184.5 75.5t67.5 217.5q0 129 -64.5 204.5t-172.5 75.5q-117 0 -184.5 -77.5t-67.5 -219.5z" />
<glyph unicode="p" horiz-adv-x="827" d="M76 -324v1061h112v-102q25 31 62 55q31 23 77 40.5t107 17.5t124 -21.5t112 -70t80.5 -122t31.5 -178.5q0 -96 -33.5 -163.5t-86 -112.5t-114 -65.5t-114.5 -20.5q-61 0 -107 16.5t-77 36.5q-37 23 -62 55v-426h-112zM188 195q33 -33 70 -58q33 -23 78 -39t98 -16 q39 0 80 18.5t76 54t57.5 86t22.5 115.5q0 82 -22.5 138.5t-57.5 92.5t-76 52t-80 16q-53 0 -98 -17t-78 -40q-37 -25 -70 -55v-348z" />
<glyph unicode="q" horiz-adv-x="827" d="M45 356q0 104 32 178t81 122.5t111.5 70t123.5 21.5t107.5 -17.5t77.5 -40.5q37 -25 61 -55v102h113v-1061h-113v426q-25 -33 -61 -55q-31 -20 -77 -36.5t-108 -16.5q-53 0 -114.5 20.5t-113.5 65.5t-86 112.5t-34 163.5zM158 356q0 -66 22.5 -116t57 -85.5t75.5 -54 t80 -18.5q53 0 98.5 16.5t77.5 38.5q37 25 70 58v348q-33 31 -70 55q-33 23 -78 40t-98 17q-39 0 -80 -16t-75.5 -52t-57 -92.5t-22.5 -138.5z" />
<glyph unicode="r" horiz-adv-x="462" d="M76 0v737h112v-194q18 57 45 102q23 39 58 71t82 32q16 0 29.5 -2.5t23.5 -4.5q12 -2 23 -4v-112q-10 2 -23 4q-10 2 -23.5 4t-29.5 2q-31 0 -64 -32t-59 -68q-33 -45 -62 -101v-434h-112z" />
<glyph unicode="s" horiz-adv-x="643" d="M76 31v92q23 -16 55 -27q27 -10 64.5 -17t85.5 -7q84 0 129 32.5t45 100.5q0 51 -28 79.5t-71 46t-91 30t-91 34t-70.5 58t-27.5 100.5q0 43 22.5 80t57 64.5t79 44t87.5 16.5q53 0 92 -8.5t63 -18.5q29 -10 49 -24v-93q-20 14 -51 25q-27 10 -64.5 18.5t-88.5 8.5 t-92.5 -33t-41.5 -80q0 -43 28 -63.5t71 -35t91 -26.5t91 -36.5t70.5 -68.5t27.5 -118q0 -43 -15 -83t-49 -71t-89.5 -49t-132.5 -18q-47 0 -85 6t-65 16q-33 10 -55 25z" />
<glyph unicode="t" horiz-adv-x="479" d="M14 625v92h133v348h113v-348h205v-92h-205v-377q0 -88 31 -127t96 -39q23 0 36 1t23 3t19 6v-92q-8 -2 -23 -4q-12 -2 -35.5 -2h-58.5q-104 0 -152.5 66.5t-48.5 187.5v377h-133z" />
<glyph unicode="u" horiz-adv-x="765" d="M76 260v477h112v-483q0 -74 53.5 -118t131.5 -44q53 0 92 19.5t63 42.5q29 27 50 61v522h112v-737h-112v123q-18 -37 -52 -66q-29 -25 -71.5 -44t-102.5 -19q-74 0 -127 20.5t-86 56t-48 84t-15 105.5z" />
<glyph unicode="v" horiz-adv-x="704" d="M14 737h133l215 -604l216 604h112l-256 -737h-143z" />
<glyph unicode="w" horiz-adv-x="1062" d="M14 737h133l154 -604l195 604h82l174 -604l174 604h123l-226 -737h-123l-163 584l-185 -584h-133z" />
<glyph unicode="x" horiz-adv-x="643" d="M14 0l246 369l-246 368h123l185 -276l184 276h123l-246 -379l246 -358h-123l-184 266l-185 -266h-123z" />
<glyph unicode="y" horiz-adv-x="753" d="M14 -324l41 93q12 -8 25 -17q25 -14 57 -14q45 0 78 19.5t55 76.5l70 166l-317 737h122l256 -583l215 583h123l-344 -878q-23 -55 -44 -96.5t-50 -67t-67.5 -37.5t-96.5 -12q-33 0 -54.5 4t-37.5 10q-18 8 -31 16z" />
<glyph unicode="z" horiz-adv-x="679" d="M76 0v33l420 612h-381v92h551v-39l-416 -606h409v-92h-583z" />
<glyph unicode="{" horiz-adv-x="428" d="M45 315v88q61 6 94 47.5t33 124.5v240q0 129 59.5 191.5t182.5 68.5v-100q-59 -4 -93 -45t-34 -119v-246q0 -82 -31 -136t-102 -75q68 -16 100.5 -70.5t32.5 -140.5v-233q0 -88 27.5 -126t99.5 -38v-100q-242 0 -242 250v241q0 162 -127 178z" />
<glyph unicode="|" horiz-adv-x="266" d="M76 -254v1430h114v-1430h-114z" />
<glyph unicode="}" horiz-adv-x="428" d="M14 -254q72 0 99.5 38t27.5 126v233q0 86 33 140.5t100 70.5q-72 20 -102.5 74.5t-30.5 136.5v246q0 78 -33.5 119t-93.5 45v100q123 -6 182.5 -68.5t59.5 -191.5v-240q0 -84 33 -124.5t94 -47.5v-88q-127 -16 -127 -178v-241q0 -250 -242 -250v100z" />
<glyph unicode="~" horiz-adv-x="763" d="M76 338q0 84 45 138t127 54q39 0 71.5 -17t65.5 -36.5t65.5 -37t71.5 -17.5q33 0 54.5 27.5t25.5 80.5h86q-4 -98 -49 -145t-125 -47q-41 0 -74.5 16.5t-65.5 37t-62.5 36.5t-63.5 16q-88 0 -88 -106h-84z" />
<glyph unicode="&#xa9;" horiz-adv-x="1345" d="M76 496q0 125 47 233.5t128 189t189.5 127t233.5 46.5t233.5 -46.5t189.5 -127t127 -189t46 -233.5t-46 -232.5t-127 -187.5t-189.5 -126t-233.5 -46t-233.5 46t-189.5 126t-128 187.5t-47 232.5zM137 496q0 -111 42 -208.5t115 -169t171 -112.5t209 -41t209 41 t169.5 112.5t113.5 169t42 208.5t-42 209t-113.5 169.5t-170 113.5t-208.5 42q-111 0 -209 -42t-171 -113.5t-115 -169.5t-42 -209zM344 485q0 88 26.5 158t75 119t116 75.5t149.5 26.5q47 0 98 -6t88 -20l-25 -54q-37 16 -78.5 21.5t-82.5 5.5q-68 0 -123.5 -23.5 t-93 -66.5t-59 -103.5t-21.5 -132.5q0 -150 80.5 -233.5t216.5 -83.5q53 0 86.5 9t74.5 32l25 -57q-41 -23 -91 -31t-106 -8q-162 0 -259 99t-97 273z" />
<glyph unicode="&#xad;" horiz-adv-x="550" d="M76 389v103h399v-103h-399z" />
<glyph unicode="&#xae;" horiz-adv-x="1345" d="M76 496q0 125 47 233.5t128 189t189.5 127t233.5 46.5t233.5 -46.5t189.5 -127t127 -189t46 -233.5t-46 -232.5t-127 -187.5t-189.5 -126t-233.5 -46t-233.5 46t-189.5 126t-128 187.5t-47 232.5zM137 496q0 -111 42 -208.5t115 -169t171 -112.5t209 -41t209 41 t169.5 112.5t113.5 169t42 208.5t-42 209t-113.5 169.5t-170 113.5t-208.5 42q-111 0 -209 -42t-171 -113.5t-115 -169.5t-42 -209zM465 143v731h219q90 0 153.5 -49t63.5 -145q0 -49 -14.5 -84t-39 -58.5t-57 -37t-67.5 -19.5q37 -20 67.5 -53t47.5 -61l143 -224h-84 l-123 203q-33 53 -80 86t-76 33h-83v-322h-70zM535 520h108q37 0 71 10.5t59.5 30t41.5 49t16 70.5q0 61 -44 99t-121 38h-131v-297z" />
<glyph unicode="&#xbc;" horiz-adv-x="1415" d="M90 1061v57q25 10 48.5 25.5t39.5 30.5q20 16 37 34h66v-553h-68v463q-18 -12 -53 -30.5t-70 -26.5zM322 0l739 1233h115l-740 -1233h-114zM979 176v57l252 361h67v-361h70v-57h-70v-135h-67v135h-252zM1053 233h178v261z" />
<glyph unicode="&#xbd;" horiz-adv-x="1441" d="M90 1061v57q25 10 48.5 25.5t39.5 30.5q20 16 37 34h66v-553h-68v463q-18 -12 -53 -30.5t-70 -26.5zM322 0l739 1233h115l-740 -1233h-114zM1024 41v53q0 51 41 95t91 87t91 87.5t41 95.5q0 53 -27.5 75.5t-70.5 22.5q-35 0 -76 -11t-67 -38v57q49 49 143 49 q72 0 119 -38.5t47 -110.5q0 -63 -39 -112.5t-87 -92.5t-89 -82t-47 -80h284v-57h-354z" />
<glyph unicode="&#xbe;" horiz-adv-x="1413" d="M76 688v60q29 -23 60.5 -30t68.5 -7q53 0 91 24.5t38 75.5q0 55 -44 83t-157 28v53q49 2 88 12q35 10 62.5 30.5t27.5 59.5q0 53 -24.5 73.5t-63.5 20.5q-29 0 -63.5 -7t-61.5 -25v55q53 35 125 35q66 0 111 -38t45 -95q0 -109 -113 -144q53 -8 94 -44t41 -91 q0 -78 -55 -120t-141 -42q-41 0 -73 9.5t-56 23.5zM319 0l740 1233h115l-740 -1233h-115zM977 176v57l252 361h67v-361h70v-57h-70v-135h-67v135h-252zM1051 233h178v261z" />
<glyph unicode="&#x2000;" horiz-adv-x="682" />
<glyph unicode="&#x2001;" horiz-adv-x="1365" />
<glyph unicode="&#x2002;" horiz-adv-x="682" />
<glyph unicode="&#x2003;" horiz-adv-x="1365" />
<glyph unicode="&#x2004;" horiz-adv-x="455" />
<glyph unicode="&#x2005;" horiz-adv-x="341" />
<glyph unicode="&#x2006;" horiz-adv-x="227" />
<glyph unicode="&#x2007;" horiz-adv-x="227" />
<glyph unicode="&#x2008;" horiz-adv-x="170" />
<glyph unicode="&#x2009;" horiz-adv-x="273" />
<glyph unicode="&#x200a;" horiz-adv-x="75" />
<glyph unicode="&#x2010;" horiz-adv-x="550" d="M76 389v103h399v-103h-399z" />
<glyph unicode="&#x2011;" horiz-adv-x="550" d="M76 389v103h399v-103h-399z" />
<glyph unicode="&#x2012;" horiz-adv-x="550" d="M76 389v103h399v-103h-399z" />
<glyph unicode="&#x2013;" horiz-adv-x="765" d="M76 389v103h614v-103h-614z" />
<glyph unicode="&#x2014;" horiz-adv-x="1155" d="M76 389v103h1003v-103h-1003z" />
<glyph unicode="&#x2018;" d="M76 737v123q0 47 21.5 87t49.5 71q31 37 72 67h103q-35 -37 -62 -73q-23 -33 -42 -73t-19 -79v-123h-123z" />
<glyph unicode="&#x2019;" d="M-43 737q33 37 59 74q23 33 41.5 73t18.5 79v122h123v-122q0 -47 -22.5 -88t-49.5 -72q-33 -37 -72 -66h-98z" />
<glyph unicode="&#x201c;" horiz-adv-x="499" d="M76 737v123q0 47 21.5 87t49.5 71q31 37 72 67h103q-35 -37 -62 -73q-23 -33 -42 -73t-19 -79v-123h-123zM301 737v123q0 47 21.5 87t50.5 71q31 37 71 67h103q-35 -37 -62 -73q-23 -33 -42 -73t-19 -79v-123h-123z" />
<glyph unicode="&#x201d;" horiz-adv-x="499" d="M-43 737q33 37 59 74q23 33 41.5 73t18.5 79v122h123v-122q0 -47 -22.5 -88t-49.5 -72q-33 -37 -72 -66h-98zM178 737q35 37 62 74q23 33 42 73t19 79v122h123v-122q0 -47 -22.5 -88t-49.5 -72q-33 -37 -71 -66h-103z" />
<glyph unicode="&#x2022;" horiz-adv-x="524" d="M76 444q0 39 14 73t40 59.5t59.5 40t72.5 14.5q78 0 132.5 -54.5t54.5 -132.5q0 -39 -14.5 -72.5t-40 -59t-59.5 -40t-73 -14.5q-78 0 -132 54.5t-54 131.5z" />
<glyph unicode="&#x2026;" horiz-adv-x="1134" d="M76 0v123h123v-123h-123zM506 0v123h123v-123h-123zM936 0v123h123v-123h-123z" />
<glyph unicode="&#x202f;" horiz-adv-x="273" />
<glyph unicode="&#x205f;" horiz-adv-x="341" />
<glyph unicode="&#x20ac;" horiz-adv-x="1032" d="M76 338v102h102v52v30.5t2 30.5h-104v102h121q43 174 171 271.5t314 97.5q76 0 150.5 -9t123.5 -32l-41 -102q-59 29 -113 35t-120 6q-133 0 -226.5 -72t-131.5 -195h407v-102h-428q-2 -16 -2 -30.5v-30.5v-26.5t2 -25.5h387v-102h-368q37 -123 131 -189.5t229 -66.5 q78 0 126 15.5t107 45.5l41 -102q-59 -33 -131.5 -45t-156.5 -12q-182 0 -307 93t-166 261h-119z" />
<glyph unicode="&#x2122;" horiz-adv-x="792" d="M76 969v35h239v-35h-96v-314h-43v314h-100zM362 655v349h56l121 -283l129 283h49v-349h-35v287l-133 -287h-21l-125 287v-287h-41z" />
<glyph unicode="&#x25fc;" horiz-adv-x="737" d="M0 0v737h737v-737h-737z" />
</font>
</defs></svg> 