{
  "id": "e3157afa",
  "cfgVersion": 1,
  "name": "sanoga_mobile",
  "files": {
    "36604951": {
      "id": "36604951",
      "pid": "e3157afa",
      "name": "uniform.default.scss",
      "input": "js\\uniform\\themes\\default\\css\\uniform.default.scss",
      "customOutput": false,
      "type": "Scss",
      "config": {
        "autoCompile": true,
        "lineNumbers": false,
        "unixNewlines": false,
        "sourcemaps": false,
        "debug": false,
        "compass": false,
        "fullCompass": false,
        "outputStyle": "expanded",
        "autoprefixer": false
      }
    },
    "7f991e24": {
      "id": "7f991e24",
      "pid": "e3157afa",
      "name": "dnd.js",
      "input": "js\\dnd.js",
      "customOutput": false,
      "type": "Js",
      "config": {
        "autoCompile": true,
        "uglify": true,
        "mangle": true,
        "sourcemaps": false
      }
    },
    "6309a643": {
      "id": "6309a643",
      "pid": "e3157afa",
      "name": "Hoverintent.js",
      "input": "js\\Hoverintent.js",
      "customOutput": false,
      "type": "Js",
      "config": {
        "autoCompile": true,
        "uglify": true,
        "mangle": true,
        "sourcemaps": false
      }
    },
    "2f510de7": {
      "id": "2f510de7",
      "pid": "e3157afa",
      "name": "iphone.js",
      "input": "js\\iphone.js",
      "customOutput": false,
      "type": "Js",
      "config": {
        "autoCompile": true,
        "uglify": true,
        "mangle": true,
        "sourcemaps": false
      }
    },
    "d8e07d55": {
      "id": "d8e07d55",
      "pid": "e3157afa",
      "name": "jquery.combine.compress.js",
      "input": "js\\jquery.combine.compress.js",
      "customOutput": false,
      "type": "Js",
      "config": {
        "autoCompile": true,
        "uglify": true,
        "mangle": true,
        "sourcemaps": false
      }
    },
    "fa1e0626": {
      "id": "fa1e0626",
      "pid": "e3157afa",
      "name": "jquery.combine.js",
      "input": "js\\jquery.combine.js",
      "customOutput": false,
      "type": "Js",
      "config": {
        "autoCompile": true,
        "uglify": true,
        "mangle": true,
        "sourcemaps": false
      }
    },
    "54eb43cc": {
      "id": "54eb43cc",
      "pid": "e3157afa",
      "name": "jquery.easing.1.3.js",
      "input": "js\\jquery.easing.1.3.js",
      "customOutput": false,
      "type": "Js",
      "config": {
        "autoCompile": true,
        "uglify": true,
        "mangle": true,
        "sourcemaps": false
      }
    },
    "f2dd8d69": {
      "id": "f2dd8d69",
      "pid": "e3157afa",
      "name": "jquery.form.js",
      "input": "js\\jquery.form.js",
      "customOutput": false,
      "type": "Js",
      "config": {
        "autoCompile": true,
        "uglify": true,
        "mangle": true,
        "sourcemaps": false
      }
    },
    "de5ffe1d": {
      "id": "de5ffe1d",
      "pid": "e3157afa",
      "name": "jquery.js",
      "input": "js\\jquery.js",
      "customOutput": false,
      "type": "Js",
      "config": {
        "autoCompile": true,
        "uglify": true,
        "mangle": true,
        "sourcemaps": false
      }
    },
    "7f17e72d": {
      "id": "7f17e72d",
      "pid": "e3157afa",
      "name": "jquery.modal.js",
      "input": "js\\jquery.modal.js",
      "customOutput": false,
      "type": "Js",
      "config": {
        "autoCompile": true,
        "uglify": true,
        "mangle": true,
        "sourcemaps": false
      }
    },
    "be052532": {
      "id": "be052532",
      "pid": "e3157afa",
      "name": "jquery.noconflict.js",
      "input": "js\\jquery.noconflict.js",
      "customOutput": false,
      "type": "Js",
      "config": {
        "autoCompile": true,
        "uglify": true,
        "mangle": true,
        "sourcemaps": false
      }
    },
    "86e34c11": {
      "id": "86e34c11",
      "pid": "e3157afa",
      "name": "jquery.prettyPhoto.js",
      "input": "js\\jquery.prettyPhoto.js",
      "customOutput": false,
      "type": "Js",
      "config": {
        "autoCompile": true,
        "uglify": true,
        "mangle": true,
        "sourcemaps": false
      }
    },
    "1d3c41d6": {
      "id": "1d3c41d6",
      "pid": "e3157afa",
      "name": "modernizr.js",
      "input": "js\\modernizr.js",
      "customOutput": false,
      "type": "Js",
      "config": {
        "autoCompile": true,
        "uglify": true,
        "mangle": true,
        "sourcemaps": false
      }
    },
    "865d752e": {
      "id": "865d752e",
      "pid": "e3157afa",
      "name": "onepagecheckout.js",
      "input": "js\\onepagecheckout.js",
      "customOutput": false,
      "type": "Js",
      "config": {
        "autoCompile": true,
        "uglify": true,
        "mangle": true,
        "sourcemaps": false
      }
    },
    "13ac9974": {
      "id": "13ac9974",
      "pid": "e3157afa",
      "name": "oscheckout.js",
      "input": "js\\oscheckout.js",
      "customOutput": false,
      "type": "Js",
      "config": {
        "autoCompile": true,
        "uglify": true,
        "mangle": true,
        "sourcemaps": false
      }
    },
    "1add7210": {
      "id": "1add7210",
      "pid": "e3157afa",
      "name": "petloft_checkout.js",
      "input": "js\\petloft_checkout.js",
      "customOutput": false,
      "type": "Js",
      "config": {
        "autoCompile": true,
        "uglify": true,
        "mangle": true,
        "sourcemaps": false
      }
    },
    "dbb1d986": {
      "id": "dbb1d986",
      "pid": "e3157afa",
      "name": "petloft_sidebar_blockshipping.js",
      "input": "js\\petloft_sidebar_blockshipping.js",
      "customOutput": false,
      "type": "Js",
      "config": {
        "autoCompile": true,
        "uglify": true,
        "mangle": true,
        "sourcemaps": false
      }
    },
    "ff82a0ad": {
      "id": "ff82a0ad",
      "pid": "e3157afa",
      "name": "scripts.js",
      "input": "js\\scripts.js",
      "customOutput": false,
      "type": "Js",
      "config": {
        "autoCompile": true,
        "uglify": true,
        "mangle": true,
        "sourcemaps": false
      }
    },
    "491a128a": {
      "id": "491a128a",
      "pid": "e3157afa",
      "name": "scripts_1.js",
      "input": "js\\scripts_1.js",
      "customOutput": false,
      "type": "Js",
      "config": {
        "autoCompile": true,
        "uglify": true,
        "mangle": true,
        "sourcemaps": false
      }
    },
    "97d1527a": {
      "id": "97d1527a",
      "pid": "e3157afa",
      "name": "scripts_slide.js",
      "input": "js\\scripts_slide.js",
      "customOutput": false,
      "type": "Js",
      "config": {
        "autoCompile": true,
        "uglify": true,
        "mangle": true,
        "sourcemaps": false
      }
    },
    "5f87b02e": {
      "id": "5f87b02e",
      "pid": "e3157afa",
      "name": "tms-0.3.js",
      "input": "js\\tms-0.3.js",
      "customOutput": false,
      "type": "Js",
      "config": {
        "autoCompile": true,
        "uglify": true,
        "mangle": true,
        "sourcemaps": false
      }
    },
    "9903500e": {
      "id": "9903500e",
      "pid": "e3157afa",
      "name": "tms_presets.js",
      "input": "js\\tms_presets.js",
      "customOutput": false,
      "type": "Js",
      "config": {
        "autoCompile": true,
        "uglify": true,
        "mangle": true,
        "sourcemaps": false
      }
    },
    "e331a55f": {
      "id": "e331a55f",
      "pid": "e3157afa",
      "name": "README.md",
      "input": "js\\uniform\\theme-kit\\README.md",
      "customOutput": false,
      "type": "Md",
      "config": {
        "autoCompile": true,
        "sanitize": false,
        "gfm": true
      }
    },
    "78f289a9": {
      "id": "78f289a9",
      "pid": "e3157afa",
      "name": "iphone.less",
      "input": "less\\iphone.less",
      "customOutput": false,
      "type": "Less",
      "config": {
        "autoCompile": false,
        "compress": false,
        "sourcemaps": false,
        "cleancss": true,
        "strictMath": false,
        "strictUnits": false,
        "autoprefixer": true
      }
    },
    "eee27bd6": {
      "id": "eee27bd6",
      "pid": "e3157afa",
      "name": "uniform.agent.scss",
      "input": "js\\uniform\\themes\\agent\\css\\uniform.agent.scss",
      "customOutput": false,
      "type": "Scss",
      "config": {
        "autoCompile": true,
        "lineNumbers": false,
        "unixNewlines": false,
        "sourcemaps": false,
        "debug": false,
        "compass": false,
        "fullCompass": false,
        "outputStyle": "expanded",
        "autoprefixer": false
      }
    },
    "42f85b64": {
      "id": "42f85b64",
      "pid": "e3157afa",
      "name": "uniform.aristo.scss",
      "input": "js\\uniform\\themes\\aristo\\css\\uniform.aristo.scss",
      "customOutput": false,
      "type": "Scss",
      "config": {
        "autoCompile": true,
        "lineNumbers": false,
        "unixNewlines": false,
        "sourcemaps": false,
        "debug": false,
        "compass": false,
        "fullCompass": false,
        "outputStyle": "expanded",
        "autoprefixer": false
      }
    },
    "0730a219": {
      "id": "0730a219",
      "pid": "e3157afa",
      "name": "uniform.jeans.scss",
      "input": "js\\uniform\\themes\\jeans\\css\\uniform.jeans.scss",
      "customOutput": false,
      "type": "Scss",
      "config": {
        "autoCompile": true,
        "lineNumbers": false,
        "unixNewlines": false,
        "sourcemaps": false,
        "debug": false,
        "compass": false,
        "fullCompass": false,
        "outputStyle": "expanded",
        "autoprefixer": false
      }
    },
    "95a05515": {
      "id": "95a05515",
      "pid": "e3157afa",
      "name": "uniform._base.scss",
      "input": "js\\uniform\\themes\\_base\\css\\uniform._base.scss",
      "customOutput": false,
      "type": "Scss",
      "config": {
        "autoCompile": true,
        "lineNumbers": false,
        "unixNewlines": false,
        "sourcemaps": false,
        "debug": false,
        "compass": false,
        "fullCompass": false,
        "outputStyle": "expanded",
        "autoprefixer": false
      }
    }
  },
  "imports": {
    "95a05515": {
      "id": "95a05515",
      "pid": "e3157afa",
      "path": "js\\uniform\\themes\\_base\\css\\uniform._base.scss",
      "parents": [
        "42f85b64",
        "eee27bd6",
        "36604951",
        "0730a219"
      ]
    },
    "18bf2c4b": {
      "id": "18bf2c4b",
      "pid": "e3157afa",
      "path": "less\\fonts.less",
      "parents": [
        "78f289a9"
      ]
    },
    "ad41429c": {
      "id": "ad41429c",
      "pid": "e3157afa",
      "path": "less\\global.less",
      "parents": [
        "78f289a9"
      ]
    },
    "7cd07d7a": {
      "id": "7cd07d7a",
      "pid": "e3157afa",
      "path": "less\\variables.less",
      "parents": [
        "78f289a9"
      ]
    },
    "5a6ac164": {
      "id": "5a6ac164",
      "pid": "e3157afa",
      "path": "less\\header.less",
      "parents": [
        "78f289a9"
      ]
    },
    "130f93b5": {
      "id": "130f93b5",
      "pid": "e3157afa",
      "path": "less\\nav.less",
      "parents": [
        "78f289a9"
      ]
    },
    "2eb61e94": {
      "id": "2eb61e94",
      "pid": "e3157afa",
      "path": "less\\footer.less",
      "parents": [
        "78f289a9"
      ]
    },
    "ea334b20": {
      "id": "ea334b20",
      "pid": "e3157afa",
      "path": "less\\slider-product.less",
      "parents": [
        "78f289a9"
      ]
    },
    "47b2871e": {
      "id": "47b2871e",
      "pid": "e3157afa",
      "path": "less\\slider-baner.less",
      "parents": [
        "78f289a9"
      ]
    },
    "93a714ce": {
      "id": "93a714ce",
      "pid": "e3157afa",
      "path": "less\\slider-brand.less",
      "parents": [
        "78f289a9"
      ]
    },
    "f803bf35": {
      "id": "f803bf35",
      "pid": "e3157afa",
      "path": "less\\breadcrumbs.less",
      "parents": [
        "78f289a9"
      ]
    },
    "b17cc3c6": {
      "id": "b17cc3c6",
      "pid": "e3157afa",
      "path": "less\\category.less",
      "parents": [
        "78f289a9"
      ]
    },
    "e9221b67": {
      "id": "e9221b67",
      "pid": "e3157afa",
      "path": "less\\product.less",
      "parents": [
        "78f289a9"
      ]
    },
    "6cbb8e78": {
      "id": "6cbb8e78",
      "pid": "e3157afa",
      "path": "less\\checkout.less",
      "parents": [
        "78f289a9"
      ]
    },
    "eb62b3ee": {
      "id": "eb62b3ee",
      "pid": "e3157afa",
      "path": "less\\log-reg.less",
      "parents": [
        "78f289a9"
      ]
    },
    "f90164ef": {
      "id": "f90164ef",
      "pid": "e3157afa",
      "path": "less\\cart.less",
      "parents": [
        "78f289a9"
      ]
    },
    "cf00d516": {
      "id": "cf00d516",
      "pid": "e3157afa",
      "path": "less\\order-success.less",
      "parents": [
        "78f289a9"
      ]
    },
    "30eb86bc": {
      "id": "30eb86bc",
      "pid": "e3157afa",
      "path": "less\\my-account.less",
      "parents": [
        "78f289a9"
      ]
    },
    "e8d5411d": {
      "id": "e8d5411d",
      "pid": "e3157afa",
      "path": "less\\search-result.less",
      "parents": [
        "78f289a9"
      ]
    }
  },
  "images": {
    "36448382": {
      "id": "36448382",
      "pid": "e3157afa",
      "path": "images\\home-cash-on-delivery.jpg",
      "size": 41916,
      "name": "home-cash-on-delivery.jpg",
      "type": "Jpg",
      "initialSize": 41916,
      "status": "NOT_OPTIMIZED"
    },
    "56749653": {
      "id": "56749653",
      "pid": "e3157afa",
      "path": "js\\uniform\\themes\\jeans\\images\\sprite-jeans.png",
      "size": 599848,
      "name": "sprite-jeans.png",
      "type": "Png",
      "initialSize": 599848,
      "status": "NOT_OPTIMIZED"
    },
    "74676419": {
      "id": "74676419",
      "pid": "e3157afa",
      "path": "images\\bg-fb-question.png",
      "size": 17766,
      "name": "bg-fb-question.png",
      "type": "Png",
      "initialSize": 17766,
      "status": "NOT_OPTIMIZED"
    },
    "94827002": {
      "id": "94827002",
      "pid": "e3157afa",
      "path": "images\\controls.png",
      "size": 2806,
      "name": "controls.png",
      "type": "Png",
      "initialSize": 2806,
      "status": "NOT_OPTIMIZED"
    },
    "898bbe92": {
      "id": "898bbe92",
      "pid": "e3157afa",
      "path": "images\\arrow_left.png",
      "size": 1101,
      "name": "arrow_left.png",
      "type": "Png",
      "initialSize": 1101,
      "status": "NOT_OPTIMIZED"
    },
    "c87b8c9b": {
      "id": "c87b8c9b",
      "pid": "e3157afa",
      "path": "images\\arrow_left_retina.png",
      "size": 1156,
      "name": "arrow_left_retina.png",
      "type": "Png",
      "initialSize": 1156,
      "status": "NOT_OPTIMIZED"
    },
    "523fb293": {
      "id": "523fb293",
      "pid": "e3157afa",
      "path": "images\\arrow_right.png",
      "size": 1102,
      "name": "arrow_right.png",
      "type": "Png",
      "initialSize": 1102,
      "status": "NOT_OPTIMIZED"
    },
    "d960b297": {
      "id": "d960b297",
      "pid": "e3157afa",
      "path": "images\\arrow_right_retina.png",
      "size": 1175,
      "name": "arrow_right_retina.png",
      "type": "Png",
      "initialSize": 1175,
      "status": "NOT_OPTIMIZED"
    },
    "c04d2af0": {
      "id": "c04d2af0",
      "pid": "e3157afa",
      "path": "images\\bg-filter.png",
      "size": 17739,
      "name": "bg-filter.png",
      "type": "Png",
      "initialSize": 17739,
      "status": "NOT_OPTIMIZED"
    },
    "5f6577cc": {
      "id": "5f6577cc",
      "pid": "e3157afa",
      "path": "images\\bg-footer.jpg",
      "size": 20020,
      "name": "bg-footer.jpg",
      "type": "Jpg",
      "initialSize": 20020,
      "status": "NOT_OPTIMIZED"
    },
    "039fbd1d": {
      "id": "039fbd1d",
      "pid": "e3157afa",
      "path": "images\\bg-header.jpg",
      "size": 20275,
      "name": "bg-header.jpg",
      "type": "Jpg",
      "initialSize": 20275,
      "status": "NOT_OPTIMIZED"
    },
    "3038b20b": {
      "id": "3038b20b",
      "pid": "e3157afa",
      "path": "images\\bg-slider.png",
      "size": 17789,
      "name": "bg-slider.png",
      "type": "Png",
      "initialSize": 17789,
      "status": "NOT_OPTIMIZED"
    },
    "670d9ec0": {
      "id": "670d9ec0",
      "pid": "e3157afa",
      "path": "images\\bg-tittle-product.png",
      "size": 30481,
      "name": "bg-tittle-product.png",
      "type": "Png",
      "initialSize": 30481,
      "status": "NOT_OPTIMIZED"
    },
    "0b083cd1": {
      "id": "0b083cd1",
      "pid": "e3157afa",
      "path": "images\\bg_back_btn.png",
      "size": 15381,
      "name": "bg_back_btn.png",
      "type": "Png",
      "initialSize": 15381,
      "status": "NOT_OPTIMIZED"
    },
    "8d8ab29e": {
      "id": "8d8ab29e",
      "pid": "e3157afa",
      "path": "images\\bg_back_btn_retina.png",
      "size": 15854,
      "name": "bg_back_btn_retina.png",
      "type": "Png",
      "initialSize": 15854,
      "status": "NOT_OPTIMIZED"
    },
    "45b63510": {
      "id": "45b63510",
      "pid": "e3157afa",
      "path": "images\\bg_checkbox.png",
      "size": 489,
      "name": "bg_checkbox.png",
      "type": "Png",
      "initialSize": 489,
      "status": "NOT_OPTIMIZED"
    },
    "6ae594e4": {
      "id": "6ae594e4",
      "pid": "e3157afa",
      "path": "images\\bg_checkout_step_passed.png",
      "size": 1098,
      "name": "bg_checkout_step_passed.png",
      "type": "Png",
      "initialSize": 1098,
      "status": "NOT_OPTIMIZED"
    },
    "f9fea8b6": {
      "id": "f9fea8b6",
      "pid": "e3157afa",
      "path": "images\\bg_divider.png",
      "size": 995,
      "name": "bg_divider.png",
      "type": "Png",
      "initialSize": 995,
      "status": "NOT_OPTIMIZED"
    },
    "18b4ca10": {
      "id": "18b4ca10",
      "pid": "e3157afa",
      "path": "images\\bg_divider_dark.png",
      "size": 1147,
      "name": "bg_divider_dark.png",
      "type": "Png",
      "initialSize": 1147,
      "status": "NOT_OPTIMIZED"
    },
    "c45a9aae": {
      "id": "c45a9aae",
      "pid": "e3157afa",
      "path": "images\\bg_divider_dark_retina.png",
      "size": 1153,
      "name": "bg_divider_dark_retina.png",
      "type": "Png",
      "initialSize": 1153,
      "status": "NOT_OPTIMIZED"
    },
    "d1e9dbaa": {
      "id": "d1e9dbaa",
      "pid": "e3157afa",
      "path": "images\\bg_divider_retina.png",
      "size": 1019,
      "name": "bg_divider_retina.png",
      "type": "Png",
      "initialSize": 1019,
      "status": "NOT_OPTIMIZED"
    },
    "76a0c2bb": {
      "id": "76a0c2bb",
      "pid": "e3157afa",
      "path": "images\\bg_gradient.png",
      "size": 1094,
      "name": "bg_gradient.png",
      "type": "Png",
      "initialSize": 1094,
      "status": "NOT_OPTIMIZED"
    },
    "2459801c": {
      "id": "2459801c",
      "pid": "e3157afa",
      "path": "images\\bg_gradient_retina.png",
      "size": 1096,
      "name": "bg_gradient_retina.png",
      "type": "Png",
      "initialSize": 1096,
      "status": "NOT_OPTIMIZED"
    },
    "4a5b6c71": {
      "id": "4a5b6c71",
      "pid": "e3157afa",
      "path": "images\\bg_line_menu.png",
      "size": 14973,
      "name": "bg_line_menu.png",
      "type": "Png",
      "initialSize": 14973,
      "status": "NOT_OPTIMIZED"
    },
    "65fe146a": {
      "id": "65fe146a",
      "pid": "e3157afa",
      "path": "images\\bg_shadow.png",
      "size": 1100,
      "name": "bg_shadow.png",
      "type": "Png",
      "initialSize": 1100,
      "status": "NOT_OPTIMIZED"
    },
    "b11810c2": {
      "id": "b11810c2",
      "pid": "e3157afa",
      "path": "images\\bg_shadow_retina.png",
      "size": 1089,
      "name": "bg_shadow_retina.png",
      "type": "Png",
      "initialSize": 1089,
      "status": "NOT_OPTIMIZED"
    },
    "a1993c93": {
      "id": "a1993c93",
      "pid": "e3157afa",
      "path": "images\\btn-add-one.png",
      "size": 3503,
      "name": "btn-add-one.png",
      "type": "Png",
      "initialSize": 3503,
      "status": "NOT_OPTIMIZED"
    },
    "e6aeef00": {
      "id": "e6aeef00",
      "pid": "e3157afa",
      "path": "images\\btn_edit.png",
      "size": 1321,
      "name": "btn_edit.png",
      "type": "Png",
      "initialSize": 1321,
      "status": "NOT_OPTIMIZED"
    },
    "323e2a6a": {
      "id": "323e2a6a",
      "pid": "e3157afa",
      "path": "images\\btn_edit_retina.png",
      "size": 1421,
      "name": "btn_edit_retina.png",
      "type": "Png",
      "initialSize": 1421,
      "status": "NOT_OPTIMIZED"
    },
    "f72364f5": {
      "id": "f72364f5",
      "pid": "e3157afa",
      "path": "images\\btn_remove.png",
      "size": 1185,
      "name": "btn_remove.png",
      "type": "Png",
      "initialSize": 1185,
      "status": "NOT_OPTIMIZED"
    },
    "b51edcd7": {
      "id": "b51edcd7",
      "pid": "e3157afa",
      "path": "images\\btn_remove_retina.png",
      "size": 1319,
      "name": "btn_remove_retina.png",
      "type": "Png",
      "initialSize": 1319,
      "status": "NOT_OPTIMIZED"
    },
    "6ae414ad": {
      "id": "6ae414ad",
      "pid": "e3157afa",
      "path": "images\\custom\\arrow.png",
      "size": 1037,
      "name": "arrow.png",
      "type": "Png",
      "initialSize": 1037,
      "status": "NOT_OPTIMIZED"
    },
    "98074bb7": {
      "id": "98074bb7",
      "pid": "e3157afa",
      "path": "images\\custom\\arrow_retina.png",
      "size": 1088,
      "name": "arrow_retina.png",
      "type": "Png",
      "initialSize": 1088,
      "status": "NOT_OPTIMIZED"
    },
    "d94fd4fc": {
      "id": "d94fd4fc",
      "pid": "e3157afa",
      "path": "images\\custom\\bg_header.png",
      "size": 13919,
      "name": "bg_header.png",
      "type": "Png",
      "initialSize": 13919,
      "status": "NOT_OPTIMIZED"
    },
    "0ec5472f": {
      "id": "0ec5472f",
      "pid": "e3157afa",
      "path": "images\\custom\\bg_header_retina.png",
      "size": 57132,
      "name": "bg_header_retina.png",
      "type": "Png",
      "initialSize": 57132,
      "status": "NOT_OPTIMIZED"
    },
    "82ab528f": {
      "id": "82ab528f",
      "pid": "e3157afa",
      "path": "images\\custom\\bg_logo.png",
      "size": 2793,
      "name": "bg_logo.png",
      "type": "Png",
      "initialSize": 2793,
      "status": "NOT_OPTIMIZED"
    },
    "7a41b901": {
      "id": "7a41b901",
      "pid": "e3157afa",
      "path": "images\\custom\\bg_logo_retina.png",
      "size": 5850,
      "name": "bg_logo_retina.png",
      "type": "Png",
      "initialSize": 5850,
      "status": "NOT_OPTIMIZED"
    },
    "6225ca9b": {
      "id": "6225ca9b",
      "pid": "e3157afa",
      "path": "images\\free-shipping.png",
      "size": 6071,
      "name": "free-shipping.png",
      "type": "Png",
      "initialSize": 6071,
      "status": "NOT_OPTIMIZED"
    },
    "04e8f9aa": {
      "id": "04e8f9aa",
      "pid": "e3157afa",
      "path": "images\\home-nav.png",
      "size": 11270,
      "name": "home-nav.png",
      "type": "Png",
      "initialSize": 11270,
      "status": "NOT_OPTIMIZED"
    },
    "221a6381": {
      "id": "221a6381",
      "pid": "e3157afa",
      "path": "images\\ico-breadcrumbs.png",
      "size": 17938,
      "name": "ico-breadcrumbs.png",
      "type": "Png",
      "initialSize": 17938,
      "status": "NOT_OPTIMIZED"
    },
    "543c2d62": {
      "id": "543c2d62",
      "pid": "e3157afa",
      "path": "images\\ico-nav.png",
      "size": 15849,
      "name": "ico-nav.png",
      "type": "Png",
      "initialSize": 15849,
      "status": "NOT_OPTIMIZED"
    },
    "10bd6a65": {
      "id": "10bd6a65",
      "pid": "e3157afa",
      "path": "images\\ico-slider.png",
      "size": 914,
      "name": "ico-slider.png",
      "type": "Png",
      "initialSize": 914,
      "status": "NOT_OPTIMIZED"
    },
    "9f0a4ef1": {
      "id": "9f0a4ef1",
      "pid": "e3157afa",
      "path": "images\\icr-checked.png",
      "size": 3075,
      "name": "icr-checked.png",
      "type": "Png",
      "initialSize": 3075,
      "status": "NOT_OPTIMIZED"
    },
    "2f4d9dff": {
      "id": "2f4d9dff",
      "pid": "e3157afa",
      "path": "images\\icr-desktop-switcher.png",
      "size": 2953,
      "name": "icr-desktop-switcher.png",
      "type": "Png",
      "initialSize": 2953,
      "status": "NOT_OPTIMIZED"
    },
    "82dbee84": {
      "id": "82dbee84",
      "pid": "e3157afa",
      "path": "images\\icr-more-show.png",
      "size": 3301,
      "name": "icr-more-show.png",
      "type": "Png",
      "initialSize": 3301,
      "status": "NOT_OPTIMIZED"
    },
    "87a9d493": {
      "id": "87a9d493",
      "pid": "e3157afa",
      "path": "images\\icr-next-detail.png",
      "size": 3156,
      "name": "icr-next-detail.png",
      "type": "Png",
      "initialSize": 3156,
      "status": "NOT_OPTIMIZED"
    },
    "01b8ddab": {
      "id": "01b8ddab",
      "pid": "e3157afa",
      "path": "images\\icr-prev-detail.png",
      "size": 3167,
      "name": "icr-prev-detail.png",
      "type": "Png",
      "initialSize": 3167,
      "status": "NOT_OPTIMIZED"
    },
    "7302b7ed": {
      "id": "7302b7ed",
      "pid": "e3157afa",
      "path": "images\\icr-shop-across.png",
      "size": 5993,
      "name": "icr-shop-across.png",
      "type": "Png",
      "initialSize": 5993,
      "status": "NOT_OPTIMIZED"
    },
    "fd7d0d90": {
      "id": "fd7d0d90",
      "pid": "e3157afa",
      "path": "images\\i_cart.png",
      "size": 1604,
      "name": "i_cart.png",
      "type": "Png",
      "initialSize": 1604,
      "status": "NOT_OPTIMIZED"
    },
    "e2c7c001": {
      "id": "e2c7c001",
      "pid": "e3157afa",
      "path": "images\\i_cart_retina.png",
      "size": 1686,
      "name": "i_cart_retina.png",
      "type": "Png",
      "initialSize": 1686,
      "status": "NOT_OPTIMIZED"
    },
    "6a679666": {
      "id": "6a679666",
      "pid": "e3157afa",
      "path": "images\\i_dropdown.png",
      "size": 1109,
      "name": "i_dropdown.png",
      "type": "Png",
      "initialSize": 1109,
      "status": "NOT_OPTIMIZED"
    },
    "5cf60656": {
      "id": "5cf60656",
      "pid": "e3157afa",
      "path": "images\\i_dropdown_retina.png",
      "size": 1204,
      "name": "i_dropdown_retina.png",
      "type": "Png",
      "initialSize": 1204,
      "status": "NOT_OPTIMIZED"
    },
    "1c9f7d22": {
      "id": "1c9f7d22",
      "pid": "e3157afa",
      "path": "images\\i_menu.png",
      "size": 1053,
      "name": "i_menu.png",
      "type": "Png",
      "initialSize": 1053,
      "status": "NOT_OPTIMIZED"
    },
    "91b0eb6a": {
      "id": "91b0eb6a",
      "pid": "e3157afa",
      "path": "images\\i_menu_retina.png",
      "size": 1030,
      "name": "i_menu_retina.png",
      "type": "Png",
      "initialSize": 1030,
      "status": "NOT_OPTIMIZED"
    },
    "df4a9d83": {
      "id": "df4a9d83",
      "pid": "e3157afa",
      "path": "images\\i_search.png",
      "size": 1244,
      "name": "i_search.png",
      "type": "Png",
      "initialSize": 1244,
      "status": "NOT_OPTIMIZED"
    },
    "5640422d": {
      "id": "5640422d",
      "pid": "e3157afa",
      "path": "images\\i_search_retina.png",
      "size": 1409,
      "name": "i_search_retina.png",
      "type": "Png",
      "initialSize": 1409,
      "status": "NOT_OPTIMIZED"
    },
    "97cb3f1e": {
      "id": "97cb3f1e",
      "pid": "e3157afa",
      "path": "images\\i_star.png",
      "size": 1705,
      "name": "i_star.png",
      "type": "Png",
      "initialSize": 1705,
      "status": "NOT_OPTIMIZED"
    },
    "a4812ff0": {
      "id": "a4812ff0",
      "pid": "e3157afa",
      "path": "images\\i_star_blank.png",
      "size": 1905,
      "name": "i_star_blank.png",
      "type": "Png",
      "initialSize": 1905,
      "status": "NOT_OPTIMIZED"
    },
    "546851bd": {
      "id": "546851bd",
      "pid": "e3157afa",
      "path": "images\\i_star_blank_retina.png",
      "size": 2427,
      "name": "i_star_blank_retina.png",
      "type": "Png",
      "initialSize": 2427,
      "status": "NOT_OPTIMIZED"
    },
    "95b34b80": {
      "id": "95b34b80",
      "pid": "e3157afa",
      "path": "images\\i_star_retina.png",
      "size": 2054,
      "name": "i_star_retina.png",
      "type": "Png",
      "initialSize": 2054,
      "status": "NOT_OPTIMIZED"
    },
    "fff13856": {
      "id": "fff13856",
      "pid": "e3157afa",
      "path": "images\\i_zoom.png",
      "size": 1228,
      "name": "i_zoom.png",
      "type": "Png",
      "initialSize": 1228,
      "status": "NOT_OPTIMIZED"
    },
    "9ca8fa99": {
      "id": "9ca8fa99",
      "pid": "e3157afa",
      "path": "images\\i_zoom_retina.png",
      "size": 1399,
      "name": "i_zoom_retina.png",
      "type": "Png",
      "initialSize": 1399,
      "status": "NOT_OPTIMIZED"
    },
    "de676728": {
      "id": "de676728",
      "pid": "e3157afa",
      "path": "images\\logo.png",
      "size": 7185,
      "name": "logo.png",
      "type": "Png",
      "initialSize": 7185,
      "status": "NOT_OPTIMIZED"
    },
    "2d1111e7": {
      "id": "2d1111e7",
      "pid": "e3157afa",
      "path": "images\\logo1.png",
      "size": 13465,
      "name": "logo1.png",
      "type": "Png",
      "initialSize": 13465,
      "status": "NOT_OPTIMIZED"
    },
    "923928bc": {
      "id": "923928bc",
      "pid": "e3157afa",
      "path": "images\\order-complete-fb-share.png",
      "size": 3994,
      "name": "order-complete-fb-share.png",
      "type": "Png",
      "initialSize": 3994,
      "status": "NOT_OPTIMIZED"
    },
    "eaccdc9b": {
      "id": "eaccdc9b",
      "pid": "e3157afa",
      "path": "images\\order-complete-twitter-share.png",
      "size": 5060,
      "name": "order-complete-twitter-share.png",
      "type": "Png",
      "initialSize": 5060,
      "status": "NOT_OPTIMIZED"
    },
    "79a5d50b": {
      "id": "79a5d50b",
      "pid": "e3157afa",
      "path": "images\\order-complete.png",
      "size": 10276,
      "name": "order-complete.png",
      "type": "Png",
      "initialSize": 10276,
      "status": "NOT_OPTIMIZED"
    },
    "99603fda": {
      "id": "99603fda",
      "pid": "e3157afa",
      "path": "images\\payment.png",
      "size": 31423,
      "name": "payment.png",
      "type": "Png",
      "initialSize": 31423,
      "status": "NOT_OPTIMIZED"
    },
    "43a02f53": {
      "id": "43a02f53",
      "pid": "e3157afa",
      "path": "images\\save-percentage.png",
      "size": 22896,
      "name": "save-percentage.png",
      "type": "Png",
      "initialSize": 22896,
      "status": "NOT_OPTIMIZED"
    },
    "78fdfce6": {
      "id": "78fdfce6",
      "pid": "e3157afa",
      "path": "images\\share-fb-bt.png",
      "size": 4905,
      "name": "share-fb-bt.png",
      "type": "Png",
      "initialSize": 4905,
      "status": "NOT_OPTIMIZED"
    },
    "7263a0ff": {
      "id": "7263a0ff",
      "pid": "e3157afa",
      "path": "images\\share-twitter-bt.png",
      "size": 4776,
      "name": "share-twitter-bt.png",
      "type": "Png",
      "initialSize": 4776,
      "status": "NOT_OPTIMIZED"
    },
    "7601d761": {
      "id": "7601d761",
      "pid": "e3157afa",
      "path": "js\\uniform\\theme-kit\\bg-input-focus.png",
      "size": 143,
      "name": "bg-input-focus.png",
      "type": "Png",
      "initialSize": 143,
      "status": "NOT_OPTIMIZED"
    },
    "444298ee": {
      "id": "444298ee",
      "pid": "e3157afa",
      "path": "js\\uniform\\theme-kit\\bg-input.png",
      "size": 143,
      "name": "bg-input.png",
      "type": "Png",
      "initialSize": 143,
      "status": "NOT_OPTIMIZED"
    },
    "0349e0ec": {
      "id": "0349e0ec",
      "pid": "e3157afa",
      "path": "js\\uniform\\theme-kit\\identification.png",
      "size": 19461,
      "name": "identification.png",
      "type": "Png",
      "initialSize": 19461,
      "status": "NOT_OPTIMIZED"
    },
    "9322661b": {
      "id": "9322661b",
      "pid": "e3157afa",
      "path": "js\\uniform\\themes\\agent\\images\\bg-input-agent.png",
      "size": 181,
      "name": "bg-input-agent.png",
      "type": "Png",
      "initialSize": 181,
      "status": "NOT_OPTIMIZED"
    },
    "2076a587": {
      "id": "2076a587",
      "pid": "e3157afa",
      "path": "js\\uniform\\themes\\agent\\images\\bg-input-focus-agent.png",
      "size": 186,
      "name": "bg-input-focus-agent.png",
      "type": "Png",
      "initialSize": 186,
      "status": "NOT_OPTIMIZED"
    },
    "ee8241e3": {
      "id": "ee8241e3",
      "pid": "e3157afa",
      "path": "js\\uniform\\themes\\agent\\images\\sprite-agent.png",
      "size": 16545,
      "name": "sprite-agent.png",
      "type": "Png",
      "initialSize": 16545,
      "status": "NOT_OPTIMIZED"
    },
    "4eaa80b4": {
      "id": "4eaa80b4",
      "pid": "e3157afa",
      "path": "js\\uniform\\themes\\aristo\\images\\bg-input-aristo.png",
      "size": 192,
      "name": "bg-input-aristo.png",
      "type": "Png",
      "initialSize": 192,
      "status": "NOT_OPTIMIZED"
    },
    "a477080f": {
      "id": "a477080f",
      "pid": "e3157afa",
      "path": "js\\uniform\\themes\\aristo\\images\\bg-input-focus-aristo.png",
      "size": 186,
      "name": "bg-input-focus-aristo.png",
      "type": "Png",
      "initialSize": 186,
      "status": "NOT_OPTIMIZED"
    },
    "02e7bf62": {
      "id": "02e7bf62",
      "pid": "e3157afa",
      "path": "js\\uniform\\themes\\aristo\\images\\sprite-aristo.png",
      "size": 20542,
      "name": "sprite-aristo.png",
      "type": "Png",
      "initialSize": 20542,
      "status": "NOT_OPTIMIZED"
    },
    "45d18192": {
      "id": "45d18192",
      "pid": "e3157afa",
      "path": "js\\uniform\\themes\\default\\images\\bg-input-focus.png",
      "size": 143,
      "name": "bg-input-focus.png",
      "type": "Png",
      "initialSize": 143,
      "status": "NOT_OPTIMIZED"
    },
    "d7fefb89": {
      "id": "d7fefb89",
      "pid": "e3157afa",
      "path": "js\\uniform\\themes\\default\\images\\bg-input.png",
      "size": 143,
      "name": "bg-input.png",
      "type": "Png",
      "initialSize": 143,
      "status": "NOT_OPTIMIZED"
    },
    "1dc7aea1": {
      "id": "1dc7aea1",
      "pid": "e3157afa",
      "path": "js\\uniform\\themes\\default\\images\\sprite.png",
      "size": 32968,
      "name": "sprite.png",
      "type": "Png",
      "initialSize": 32968,
      "status": "NOT_OPTIMIZED"
    },
    "5a2aaa11": {
      "id": "5a2aaa11",
      "pid": "e3157afa",
      "path": "js\\uniform\\themes\\jeans\\images\\bg-input-focus-jeans.png",
      "size": 5690,
      "name": "bg-input-focus-jeans.png",
      "type": "Png",
      "initialSize": 5690,
      "status": "NOT_OPTIMIZED"
    },
    "a77a5ea6": {
      "id": "a77a5ea6",
      "pid": "e3157afa",
      "path": "js\\uniform\\themes\\jeans\\images\\bg-input-focus-retina-jeans.png",
      "size": 20340,
      "name": "bg-input-focus-retina-jeans.png",
      "type": "Png",
      "initialSize": 20340,
      "status": "NOT_OPTIMIZED"
    },
    "d1662578": {
      "id": "d1662578",
      "pid": "e3157afa",
      "path": "js\\uniform\\themes\\jeans\\images\\bg-input-jeans.png",
      "size": 5451,
      "name": "bg-input-jeans.png",
      "type": "Png",
      "initialSize": 5451,
      "status": "NOT_OPTIMIZED"
    },
    "dbf7bf4d": {
      "id": "dbf7bf4d",
      "pid": "e3157afa",
      "path": "js\\uniform\\themes\\jeans\\images\\bg-input-retina-jeans.png",
      "size": 19484,
      "name": "bg-input-retina-jeans.png",
      "type": "Png",
      "initialSize": 19484,
      "status": "NOT_OPTIMIZED"
    },
    "d75c519e": {
      "id": "d75c519e",
      "pid": "e3157afa",
      "path": "js\\uniform\\themes\\jeans\\images\\sprite-retina-jeans.png",
      "size": 2071761,
      "name": "sprite-retina-jeans.png",
      "type": "Png",
      "initialSize": 2071761,
      "status": "NOT_OPTIMIZED"
    }
  },
  "config": {
    "watch": false,
    "liveRefresh": true,
    "liveRefreshDelay": 0,
    "filterPatterns": "",
    "useCustomServer": false,
    "customServerUrl": "",
    "cssPath": "css/",
    "jsPath": "js/",
    "htmlPath": "html/",
    "minJsPath": "min/",
    "htmlExtension": ".html",
    "cssPathType": "REPLACE_TYPE",
    "htmlPathType": "REPLACE_TYPE",
    "jsPathType": "REPLACE_TYPE",
    "minJsPathType": "RELATIVE_FILEDIR",
    "htmlTypes": "jade, haml, slim, markdown, md",
    "cssTypes": "less, sass, stylus, scss, styl",
    "jsTypes": "coffee, coffeescript, coffeescripts, ls, livescript, livescripts",
    "cssPreprocessorPath": "",
    "htmlPreprocessorPath": "",
    "jsPreprocessorPath": "",
    "minJsPreprocessorPath": "",
    "autoprefixerBrowsers": "",
    "ftpHost": "",
    "ftpPort": "21",
    "ftpRemotePath": "",
    "ftpIgnorePreprocessorFiles": true,
    "ftpType": "FTP",
    "ftpExcludePatterns": "",
    "ftpSecure": false,
    "ftpPassword": "",
    "ftpUsername": ""
  }
}