Business Unit,Sales SKU
Pets,PLKAT0046297
Pets,ProPLKAT0046297
Pets,PLKAT0014420
Pets,PLRev0004516
Pets,WhPed0000642
Pets,FreeWhPed0000642
Pets,PLPed0004464
Pets,BunUmWhRoy0000733
Pets,WhRoy0000733
Pets,WhWhi0000917
Pets,WhWhi0000906
Pets,KLmixfree
Pets,WhKet0334262
Pets,PLKet0004497
Pets,LitKet0014279
Pets,WhKet0334266
Pets,KLlemonfreeKittycream
Pets,KLmixfree
Pets,PLRoy0014365Box
Pets,FooRoy0022993
Pets,PLRoy0014365
Pets,FooRoy0021345
Pets,BunUmPLRoy0014365
Pets,BunPillowPLRoy0014365
Pets,WhEar0332069
Pets,DogCes0005336
Pets,BunWhCes00005082
Pets,BunWhCes0000508
Pets,WhCes0000508pillow
Pets,WhCes0000508
Pets,DogCes100034
Pets,FooRoy0016407
Pets,FooRoy0029932
Pets,WhRoy0282323
Pets,WhRoy0000729
Pets,BunWhRoy0000729
Pets,PLZea0007807
Pets,DogCes100023
Pets,DogCes100024
Pets,WhCes0000505
Pets,WhCes0000505pillow
Pets,FooCes0029768
Pets,BunWhCes0000505
Pets,FooCes0029764
Pets,BunWhCes00005052
Pets,WhDog0000543
Pets,WhDog0000543
Pets,PLDog0004465
Pets,PLSma0016685
Pets,PLChi0015922
Pets,PLPin0020077
Pets,PLFou0021002
Pets,PLFou0021003
Pets,PLRev0004514
Pets,WhRoy0000727
Pets,PLRoy0037871freepillow
Pets,PLRoy0037871Box
Pets,FreePLRoy0037871
Pets,BunPillowPLRoy0037871
Pets,PLRoy0037871
Pets,BunPLRoy0037871
Pets,PLEve0037691free
Pets,PLEve0037691
Pets,KLlavenderfreeKittycream
Pets,KLmixfree
Pets,WhKet0334264
Pets,WhSma0000863
Pets,FooRoy0024731
Pets,PLRoy0024721
Pets,DogAvo0001853
Pets,WhAvo0001156
Pets,PLWhi0012505
Pets,PLPre0039043
Pets,PLPer0008822
Pets,HeaPer0016430
Pets,WhRoy0000707
Pets,FreeWhPed0311353
Pets,WhPed0311353
Pets,PLPed0004473
Pets,WhKet0334263
Pets,PLChi0039116
Pets,PLWhi0023150
Pets,WhAvo0001154
Pets,WhPro0000700
Pets,PLNut0016997
Pets,PLPet0017086
Pets,PLPet0017092
Pets,PLHik0022199
Pets,CatAvo0277131
Pets,CatAvo0277132
Pets,WhAvo0277130
Pets,WhEar0332070
Pets,PLRev0004518
Pets,PLFou0021001
Pets,PLEve0037693free
Pets,PLEve0037693
Pets,DogRoy0308330
Pets,BunPillowWhRoy0282290
Pets,WhRoy0282290Box
Pets,WhRoy0282290
Pets,FooZZZ0012467
Pets,DogRoy0350123
Pets,WhRoy0282290freepillow
Pets,DogRoy0091098
Pets,WhRoy0000772
Pets,PLRoy0004492
Pets,WhGoo0003803
Pets,PLGoo0004490
Pets,PLRoy0014373
Pets,FooRoy0023091
Pets,BunUmPLRoy0014373
Pets,BunPillowPLRoy0014373
Pets,PLRoy0014373Box
Pets,WhAvo0281110
Pets,FooNek0024397
Pets,FooNek0021486
Pets,PLNek0021480
Pets,FooNek0021484
Pets,FooNek0021485
Pets,FooNek0024396
Pets,PLNut0017001
Pets,PLWhi0023149
Pets,DogJer100067
Pets,DogJer0033577
Pets,DogJer100068
Pets,WhJer0000597
Pets,WhRoy0000774
Pets,DogRoy0091099
Pets,PLRoy0024720
Pets,FooRoy0024730
Pets,WhAvo0281111
Pets,PLRoy0043708
Pets,PLOPT0010565
Pets,FooSma0016400
Pets,PLSma0008776
Pets,WhRoy0000724
Pets,PLRoy0004480
Pets,PLTas0039046
Pets,WhPed0000649
Pets,DogPed100144
Pets,DogPed100143
Pets,CatBel0033630
Pets,WhBel0000491
Pets,CatBel0295112
Pets,CatBunBel100011
Pets,CatBel0005340
Pets,WhRoy0000730
Pets,WhAvo0277101
Pets,CatAvo0277104
Pets,CatAvo0277102
Pets,PLPet0037406
Pets,WhChi0288392
Pets,PLWhi0012503
Pets,WhAvo0001151
Pets,PLWhi0041771
Pets,BunWhRoy0000709
Pets,WhRoy0000709
Pets,WhBel0000485
Pets,CatBunBel100025
Pets,CatBunBel100026
Pets,CatBel0005341
Pets,CatBel0004889
Pets,CatBel0295108
Pets,PLRoy0014364
Pets,WhRoy0000704
Pets,BunWhRoy0000704
Pets,BunUmWhRoy0000704
Pets,PLser0015780free
Pets,PLser0015780
Pets,BunWhTor0301610
Pets,FooTor0022272
Pets,Bun5WhTor0301610
Pets,CatTor0309894
Pets,CatTor0301839
Pets,FooTor0022270
Pets,WhTor0301610
Pets,BunWhPed0000680free
Pets,WhPed0000680
Pets,DogAvo0001855
Pets,WhAvo0001155
Pets,WhRoy0000752
Pets,PLPin0043897
Pets,PLRev0004515
Pets,WhPer0000683
Pets,BunFreePLLis0037445
Pets,BunPLLis0037445
Pets,PLLis0037445
Pets,WhGoo0003819
Pets,BunPillowWhRoy0000771
Pets,BunWhRoy0000771
Pets,WhRoy0000771Box
Pets,WhRoy0000771freepillow
Pets,WhRoy0000771
Pets,DogRoy0091080
Pets,PLPro0015943
Pets,FooRoy0024727
Pets,PLRoy0024718
Pets,HeaEar0000217
Pets,WhEar0332079
Pets,PLCes0011278
Pets,FooCes0011953
Pets,PLser0015779
Pets,PLser0015779free
Pets,WhAvo0001149
Pets,WhRoy0000780Box
Pets,DogRoy0091081
Pets,BunWhRoy0000780
Pets,BunPillowWhRoy0000780
Pets,WhRoy0000780freepillow
Pets,WhRoy0000780
Pets,PLAct0043916
Pets,WhPin0001142
Pets,DogPed100139
Pets,DogPed100140
Pets,WhPed0000653
Pets,PLOPT0010577
Pets,WhAvo0001152
Pets,PLFou0021004
Pets,WhBar0003863
Pets,PLPet0037403
Pets,PLRoy0043887
Pets,Bun3PLRoy0043887
Pets,PLOPT0010567
Pets,BunWhRoy0000712
Pets,WhRoy0000712
Pets,FooFri0031116
Pets,FooFri0031117
Pets,PLFri0031084
Pets,DogPed100108
Pets,DogPed100107
Pets,DogPed0039714
Pets,WhPed0000656
Pets,WhHea0001131
Pets,FooBel0013105
Pets,PLBel0012520
Pets,FooBel0013104
Pets,CatCes0005335
Pets,WhCes0000507
Pets,BunWhCes00005072
Pets,WhCes0000507pillow
Pets,DogCes100036
Pets,BunWhCes0000507
Pets,PLWhi0011273
Pets,PLOPT0010569
Pets,PLWhi0012506
Pets,WhAvo0001150
Pets,PLNut0016996
Pets,PLNut0017000
Pets,WhRoy0000777
Pets,DogRoy0091101
Pets,PLPro0015951
Pets,PLShe0006036
Pets,PLHik0022197
Pets,PLRoy0046277
Pets,BunUmPLRoy0046277 
Pets,WhRoy0000738
Pets,FooPed0012008
Pets,FooPed0012009
Pets,PLPed0011291
Pets,DogRoy0005281
Pets,WhRoy0000754
Pets,WhSci0000826
Pets,PLMeo0039517
Pets,FooBel0012953
Pets,FooBel0012954
Pets,PLBel0012522
Pets,PLWhi0012508
Pets,WhAvo0003773
Pets,CatAvo0004056
Pets,PLIfe0038851
Pets,PLRoy0037870
Pets,BunPLRoy0037870
Pets,BunPillowPLRoy0037870
Pets,FreePLRoy0037870
Pets,PLRoy0037870freepillow
Pets,PLRoy0037870Box
Pets,WhVer0357014
Pets,FooWhi0011948
Pets,PLWhi0011271
Pets,FooWhi0011949
Pets,PLDr.0013451
Pets,WhGoo0003802
Pets,WhVer0357017
Pets,FooCes0011954
Pets,PLCes0011279
Pets,DogPed100130
Pets,WhPed0000664
Pets,DogPed100129
Pets,WhVer0357015
Pets,DogRoy0091062
Pets,WhRoy0000776
Pets,DogPaw0310978
Pets,DogPaw0301840
Pets,WhPaw0301613
Pets,PLIfe0034446
Pets,FooFri0031120
Pets,PLFri0031093
Pets,FooFri0031121
Pets,FooMar0017883
Pets,FooMar0017884
Pets,PLMar0012548
Pets,WhKEV0299367
Pets,DogPed100127
Pets,WhPed0000658
Pets,DogPed100128
Pets,PLIfe0034444
Pets,WhPed0000648
Pets,BunWhPed0000648free
Pets,DogPaw0311249
Pets,DogPaw0301840
Pets,WhPaw0301615
Pets,WhAvo0003764
Pets,DogPed100142
Pets,DogPed100141
Pets,WhPed0000650
Pets,FooBel0012967
Pets,FooBel0012968
Pets,PLBel0012525
Pets,FooTor0021450
Pets,BunPLTor00214441
Pets,BunPLTor00214442
Pets,PLTor0021444
Pets,WhDr.0000545
Pets,PLFou0010984
Pets,FooSma0017321
Pets,FooSma0017320
Pets,PLSma0017228
Pets,PLPet0000310
Pets,FooWhi0011938
Pets,PLWhi0011129
Pets,FooWhi0011939
Pets,PLPer0008820
Pets,HeaPer0016292
Pets,PLChi0039033
Pets,WhRoy0282215
Pets,WhRoy0321296
Pets,BunWhRoy0321296
Pets,WhAvo0003852
Pets,WhVer0004037
Pets,WhSma0000869
Pets,WhSma0000869water
Pets,PLEve0037694free
Pets,PLEve0037694
Pets,FisSak0050878
Pets,WhSak0050870
Pets,LitSee0026434
Pets,PLSee0010326
Pets,PLOPT0010575
Pets,PLOPT0011461
Pets,WhFle0305578
Pets,WhFle0305582
Pets,WhFle0305583
Pets,WhSci0000815
Pets,PLKit0035363
Pets,PLKit0035363mixfree
Pets,Bun2PLKit0035363
Pets,Bun4PLKit0035363
Pets,PLTas0039045
Pets,PLNut0016998
Pets,WhSci0000782
Pets,FooShe0011959
Pets,PLShe0011281
Pets,PLPet0020996
Pets,FooSma0016393
Pets,PLSma0008774
Pets,PLRoy0043709
Pets,BunPillowPLRoy0043709
Pets,FooTor0022272
Pets,CatTor0301839
Pets,FooTor0022269
Pets,Bun5WhTor0301611
Pets,CatTor0309895
Pets,BunWhTor0301611
Pets,WhTor0301611
Pets,SnaPet0008744
Pets,PLPet0008733
Pets,SnaPet0008737
Pets,CatTop0033623
Pets,WhTop0000902
Pets,CatBunTop100097
Pets,CatBunTop100098
Pets,PLAvo0020060
Pets,PLGEX0019112
Pets,PLOPT0012472
Pets,Buy1get1PLOPT0012472
Pets,GroAro0035091
Pets,PLAro0034403
Pets,PLFou0020972
Pets,FooMar0017872
Pets,PLMar0012542
Pets,FooMar0017871
Pets,PLMar0012543
Pets,FooMar0017873
Pets,FooMar0017874
Pets,WhFle0305567
Pets,WhFle0305574
Pets,WhFle0305576
Pets,WhRoy0000765
Pets,DogJer0033590
Pets,DogJer100101
Pets,DogJer100102
Pets,WhJer0000610
Pets,Bun24PLFel0038178
Pets,BunPLFel003817812
Pets,Bun12PLFel0038178
Pets,BunPLFel003817824
Pets,PLFel0038178
Pets,PLReg0031140
Pets,WhAvo0277106
Pets,CatAvo0277107
Pets,CatAvo0277109
Pets,PLWhi0012507
Pets,PLHik0024502
Pets,CatAvo0277116
Pets,CatAvo0277118
Pets,WhAvo0277111
Pets,HeaWhi0023277
Pets,PLWhi0023127
Pets,HeaWhi0023279
Pets,FooMar0017864
Pets,FooMar0017863
Pets,PLMar0012538
Pets,PLSma0016692
Pets,PLOPT0010568
Pets,FooOPT0016436
Pets,PLWhi0011265
Pets,PLLar0037697
Pets,PLLar0037700
Pets,PLLar0037703
Pets,PLLar0037706
Pets,WhANF0003885
Pets,WhSma0000875
Pets,WhSma0000875water
Pets,PLKAT0045747
Pets,PLPin0043896
Pets,WhKEV0028671
Pets,PLOPT0011465
Pets,PLHik0024498
Pets,PLOPT0010570
Pets,WhSma0000867
Pets,CatBunTop100103
Pets,WhTop0000904
Pets,CatTop0033626
Pets,CatBunTop100104
Pets,FooShe0011957
Pets,PLShe0011280
Pets,WhRoy0000778
Pets,DogRoy0091084
Pets,PLKit0035361
Pets,Bun2PLKit0035062
Pets,Bun4PLKit0035062
Pets,PLKit0035361mixfree
Pets,WhSma0000851
Pets,PLPet0017141
Pets,WhRoy0000775
Pets,DogRoy0091100
Pets,DogRoy0091090
Pets,WhRoy0004319Bun
Pets,WhRoy0004319
Pets,DogDog100058
Pets,WhDog0000538
Pets,DogDog100057
Pets,PLAct0043914
Pets,PLAvo0043892
Pets,WhVer0004064
Pets,PLOPT0011464
Pets,FreeWhPed0000673
Pets,WhPed0000673
Pets,WhRoy0000711
Pets,WhDog0000542
Pets,WhRoy0282326
Pets,PLChi0039138
Pets,PLKit0035364
Pets,Bun2PLKit0035364
Pets,PLKit0035364mixfree
Pets,Bun4PLKit0035364
Pets,WhPed0000646
Pets,PLPed0004469
Pets,WhNut0005218
Pets,PLKEV0040147
Pets,DogKEV0298016
Pets,PLKEV0040152
Pets,DogKEV0298018
Pets,DogRoy0282331
Pets,WhRoy0282330
Pets,FooMar0017886
Pets,FooMar0017885
Pets,PLMar0012549
Pets,Buy1get1PLOPT0012453
Pets,PLOPT0012453
Pets,FooSma0017322
Pets,PLSma0017229
Pets,FooSma0017323
Pets,FooSma0017325
Pets,PLSma0017235
Pets,FooSma0017324
Pets,PLPet0017140
Pets,PLPed0007338
Pets,FooPet0012095
Pets,PLPet0012085
Pets,FooPet0012097
Pets,FooPet0012096
Pets,Bun6PLRoy0043707
Pets,Bun12PLRoy0043707
Pets,PLRoy0043707
Pets,WhSma0000877
Pets,PLIfe0038850
Pets,WhAvo0281107
Pets,PLSma0045547
Pets,PLSma0045549
Pets,WhAvo0001157
Pets,DogAvo0001854
Pets,PLFou0020967
Pets,PLIMP0013429
Pets,FooSma0016426
Pets,PLSma0008780water
Pets,PLSma0008780
Pets,PLPet0007301
Pets,ColPet0014293
Pets,PLOPT0011470
Pets,FooOPT0016438
Pets,PLAro0034402
Pets,GroAro0035090
Pets,PLFan0042819
Pets,PLfancymix
Pets,Bun24PLFan0042819
Pets,Bun6PLFan0042819
Pets,Bun12PLFan0042819
Pets,PLHik0022202
Pets,PLPin0020073
Pets,PLZea0007808
Pets,FooZea0007809
Pets,WhCat0003616
Pets,PLPet0038578
Pets,PLNek0038688
Pets,Bun12PLNek0038688
Pets,Bun6PLNek0038688
Pets,WhSci0000788
Pets,PLPet0015961
Pets,WhRoy0282332
Pets,DogRoy0282334
Pets,WhVer0004045
Pets,BunPLSma0045537
Pets,PLSma0045537
Pets,PLSma0045539
Pets,BunPLSma0045539
Pets,BunPLSma0045540
Pets,PLSma0045540
Pets,WhANF0003886
Pets,WhSci0000828
Pets,WhIri0035319
Pets,WhDr.0000546
Pets,PLReg0031148
Pets,WhRoy0000731
Pets,PLDog0004462
Pets,WhDog0000529
Pets,WhJer0000596
Pets,DogJer100063
Pets,DogJer100064
Pets,DogJer0033576
Pets,Bun6PLJer0039778
Pets,PLJer0039778
Pets,Bun12PLJer0039778
Pets,Bun12PLJer0039779
Pets,PLJer0039779
Pets,Bun6PLJer0039779
Pets,GroAro0035089
Pets,PLAro0034401
Pets,PLOPT0012462
Pets,Buy3get3FooOPT0012490
Pets,FooOPT0012490
Pets,PLHik0024496
Pets,PLFou0020971
Pets,PLOPT0010576
Pets,PLPet0017139
Pets,PLFou0020973
Pets,PLFou0020974
Pets,PLOPT0011460
Pets,WhShe0280565
Pets,CatShe0280571
Pets,DogPed100138
Pets,DogPed100137
Pets,WhPed0000652
Pets,PLPed0011284
Pets,SnaPed0011985
Pets,SnaPed0011986
Pets,FooMar0017882
Pets,PLMar0012547
Pets,FooMar0017881
Pets,WhTop0000901
Pets,CatBunTop100105
Pets,CatBunTop100106
Pets,CatTop0033625
Pets,PLReg0031139
Pets,PLFro0004408
Pets,BunUmPLRoy0014368 
Pets,PLRoy0014368
Pets,BunPillowPLRoy0014368
Pets,PLEve0037692
Pets,PLPet0043147
Pets,PLDog0037109
Pets,FreePLDog0037109
Pets,PLCat0034175
Pets,PLGEX0019099
Pets,PLGEX0019110
Pets,PLPed0036179
Pets,BunPLSma0045538
Pets,PLSma0045538
Pets,PLMeo0039514
Pets,PLWhi0023160
Pets,WhDel0003931
Pets,DogDel0003977
Pets,BunWhDel0003931
Pets,PLJer0039789
Pets,Bun2PLJer0039789
Pets,PLJer0039790
Pets,Bun2PLJer0039790
Pets,Bun2PLJer0039791
Pets,PLJer0039791
Pets,Bun2PLJer0039792
Pets,PLJer0039792
Pets,PLOPT0011472
Pets,FooOPT0016437
Pets,Bun2PLEde0038679
Pets,Bun4PLEde0038679
Pets,Bun6PLEde0038679
Pets,PLEde0038679
Pets,Edelmixflavour
Pets,PLVer0013235
Pets,WhPaw0301614
Pets,DogPaw0301840
Pets,DogPaw0311248
Pets,WhRoy0000737
Pets,PLVer0013239
Pets,FooRoy0024723
Pets,PLRoy0024715
Pets,PLHik0024500
Pets,SnaJer0011647
Pets,SnaJer0011650
Pets,SnaJer0011653
Pets,PLJer0011479
Pets,PLCHO0019324
Pets,PLPPP0034409
Pets,WhAlp0000470
Pets,WhAvo0281109
Pets,WhSma0000880
Pets,WhSma0000880water
Pets,PLWhi0023154
Pets,WhDr.0000547
Pets,Bun6PLRoy0043706
Pets,Bun12PLRoy0043706
Pets,PLRoy0043706
Pets,FooMar0017869
Pets,PLMar0012541
Pets,FooMar0017870
Pets,FooSma0016427
Pets,PLSma0008783
Pets,PLSma0008783water
Pets,WhNyl0332191
Pets,PLCHO0019322
Pets,PLCHO0019323
Pets,PLCHO0019329
Pets,PLPPP0034424
Pets,WhPet0407392
Pets,FooPet0395606
Pets,PLPet0017142
Pets,CatBunBel100038
Pets,WhBel0000497
Pets,CatBunBel100037
Pets,CatBel0004896
Pets,CatBel0005342
Pets,PLSma0045545
Pets,BunWhPed0000672free
Pets,WhPed0000672
Pets,PLSma0045543
Pets,PLSma0045544
Pets,PLSma0045555
Pets,PLAlp0040766
Pets,WhAlp0000481
Pets,PLPPP0034405
Pets,PLFri0029031
Pets,SnaFri0029041
Pets,SnaFri0029036
Pets,WhZZZ0000953
Pets,WhKon0034693
Pets,PLCHO0019304
Pets,PLCHO0019313
Pets,PLCHO0019314
Pets,BunWhCes0000517
Pets,DogCes0033603
Pets,DogCes100037
Pets,DogCes100038
Pets,BunWhCes00005172
Pets,WhCes0000517pillow
Pets,WhCes0000517
Pets,WhSci0000829
Pets,PLRoy0014363
Pets,PLRoy0014366
Pets,WhAlp0000475
Pets,PLEur0032643
Pets,PLVer0013230
Pets,PLPed0011292
Pets,PLIMP0013428
Pets,DogPet0003946
Pets,WhPet0003907
Pets,PLWhi0023133
Pets,PLWhi0023148
Pets,WhRoy0282324
Pets,WhRoy0000708
Pets,WhRoy0000768
Pets,DogRoy0091061
Pets,BunUmWhRoy0000768
Pets,PLRab0018045
Pets,WhKon0355910
Pets,PLOPT0011468
Pets,PLTet0023456
Pets,PLWhi0022945
Pets,WhSma0000844
Pets,PLFou0020969
Pets,WhRoy0321388
Pets,PLChi0015921
Pets,BunPillowWhRoy0000756
Pets,FooRoy0021347
Pets,DogRoy0091044
Pets,WhRoy0000756
Pets,WhRoy0000756freepillow
Pets,PLBel0012519
Pets,FooBel0012949
Pets,FooBel0012950
Pets,PLTet0023492
Pets,WhRoy0000766
Pets,DogRoy0091096
Pets,PLPPP0034415
Pets,PLVer0013241
Pets,WhChi0005226
Pets,PLAro0034400
Pets,GroAro0035088
Pets,PLAro0034398
Pets,GroAro0035086
Pets,PLSak0004494
Pets,WhSak0050875
Pets,CatBel0033634
Pets,CatBunBel100033
Pets,CatBunBel100034
Pets,CatBel0005342
Pets,WhBel0000499
Pets,PLPed0007339
Pets,PLTet0023497
Pets,PLRoy0040085
Pets,Bun12PLRoy0040085
Pets,Bun6PLRoy0040085
Pets,PLPet0043146
Pets,WhVer0357013
Pets,DogDog100053
Pets,WhDog0000540
Pets,DogDog100054
Pets,DogSci100154
Pets,WhSci0000825
Pets,DogSci100153
Pets,PLPin0020070
Pets,PLRoy0014371
Pets,PLTas0039083
Pets,PLVer0013332
Pets,WhSma0000882
Pets,PLHik0022174
Pets,PLHik0024503
Pets,PLZip0020949
Pets,PLWhi0023141
Pets,BunUmWhRoy0000715
Pets,WhRoy0000715
Pets,WhPup0003745
Pets,PLEur0032642
Pets,PLReg0031155
Pets,WhSma0000855
Pets,WhSma0000855water
Pets,FooOPT0012481
Pets,PLOPT0012458
Pets,WhRic0332233
Pets,DogJer0033578
Pets,DogJer100061
Pets,DogJer100062
Pets,WhJer0000598
Pets,Deliciobmv
Pets,BunWhDel0003926
Pets,Deliciolmb
Pets,WhDel0003926
Pets,Deliciolmv
Pets,FooOPT0012491
Pets,Buy3get3FooOPT0012491
Pets,PLOPT0012463
Pets,PLWhi0022947
Pets,FooSma0017319
Pets,FooSma0017316
Pets,PLSma0017225
Pets,PLPet0021013
Pets,WhMeo0000632
Pets,Buy3get3FooOPT0012476
Pets,FooOPT0012476
Pets,PLOPT0012450
Pets,WhSci0000783
Pets,PLOPT0012459
Pets,PLPed0011288
Pets,FooPed0011999
Pets,FooPed0012000
Pets,PLTet0023467
Pets,FreePLDog0037122
Pets,PLDog0037122
Pets,PLJer0011481
Pets,FooOPT0012482
Pets,Buy3get3FooOPT0012482
Pets,PLOPT0012460
Pets,PLReg0031156
Pets,CatBunFri100047
Pets,WhFri0000574
Pets,CatBunFri100048
Pets,Bun12PLJer0039755
Pets,PLJer0039755
Pets,Bun24PLJer0039755
Pets,Bun6PLJer0039755
Pets,CatBunBel100030
Pets,CatBel0004895
Pets,WhBel0000498
Pets,CatBunBel100029
Pets,CatBel0005342
Pets,PLTet0023483
Pets,WhSma0000842
Pets,WhRoy0282102
Pets,PLCHO0019289
Pets,PLCHO0019290
Pets,Bun7PLJer0039756
Pets,PLJer0039756
Pets,Bun14PLJer0039756
Pets,PLWHI0013899
Pets,DogAlp0038066
Pets,WhAlp0000474
Pets,DogAlp0038065
Pets,PLWhi0023131
Pets,PLEur0032645
Pets,WhPed0000674
Pets,FooHik0022634
Pets,PLHik0022606
Pets,PLIfe0034440
Pets,WhSma0000883water
Pets,WhSma0000883
Pets,PLSma0017252
Pets,FooSma0017331
Pets,FooSma0017330
Pets,WhPup0003743
Pets,FooMar0017868
Pets,PLMar0012540
Pets,FooMar0017867
Pets,FooOPT0012477
Pets,PLOPT0012451
Pets,Buy3get3FooOPT0012477
Pets,PLTet0023464
Pets,PLCHO0019299
Pets,WhSci0000811
Pets,PLHik0022164
Pets,FooHik0022190
Pets,PLPin0020072
Pets,FooPet0395604
Pets,WhPet0406555
Pets,FooPet0395604
Pets,WhPet0406557
Pets,CatShe0280570
Pets,WhShe0280564
Pets,WhFou0332188
Pets,PLHik0022165
Pets,PLTet0023466
Pets,PLWhi0023161
Pets,WhKon0034692
Pets,WhKon0355908
Pets,PLChi0015923
Pets,PLCHO0019308
Pets,PLCHO0019310
Pets,PLCHO0019311
Pets,SnaPed0011974
Pets,PLPed0011282
Pets,SnaPed0011972
Pets,PLZip0020981
Pets,PLCHO0019269
Pets,PLZip0020939
Pets,PLSma0042681
Pets,Bun2PLLar0037696
Pets,PLLar0037696
Pets,PLLar0037699
Pets,Bun2PLLar0037699
Pets,PLLar0037702
Pets,Bun2PLLar0037702
Pets,PLLar0037705
Pets,Bun2PLLar0037705
Pets,Bun2PLLar0037708
Pets,PLLar0037708
Pets,DogPed100134
Pets,DogPed100133
Pets,WhPed0000651
Pets,WhKon0034698
Pets,PLKEV0040150
Pets,DogKEV0298015
Pets,PLCHO0019326
Pets,PLCHO0019327
Pets,PLPPP0034408
Pets,WhKon0034697
Pets,PLFou0020966
Pets,PLJer0011483
Pets,SnaJer0011532
Pets,SnaJer0011588
Pets,SnaJer0011536
Pets,CatRoy0282340
Pets,WhRoy0282339
Pets,BunfreeWhRoy0282339
Pets,PLOPT0012466
Pets,PLPPP0034431
Pets,PLCHO0019320
Pets,PLCHO0019321
Pets,PLCHO0019328
Pets,PLCHO0019342
Pets,PLHik0022176
Pets,CatChi0005246
Pets,WhChi0005238
Pets,PLVer0013232
Pets,ColPet0014294
Pets,PLPet0007302
Pets,PLFro0004404
Pets,WhGoo0003816
Pets,PLHik0022158
Pets,PLHik0022159
Pets,FooHik0022188
Pets,WhPet0309570
Pets,SnaPet0008736
Pets,SnaPet0008735
Pets,PLPet0008616
Pets,PLCHO0019305
Pets,PLCHO0019307
Pets,Bun6PLNek0038689
Pets,Bun12PLNek0038689
Pets,PLNek0038689
Pets,PLTet0023485
Pets,WhPet0003901
Pets,DogPet0003940
Pets,PLJer0039785
Pets,Bun3PLJer0039785
Pets,Bun6PLJer0039785
Pets,Bun3PLJer0039786
Pets,Bun6PLJer0039786
Pets,PLJer0039786
Pets,Bun6PLJer0039787
Pets,PLJer0039787
Pets,Bun3PLJer0039787
Pets,Bun3PLJer0039788
Pets,PLJer0039788
Pets,Bun6PLJer0039788
Pets,PLPPP0034407
Pets,PLHik0024501
Pets,PLIfe0034445
Pets,WhEar0000550
Pets,PLWhi0022949
Pets,PLIfe0034434
Pets,PLReg0031147
Pets,PLIfe0034441
Pets,PLPet0000330
Pets,PLPet0000583
Pets,PLFou0020970
Pets,PLHik0024499
Pets,WhChi0005235
Pets,CatChi0005243
Pets,PLHik0022160
Pets,PLTet0023490
Pets,PLFou0020968
Pets,PLHik0024497
Pets,PLKEV0040145
Pets,PLHik0022155
Pets,FooHik0022182
Pets,FooHik0022184
Pets,PLHik0022156
Pets,FooOPT0016435
Pets,PLOPT0010566
Pets,PLTet0023486
Pets,DogSci100152
Pets,WhSci0000818
Pets,DogSci100151
Pets,PLCHO0019336
Pets,PLCHO0019337
Pets,PLCHO0019338
Pets,PLGEX0019093
Pets,HeaWhi0023286
Pets,HeaWhi0023285
Pets,PLWhi0023142
Pets,Bun12PLFel0038172
Pets,BunPLFel003817224
Pets,Bun24PLFel0038172
Pets,PLFel0038172
Pets,BunPLFel003817212
Pets,PLWhi0023135
Pets,WhFou0332083
Pets,PLCHO0019292
Pets,PLCHO0019294
Pets,BunWhPed0000669free
Pets,WhPed0000669
Pets,CatCat0039709
Pets,CatCat0001880
Pets,CatCat0001879
Pets,WhCat0001878
Pets,PLTet0023491
Pets,PLWhi0022948
Pets,FooWhi0023167
Pets,PLWhi0023157
Pets,PLTet0023460
Pets,PLCHO0019325
Pets,PLIfe0034439
Pets,BunPLSma0045554
Pets,PLSma0045554
Pets,PLSma0017251
Pets,FooSma0017328
Pets,FooSma0017329
Pets,WhMeo0000622
Pets,PLMeo0004499
Pets,PLIfe0034435
Pets,FooWhi0023165
Pets,PLWhi0022938
Pets,PLWhi0023114
Pets,PLWhi0023129
Pets,HeaWhi0023277
Pets,PLWhi0023151
Pets,WhChi0388823
Pets,PLVer0013242
Pets,PLPed0011290
Pets,FooPed0012007
Pets,FooPed0012006
Pets,Buy3get3FooOPT0012480
Pets,PLOPT0012456
Pets,FooOPT0012480
Pets,PLPed0011286
Pets,FooPed0011995
Pets,FooPed0011994
Pets,FooPed0012002
Pets,FooPed0012001
Pets,PLPed0011289
Pets,WhSci0000807
Pets,WhPer0000684free
Pets,WhPer0000684
Pets,DogPer100171
Pets,WhPup0003744
Pets,DogJer100103
Pets,DogJer0033588
Pets,WhJer0000608
Pets,DogJer100104
Pets,PLCHO0019266
Pets,PLCHO0019267
Pets,PLCHO0019288
Pets,WhSma0000843
Pets,WhSma0000843water
Pets,PLTet0023498
Pets,PLZip0020950
Pets,PLCHO0019312
Pets,PLCHO0019315
Pets,PLCOC0025669
Pets,Coccolagift
Pets,PLPro0040863
Pets,Bun2FreePLPro0040863
Pets,Bun2PLPro0040863
Pets,BunFreePLPro0040863
Pets,PLHik0022167
Pets,HeaWhi0023275
Pets,HeaWhi0023279
Pets,PLWhi0023130
Pets,HeaWhi0023277
Pets,PLWhi0023140
Pets,HeaWhi0023283
Pets,PLTEN0012067
Pets,PLAro0034406
Pets,PLPPP0034417
Pets,WhHon0035336
Pets,WhKon0355914
Pets,WhRoy0000746
Pets,DogRoy0348676
Pets,PLZip0020987
Pets,FooRoy0016405
Pets,PLRoy0004581
Pets,WhEar0332072
Pets,PLWhi0022944
Pets,PLRas0020933
Pets,PLWhi0023115
Pets,DogPet0003960
Pets,WhPet0003922
Pets,PLRas0020935
Pets,PLZip0020978
Pets,WhGre0001840
Pets,PLPin0020066
Pets,FooPin0020078
Pets,PLZip0020980
Pets,PLPPP0034448
Pets,WhBel0000502
Pets,CatBel0005343
Pets,CatBunBel100018
Pets,CatBunBel100017
Pets,CatBel0004897
Pets,WhRoy0000735
Pets,PLTet0023489
Pets,WhAlp0000483
Pets,PLIfe0034437
Pets,PLHik0022204
Pets,WhWhi0041169
Pets,CatBel0295114
Pets,CatBel0033632
Pets,CatBunBel100003
Pets,WhBel0000492
Pets,CatBel0005340
Pets,CatBunBel100004
Pets,ColPet0014347
Pets,WhPet0336384
Pets,PLEur0032646
Pets,PLPPP0034422
Pets,PLTet0023488
Pets,PLWhi0022942
Pets,PLSma0017250
Pets,FooSma0017326
Pets,FooSma0017327
Pets,PLMeo0039518
Pets,WhMeo0000620
Pets,PLMeo0004498
Pets,PLAvo0043891
Pets,BunPLAvo0043891
Pets,PLHik0022163
Pets,PLHik0022201
Pets,PLGEX0019095
Pets,WhBel0000490
Pets,CatBel0005340
Pets,CatBunBel100006
Pets,CatBunBel100005
Pets,CatBel0295111
Pets,CatBel0004894
Pets,PLReg0031137
Pets,PLReg0031138
Pets,PLCHO0019265
Pets,PLOPT0012475
Pets,Buy1get1PLOPT0012475
Pets,PLWhi0023125
Pets,HeaWhi0023279
Pets,HeaWhi0023273
Pets,PLWhi0023128
Pets,HeaWhi0023274
Pets,HeaWhi0023279
Pets,PLTet0023463
Pets,PLPet0007300
Pets,ColPet0014281
Pets,SnaCIA0011370
Pets,SnaCIA0011376
Pets,SnaCIA0015754
Pets,PLCIA0011311
Pets,SnaCIA0011373
Pets,CIAOMixFlavours
Pets,PLTet0023496
Pets,WhPet0003918
Pets,DogPet0003956
Pets,PLPet0043150
Pets,PLPet0043151
Pets,PLGEX0019098
Pets,FooHik0022636
Pets,PLHik0022630
Pets,CatBel0005340
Pets,CatBunBel100013
Pets,WhBel0000486
Pets,CatBel0295113
Pets,CatBunBel100014
Pets,CatBel0033631
Pets,CatBunBel100002
Pets,WhBel0000489
Pets,CatBel0005340
Pets,CatBel0004892
Pets,CatBunBel100001
Pets,CatBel0295110
Pets,BunFreePLPro0040861
Pets,PLPro0040861
Pets,Bun2FreePLPro0040861
Pets,Bun2PLPro0040861
Pets,Bun2FreePLPro0040862
Pets,Bun2PLPro0040862
Pets,PLPro0040862
Pets,BunFreePLPro0040862
Pets,Bun2PLPro0040865
Pets,Bun2FreePLPro0040865
Pets,PLPro0040865
Pets,BunFreePLPro0040865
Pets,PLOPT0012469
Pets,PLVer0013243
Pets,DogPet0005286
Pets,WhPet0005285
Pets,PLPPP0034427
Pets,WhPet0003833
Pets,WhPet0003834
Pets,PLRoy0022212
Pets,FooRoy0022227
Pets,FooRoy0022225
Pets,FooPet0395604
Pets,WhPet0406556
Pets,PLPPP0034418
Pets,PLVer0013233
Pets,PLHik0022200
Pets,PLTet0023480
Pets,PLDog0021010
Pets,BunPLKEV0031438
Pets,PLKEV0040144
Pets,PLTet0023462
Pets,PLFri0006053
Pets,FooFri0023859
Pets,WhFri0000580
Pets,PLHik0022626
Pets,PLTet0023465
Pets,PLPet0043148
Pets,PLPet0043149
Pets,PLVer0013245
Pets,PLHik0022157
Pets,PLTet0023495
Pets,WhTor0407388
Pets,FooTor0395605
Pets,WhTor0407389
Pets,FooTor0395605
Pets,FooTor0395605
Pets,WhTor0407390
Pets,FooTor0395605
Pets,WhTor0407391
Pets,PLZip0020954
Pets,PLIfe0034438
Pets,PLMeo0039516
Pets,FooAvo0020063
Pets,PLAvo0020057
Pets,FooSma0017254
Pets,FooSma0017253
Pets,PLSma0016691
Pets,AlPap0000051
Pets,HeaWhi0023286
Pets,PLWhi0023136
Pets,HeaWhi0023282
Pets,PLVer0013238
Pets,SnaPed0019249
Pets,PLPed0019243
Pets,PLWhi0023109
Pets,AlPap0000025
Pets,SnaMeo0008582
Pets,SnaMeo0008583
Pets,PLMeo0008581
Pets,SnaMeo0016401
Pets,WhPet0336382
Pets,ColPet0014340
Pets,SnaCIA0011348
Pets,SnaCIA0011339
Pets,SnaCIA0015745
Pets,CIAOMixFlavours
Pets,PLCIA0011298
Pets,SnaCIA0011330
Pets,CIAOMixFlavours
Pets,SnaCIA0011351
Pets,SnaCIA0011333
Pets,PLCIA0011301
Pets,SnaCIA0011342
Pets,SnaCIA0015748
Pets,SnaCIA0011344
Pets,PLCIA0011303
Pets,SnaCIA0015750
Pets,CIAOMixFlavours
Pets,SnaCIA0011353
Pets,SnaCIA0011335
Pets,SnaCIA0011374
Pets,SnaCIA0011377
Pets,CIAOMixFlavours
Pets,SnaCIA0011371
Pets,SnaCIA0015755
Pets,PLCIA0011313
Pets,FooDog0016293
Pets,WhDog0000534
Pets,DogDog100048
Pets,DogDog100047
Pets,DogDog0005283
Pets,Bun24PLJer0039784
Pets,Bun12PLJer0039784
Pets,PLJer0039784
Pets,PLZip0020982
Pets,PLTet0023461
Pets,FooWhi0023166
Pets,PLWhi0022939
Pets,FooWhi0023221
Pets,PLWhi0023122
Pets,PLHik0022162
Pets,Bun12PLRoy0040086
Pets,Bun6PLRoy0040086
Pets,PLRoy0040086
Pets,PLTEN0012068
Pets,PLTet0023478
Pets,PLPro0040864
Pets,Bun2PLPro0040864
Pets,Bun2FreePLPro0040864
Pets,BunFreePLPro0040864
Pets,PLPet0043152
Pets,PLTet0023494
Pets,PLWhi0023126
Pets,HeaWhi0023276
Pets,PLWhi0022937
Pets,FooWhi0023164
Pets,PLPet0016269
Pets,PLTet0023479
Pets,PLPet0020991
Pets,PLHik0022625
Pets,PLPet0007313
Pets,PLPet0007315
Pets,AppPet0014352
Pets,HeaWhi0023286
Pets,PLWhi0023138
Pets,HeaWhi0023285
Pets,PLPet0040635
Pets,Bun3PLPet0040635
Pets,Bun3F3PLPet0040635
Pets,CatBunBel100009
Pets,CatBunBel100010
Pets,WhBel0000488
Pets,CatBel0005340
Pets,CatBel0295109
Pets,CatBel0033627
Pets,PLHik0022622
Pets,GroAro0035088
Pets,PLAro0034410
Pets,GroAro0035090
Pets,PLAro0034411
Pets,GroAro0035086
Pets,PLAro0034412
Pets,PLAro0034413
Pets,GroAro0035085
Pets,GroAro0035089
Pets,PLAro0034414
Pets,GroAro0035091
Pets,GroAro0035087
Pets,PLser0015779free
Pets,PLser0015780free
Pets,WhCes0000511pillow
Pets,WhCes0000512pillow
Pets,WhCes0000508pillow
Pets,WhCes0000507pillow
Pets,WhCes0000505pillow
Pets,WhCes0000506pillow
Pets,WhCes0000510pillow
Pets,WhCes0000509pillow
Pets,WhCes0000517pillow
Pets,PLCes0019241pillow
Pets,WhCes0000524pillow
Pets,PLCes0019242pillow
Pets,WhCes0000518pillow
Pets,WhCes0000513pillow
Pets,BunPLFel003817224
Pets,BunPLFel003817212
Pets,BunPLFel003817424
Pets,BunPLFel003817412
Pets,BunPLFel003818124
Pets,BunPLFel003818112
Pets,BunPLFel003817924
Pets,BunPLFel003817912
Pets,BunPLFel003816912
Pets,BunPLFel003816924
Pets,BunPLFel003817712
Pets,BunPLFel003817724
Pets,BunPLFel003817312
Pets,BunPLFel003817324
Pets,BunPLFel003817524
Pets,BunPLFel003817512
Pets,BunPLFel003817024
Pets,BunPLFel003817012
Pets,WhCat0000964freefeocean
Pets,Buncatsbestfreemix
Pets,Buncatsbestfreeocean
Pets,Buncatsbestfreebw
Pets,WhCat0000964freefebw
Pets,Buncatsbestfreemix
Pets,KLlavenderfreeKittycream
Pets,PLKit0035362mixfree
Pets,KLmixfree
Pets,PLKit0035364mixfree
Pets,KLlemonfreeKittycream
Pets,PLKit0035361mixfree
Pets,LitKet0014279
Pets,PLKit0035363mixfree
Pets,BunFreePLLis0037448
Pets,BunFreePLLis0037447
Pets,BunFreePLLis0037446
Pets,WhMax0001290free
Pets,WhMax0001289free
Pets,BunFreePLLis0037445
Pets,WhPer0000687free
Pets,WhPer0000686free
Pets,WhPer0000685free
Pets,WhPer0000684free
Pets,BunPLPet0040640
Pets,BunPLPet0040641
Pets,BunPLPet0030763
Pets,BunPLPet0030764
Pets,Bun3F3PLPet0040635
Pets,Bun3F3PLPet0040637
Pets,FooRoy0021346
Pets,FooRoy0021345
Pets,FooRoy0021347
Pets,FooRoy0022993
Pets,FooRoy0023073
Pets,FooRoy0023078
Pets,FooRoy0023091
Pets,FooRoy0022993
Pets,FooRoy0023075
Pets,FooRoy0023077
Pets,FooRoy0023074
Pets,BunWhRoy0000723
Pets,FooRoy0023093
Pets,FooRoy0023092
Pets,BunWhRoy0000728
Pets,BunPLRoy0038451
Pets,FreeWhRoy0000753
Pets,BunWhRoy0282183
Pets,BunWhRoy0000943
Pets,BunWhRoy0000946
Pets,BunWhRoy0000704
Pets,BunWhRoy0000771
Pets,BunWhRoy0000780
Pets,BunWhRoy0000729
Pets,BunPLRoy0004580
Pets,BunWhRoy0000945
Pets,BunWhRoy0000741
Pets,BunWhRoy0321389
Pets,PLRoy0004583Bun
Pets,BunPLRoy0004582
Pets,WhRoy0000946Box
Pets,PLRoy0037871Box
Pets,WhRoy0282290Box
Pets,PLRoy0037874Box
Pets,PLRoy0038451Box
Pets,WhRoy0282320Box
Pets,WhRoy0000945Box
Pets,WhRoy0282255Box
Pets,WhRoy0321389Box
Pets,WhRoy0000780Box
Pets,WhRoy0000944Box
Pets,WhRoy0000943Box
Pets,PLRoy0037870Box
Pets,WhRoy0000741Box
Pets,PLRoy0004579Box
Pets,PLRoy0037869Box
Pets,WhRoy0000745box
Pets,PLRoy0037868Box
Pets,WhRoy0000771Box
Pets,PLRoy0004576Box
Pets,WhRoy0000706Box
Pets,PLRoy0004580Box
Pets,BunUmPLRoy0046277 
Pets,BunUmPLRoy0046289 
Pets,BunUmPLRoy0046282 
Pets,BunUmPLRoy0043888
Pets,BunUmPLRoy0046284
Pets,BunUmPLRoy0004580
Pets,BunUmPLRoy0004583
Pets,BunUmPLRoy0038451
Pets,BunUmPLRoy0004576
Pets,BunUmPLRoy0046273
Pets,BunUmPLRoy0046272
Pets,BunUmPLRoy0046291
Pets,BunUmWhRoy0000704
Pets,BunUmWhRoy0000715
Pets,BunUmPLRoy0014373
Pets,BunUmPLRoy0046293 
Pets,BunUmWhRoy0000716
Pets,BunUmWhRoy0000768
Pets,BunUmWhRoy0282183
Pets,BunUmWhRoy0000733
Pets,BunUmWhRoy0000743
Pets,BunUmPLRoy0014365
Pets,BunUmPLRoy0046292
Pets,BunUmPLRoy0014368 
Pets,SETPLZoo0031533
Pets,SETPLZoo0031534
Pets,SETPLZoo0031532
Pets,BunPLZoo0031520
Pets,SETPLZoo0031531
Pets,SETPLZoo0031530
Pets,BunPLZoo0031516
Pets,BunPLZoo0031518
Pets,BunPLZoo0031517
Pets,BunPLZoo0031519
Pets,Bun2PLcon0014581
Pets,Bun2PLcon0014582
Pets,Bun2PLcon0014583
Pets,CatBel0295117
Pets,CatBel0295113
Pets,CatBel0295109
Pets,CatBel0295114
Pets,CatBel0295115
Pets,CatBel0295112
Pets,CatBel0295116
Pets,CatBel0295110
Pets,CatBel0295111
Pets,CatBel0295108
Pets,DogRoy0350127
Pets,DogRoy0350126
Pets,DogRoy0350120
Pets,WhMeo0041475
Pets,DogPet0003943
Pets,WhPet0003904
Pets,SnaPet0000281
Pets,SnaPet0000286
Pets,DogRoy0308330
Pets,DogRoy0091090
Pets,BunPLRoy0037869
Pets,DogRoy0091089
Pets,BunPLRoy0037873
Pets,BunPLRoy0037872
Pets,DogRoy0091064
Pets,DogRoy0091086
