Business Unit,Sales SKU
Home Decor,HDTef0038842
Home Decor,MXSTI0028946
Home Decor,HDU-R0037684
Home Decor,MXSHO0025677
Home Decor,MXSHO0025675
Home Decor,HDCab0043137
Home Decor,HDSil0039498
Home Decor,MXSHO0025678
Home Decor,HDMey0039490
Home Decor,HDTef0038838
Home Decor,BunMXKTV0019995
Home Decor,MXKTV0019995
Home Decor,KITKTV0021933
Home Decor,HDMey0039483
Home Decor,HDMey0042209
Home Decor,HDPre0039480
Home Decor,HDIWA0034592
Home Decor,KITKTV0021932
Home Decor,BunMXKTV0019994
Home Decor,MXKTV0019994
Home Decor,HDFar0042208
Home Decor,HDMey0039488
Home Decor,KITKTV0021922
Home Decor,BunMXKTV0019991
Home Decor,MXKTV0019991
Home Decor,HDMey0039497
Home Decor,HDMey0039496
Home Decor,MXPIO0021554
Home Decor,HDFar0042207
Home Decor,HDSHO0042668
Home Decor,HDMey0039492
Home Decor,HDMey0039493
Home Decor,HDMey0039485
Home Decor,HDJCJ0034085
Home Decor,HDTef0038841
Home Decor,HDKas0041527
Home Decor,HDKas0041528
Home Decor,HDKas0041529
Home Decor,HDKas0041530
Home Decor,HDKas0041531
Home Decor,HDSHO0042802
Home Decor,HDJCJ0034089
Home Decor,HDSHO0042803
Home Decor,MXWAS0016686
Home Decor,HOMWAS0021544
Home Decor,HDJCJ0034099
Home Decor,HDMey0039484
Home Decor,HDSHO0042665
Home Decor,MXCHA0029225
Home Decor,HDSHO0042810
Home Decor,MXPIO0021552
Home Decor,HDMey0039487
Home Decor,HDMey0039482
Home Decor,HDSHO0034922
Home Decor,HDSHO0034923
Home Decor,HDSHO0034924
Home Decor,HDSHO0034925
Home Decor,MXSHO0025679
Home Decor,HDMey0039495
Home Decor,HDMey0039494
Home Decor,HDMey0039491
Home Decor,HDJCJ0034102
Home Decor,HDJCJ0034105
Home Decor,HDSHO0034934
Home Decor,MXHen0017929
Home Decor,MXHen0017928
Home Decor,MXMol0017999
Home Decor,HDSHO0034931
Home Decor,HDKas0041408
Home Decor,HDJCJ0034104
Home Decor,HDJCJ0034106
Home Decor,HDKTV0038273
Home Decor,HDJCJ0034090
Home Decor,HDIWA0034586
Home Decor,MXPIO0031200
Home Decor,HDJCJ0034101
Home Decor,HDSHO0042666
Home Decor,MXCHA0029224
Home Decor,MXCHA0029231
Home Decor,BunMXCHA0029231
Home Decor,BunMXCHA00292312
Home Decor,MXHen0017930
Home Decor,MXCHA0029228
Home Decor,HDJCJ0034097
Home Decor,HDSHO0042807
Home Decor,MXCHA0029229
Home Decor,HDSHO0042669
Home Decor,KITKTV0021937
Home Decor,BunMXKTV0019999
Home Decor,MXKTV0019999
Home Decor,MXPIO0021551
Home Decor,HDSSC0042124
Home Decor,MXSHO0025681
Home Decor,HDSHO0042809
Home Decor,MXCHA0029223
Home Decor,HDSSC0042126
Home Decor,BunMXCHA00292322
Home Decor,BunMXCHA0029232
Home Decor,MXCHA0029232
Home Decor,HDMey0039486
Home Decor,HDJCJ0034103
Home Decor,MXPIO0021553
Home Decor,HDSHO0042804
Home Decor,HDSHO0042805
Home Decor,HDSHO0034937
Home Decor,HDJCJ0034100
Home Decor,HDSHO0042806
Home Decor,HDSHO0034929
Home Decor,MXCHA0029227
Home Decor,BunMXCHA00292332
Home Decor,BunMXCHA0029233
Home Decor,MXCHA0029233
Home Decor,HDMey0039489
Home Decor,BunMXKTV0019998
Home Decor,MXKTV0019998
Home Decor,KITKTV0021936
Home Decor,HDCha0040165
Home Decor,HDCha0040166
Home Decor,HDMey0039481
Home Decor,HDJCJ0034098
Home Decor,HDSHO0034933
Home Decor,MXPIO0021556
Home Decor,HDSHO0042667
Home Decor,MXCHA0029236
Home Decor,BunMXCHA0029236
Home Decor,BunMXCHA00292362
Home Decor,HDKas0041409
Home Decor,MXMol0013397
Home Decor,HDPre0042210
Home Decor,MXMol0018033
Home Decor,MXMol0018277
Home Decor,HomMol0029167
Home Decor,MXMol0018280
Home Decor,HomMol0029168
Home Decor,MXMol0018281
Home Decor,HomMol0029169
Home Decor,HDSHO0034932
Home Decor,HDJCJ0034096
Home Decor,HDJCJ0034095
Home Decor,MXMol0017976
Home Decor,BunHDCHA0035161
Home Decor,HDCHA0035161
Home Decor,HDBla0041480
Home Decor,HDSSC0041310
Home Decor,MXCMC0026276
Home Decor,D?CCMC0029162
Home Decor,D?CCMC0029162
Home Decor,MXCMC0026278
Home Decor,MXCMC0026280
Home Decor,D?CCMC0029164
Home Decor,MXCMC0026281
Home Decor,D?CCMC0029164
Home Decor,D?CCMC0029164
Home Decor,MXCMC0026282
Home Decor,MXCMC0026284
Home Decor,D?CCMC0029166
Home Decor,MXCMC0026285
Home Decor,D?CCMC0029166
Home Decor,MXCMC0026286
Home Decor,D?CCMC0029166
Home Decor,MXPIO0031205
Home Decor,HDCha0040161
Home Decor,HDCha0040162
Home Decor,HDCha0040163
Home Decor,KITKTV0021924
Home Decor,MXKTV0019993
Home Decor,BunMXKTV0019993
Home Decor,MXCMC0026275
Home Decor,D?CCMC0029162
Home Decor,MXCMC0026277
Home Decor,D?CCMC0029162
Home Decor,HDSSC0041305
Home Decor,HDMol0034055
Home Decor,HDCHA0035157
Home Decor,BunHDCHA0035157
Home Decor,MXMol0028963
Home Decor,BunHDCHA0035156
Home Decor,HDCHA0035156
Home Decor,HDCHA0035155
Home Decor,BunHDCHA0035155
Home Decor,MXMol0018187
Home Decor,HDSSC0042123
Home Decor,MXPIO0021558
Home Decor,HDSSC0041301
Home Decor,HDSSC0041306
Home Decor,MXMol0017957
Home Decor,MXMol0017991
Home Decor,MXMol0018004
Home Decor,D?CCMC0029166
Home Decor,MXCMC0026283
Home Decor,HDSSC0041303
Home Decor,HDPre0042212
Home Decor,MXCHA0029226
Home Decor,MXSHO0031135
Home Decor,HDPRO0045356
Home Decor,HDJCJ0034084
Home Decor,MXCMC0026279
Home Decor,D?CCMC0029164
Home Decor,HDCha0040164
Home Decor,BunMXCHA0029243
Home Decor,MXCHA0029243
Home Decor,MXCHA0029239
Home Decor,BunMXCHA0029239
Home Decor,MXPIO0021555
Home Decor,MXKle0020419
Home Decor,HDTM 0040169
Home Decor,HDJCJ0034086
Home Decor,HDJCJ0034094
Home Decor,HDSSC0041304
Home Decor,MXPIO0021564
Home Decor,BunMXPIO0021564
Home Decor,MXMol0028982
Home Decor,HDIWA0034589
Home Decor,BunHDCHA0035154
Home Decor,HDCHA0035154
Home Decor,BunMXCHA0029238
Home Decor,MXCHA0029238
Home Decor,HDJCJ0034093
Home Decor,HDSHO0034928
Home Decor,MXMol0017975
Home Decor,MXMol0015858
Home Decor,HDSHO0034936
Home Decor,HDPre0042211
Home Decor,BunMXCHA00292352
Home Decor,BunMXCHA0029235
Home Decor,MXCHA0029235
Home Decor,HDJCJ0034091
Home Decor,HDSSC0041309
Home Decor,HDVRF0042305
Home Decor,MXCHA0029242
Home Decor,BunMXCHA0029242
Home Decor,MXCMC0021353
Home Decor,MXHAL0028119
Home Decor,MXHAL0028124
Home Decor,MXHAL0028125
Home Decor,HDPre0042213
Home Decor,HDPre0042215
Home Decor,MXPIO0031203
Home Decor,MXHAL0028126
Home Decor,MXHAL0028128
Home Decor,MXCHA0029237
Home Decor,BunMXCHA0029237
Home Decor,MXHAL0028120
Home Decor,MXHAL0028121
Home Decor,HDPre0042214
Home Decor,MXSHO0031136
Home Decor,MXCHA0029240
Home Decor,MXKTV0019996
Home Decor,KITKTV0021934
Home Decor,BunMXKTV0019996
Home Decor,MXU-R0020321
Home Decor,HDGre0040886
Home Decor,HDIWA0034579
Home Decor,HDSSC0041307
Home Decor,MXSHO0025680
Home Decor,MXHAL0028122
Home Decor,MXHAL0028127
Home Decor,MXHAL0028123
Home Decor,HDIWA0034562
Home Decor,MXCHA0029245
Home Decor,BunMXCHA0029245
Home Decor,BUNDLEHDKIR004501718
Home Decor,BUNHDKIR0045018
Home Decor,HDKIR0045018
Home Decor,HDI-Y0040614
Home Decor,MXHAL0028118
Home Decor,HDSHO0042808
Home Decor,MXPIO0021565
Home Decor,BunMXPIO0021565
Home Decor,KITKTV0021935
Home Decor,MXKTV0019997
Home Decor,BunMXKTV0019997
Home Decor,MXPIO0031201
Home Decor,HDCHA0035158
Home Decor,HDCHA0035159
Home Decor,HDSHO0034921
Home Decor,MXPIO0021550
