My Mom is a Girl Boss,HDCHA0035163
My Mom is a Girl Boss,MXERG0026984
My Mom is a Girl Boss,MXERG0026982
My Mom is a Girl Boss,MXERG0026980
My Mom is a Girl Boss,MXERG0026978
My Mom is a Girl Boss,MXERG0026976
My Mom is a Girl Boss,MXERG0026974
My Mom is a Girl Boss,MXERG0026972
My Mom is a Girl Boss,MXERG0026970
My Mom is a Girl Boss,MXERG0026968
My Mom is a Girl Boss,MXERG0026966
My Mom is a Girl Boss,MXERG0026964
My Mom is a Girl Boss,MXERG0026962
My Mom is a Girl Boss,MXERG0026960
My Mom is a Girl Boss,MXERG0026958
My Mom is a Girl Boss,MXERG0026985
My Mom is a Girl Boss,MXERG0026983
My Mom is a Girl Boss,MXERG0026981
My Mom is a Girl Boss,MXERG0026979
My Mom is a Girl Boss,MXERG0026977
My Mom is a Girl Boss,MXERG0026975
My Mom is a Girl Boss,MXERG0026973
My Mom is a Girl Boss,MXERG0026971
My Mom is a Girl Boss,MXERG0026969
My Mom is a Girl Boss,MXERG0026967
My Mom is a Girl Boss,MXERG0026965
My Mom is a Girl Boss,MXERG0026963
My Mom is a Girl Boss,MXERG0026961
My Mom is a Girl Boss,MXERG0026959
My Mom is a Girl Boss,MXERG0026957
My Mom is a Girl Boss,MXERG0026955
My Mom is a Girl Boss,MXERG0026956
My Mom is a Girl Boss,MXERG0026954
My Mom is a Girl Boss,HDI-Y0040609
My Mom is a Girl Boss,HDKLI0042455
My Mom is a Girl Boss,HDKLI0042453
My Mom is a Girl Boss,HDKLI0042454
My Mom is a Girl Boss,HDKLI0042452
My Mom is a Girl Boss,HDSYN0040870
My Mom is a Girl Boss,HDSYN0040868
My Mom is a Girl Boss,HDSYN0040869
My Mom is a Girl Boss,HDU-R0043515
My Mom is a Girl Boss,HDU-R0043513
My Mom is a Girl Boss,HDU-R0043511
My Mom is a Girl Boss,HDU-R0043509
My Mom is a Girl Boss,HDU-R0043516
My Mom is a Girl Boss,HDU-R0043514
My Mom is a Girl Boss,HDU-R0043512
My Mom is a Girl Boss,HDU-R0043510
My Mom is a Girl Boss,HDU-R0043508
My Mom is a Girl Boss,HDU-R0043507
My Mom is a Girl Boss,HDU-R0043505
My Mom is a Girl Boss,HDU-R0043506
My Mom is a Girl Boss,HDU-R0037675
My Mom is a Girl Boss,HDU-R0037676
My Mom is a Girl Boss,HDU-R0037680
My Mom is a Girl Boss,HDU-R0037679
My Mom is a Girl Boss,HDU-R0037678
My Mom is a Girl Boss,HDU-R0037677
My Mom is a Girl Boss,HDVRF0043926
My Mom is a Girl Boss,HDVRF0043924
My Mom is a Girl Boss,HDVRF0043922
My Mom is a Girl Boss,HDVRF0043920
My Mom is a Girl Boss,HDVRF0043918
My Mom is a Girl Boss,HDVRF0043925
My Mom is a Girl Boss,HDVRF0043923
My Mom is a Girl Boss,HDVRF0043921
My Mom is a Girl Boss,HDVRF0043919
My Mom is a Girl Boss,HDVRF0043917
My Mom is a Girl Boss,HDVRF0044072
My Mom is a Girl Boss,HDVRF0044070
My Mom is a Girl Boss,HDVRF0044068
My Mom is a Girl Boss,HDVRF0044066
My Mom is a Girl Boss,HDVRF0044064
My Mom is a Girl Boss,HDVRF0044073
My Mom is a Girl Boss,HDVRF0044071
My Mom is a Girl Boss,HDVRF0044069
My Mom is a Girl Boss,HDVRF0044067
My Mom is a Girl Boss,HDVRF0044065
My Mom is a Girl Boss,HDLif0042761
My Mom is a Girl Boss,HDLif0042759
My Mom is a Girl Boss,HDLif0042757
My Mom is a Girl Boss,HDLif0042755
My Mom is a Girl Boss,HDLif0042753
My Mom is a Girl Boss,HDLif0042760
My Mom is a Girl Boss,HDLif0042758
My Mom is a Girl Boss,HDLif0042756
My Mom is a Girl Boss,HDLif0042754
My Mom is a Girl Boss,HDT.W0040564
My Mom is a Girl Boss,HDT.W0040566
My Mom is a Girl Boss,HDT.W0040567
My Mom is a Girl Boss,HDT.W0040565
My Mom is a Girl Boss,HDT.W0040563
My Mom is a Girl Boss,MXCMC0026281
My Mom is a Girl Boss,MXCMC0026277
My Mom is a Girl Boss,MXCMC0026280
My Mom is a Girl Boss,MXCMC0026284
My Mom is a Girl Boss,MXCMC0026283
My Mom is a Girl Boss,MXCMC0026282
My Mom is a Girl Boss,MXCMC0026278
My Mom is a Girl Boss,MXCMC0026276
My Mom is a Girl Boss,MXCMC0026286
My Mom is a Girl Boss,MXCMC0026285
My Mom is a Girl Boss,MXCMC0026279
My Mom is a Girl Boss,MXCMC0026275
My Mom is a Girl Boss,MXCMC0021355
My Mom is a Girl Boss,MXCMC0021351
My Mom is a Girl Boss,MXCMC0021352
My Mom is a Girl Boss,MXCMC0021353
My Mom is a Girl Boss,MXCMC0021350
My Mom is a Girl Boss,MXCMC0021348
My Mom is a Girl Boss,MXCMC0021349
My Mom is a Girl Boss,HDCMC0043255
My Mom is a Girl Boss,HDCMC0043261
My Mom is a Girl Boss,HDCMC0043259
My Mom is a Girl Boss,HDCMC0043257
My Mom is a Girl Boss,HDCMC0043253
My Mom is a Girl Boss,HDCMC0043260
My Mom is a Girl Boss,HDCMC0043258
My Mom is a Girl Boss,HDCMC0043256
My Mom is a Girl Boss,HDCMC0043254
My Mom is a Girl Boss,HDCMC0043252
My Mom is a Girl Boss,MXHen0014548
My Mom is a Girl Boss,MXHen0014447
My Mom is a Girl Boss,MXHen0014549
My Mom is a Girl Boss,MXHen0014547
My Mom is a Girl Boss,MXHen0014467
My Mom is a Girl Boss,MXHen0014468
My Mom is a Girl Boss,HDMol0039015
My Mom is a Girl Boss,HDMol0039013
My Mom is a Girl Boss,HDMol0039011
My Mom is a Girl Boss,HDMol0039009
My Mom is a Girl Boss,HDMol0039007
My Mom is a Girl Boss,HDMol0039016
My Mom is a Girl Boss,HDMol0039014
My Mom is a Girl Boss,HDMol0039012
My Mom is a Girl Boss,HDMol0039010
My Mom is a Girl Boss,HDMol0039008
My Mom is a Girl Boss,HDMol0038019
My Mom is a Girl Boss,HDMol0038017
My Mom is a Girl Boss,HDMol0038015
My Mom is a Girl Boss,HDMol0038013
My Mom is a Girl Boss,HDMol0038020
My Mom is a Girl Boss,HDMol0038018
My Mom is a Girl Boss,HDMol0038016
My Mom is a Girl Boss,HDMol0038014
My Mom is a Girl Boss,HDMol0034068
My Mom is a Girl Boss,HDMol0034058
My Mom is a Girl Boss,HDMol0034047
My Mom is a Girl Boss,HDMol0034045
My Mom is a Girl Boss,HDMol0034043
My Mom is a Girl Boss,HDMol0034051
My Mom is a Girl Boss,HDMol0034041
My Mom is a Girl Boss,HDMol0034054
My Mom is a Girl Boss,HDMol0034065
My Mom is a Girl Boss,HDMol0034042
My Mom is a Girl Boss,HDMol0034039
My Mom is a Girl Boss,HDMol0034057
My Mom is a Girl Boss,HDMol0034061
My Mom is a Girl Boss,HDMol0034059
My Mom is a Girl Boss,HDMol0034046
My Mom is a Girl Boss,HDMol0034044
My Mom is a Girl Boss,HDMol0034055
My Mom is a Girl Boss,HDMol0034049
My Mom is a Girl Boss,HDMol0034067
My Mom is a Girl Boss,HDMol0034074
My Mom is a Girl Boss,HDMol0034063
My Mom is a Girl Boss,HDMol0034066
My Mom is a Girl Boss,HDMol0034064
My Mom is a Girl Boss,HDMol0034062
My Mom is a Girl Boss,HDMol0034060
My Mom is a Girl Boss,HDMol0034073
My Mom is a Girl Boss,HDMol0034071
My Mom is a Girl Boss,HDMol0034070
My Mom is a Girl Boss,HDMol0034056
My Mom is a Girl Boss,HDMol0034037
My Mom is a Girl Boss,MXMol0028952
My Mom is a Girl Boss,MXMol0028950
My Mom is a Girl Boss,MXMol0028948
My Mom is a Girl Boss,MXMol0027434
My Mom is a Girl Boss,MXMol0028961
My Mom is a Girl Boss,MXMol0028959
My Mom is a Girl Boss,MXMol0028957
My Mom is a Girl Boss,MXMol0027431
My Mom is a Girl Boss,MXMol0028964
My Mom is a Girl Boss,MXMol0028962
My Mom is a Girl Boss,MXMol0028960
My Mom is a Girl Boss,MXMol0028958
My Mom is a Girl Boss,MXMol0028956
My Mom is a Girl Boss,MXMol0028954
My Mom is a Girl Boss,MXMol0028995
My Mom is a Girl Boss,MXMol0028993
My Mom is a Girl Boss,MXMol0028991
My Mom is a Girl Boss,MXMol0028989
My Mom is a Girl Boss,MXMol0028987
My Mom is a Girl Boss,MXMol0028985
My Mom is a Girl Boss,MXMol0028983
My Mom is a Girl Boss,MXMol0028981
My Mom is a Girl Boss,MXMol0028979
My Mom is a Girl Boss,MXMol0028977
My Mom is a Girl Boss,MXMol0028975
My Mom is a Girl Boss,MXMol0028973
My Mom is a Girl Boss,MXMol0028971
My Mom is a Girl Boss,MXMol0028969
My Mom is a Girl Boss,MXMol0028965
My Mom is a Girl Boss,MXMol0028955
My Mom is a Girl Boss,MXMol0028953
My Mom is a Girl Boss,MXMol0028951
My Mom is a Girl Boss,MXMol0028949
My Mom is a Girl Boss,MXMol0028947
My Mom is a Girl Boss,MXMol0028994
My Mom is a Girl Boss,MXMol0028992
My Mom is a Girl Boss,MXMol0028990
My Mom is a Girl Boss,MXMol0028988
My Mom is a Girl Boss,MXMol0028986
My Mom is a Girl Boss,MXMol0028982
My Mom is a Girl Boss,MXMol0028980
My Mom is a Girl Boss,MXMol0028972
My Mom is a Girl Boss,MXMol0028970
My Mom is a Girl Boss,MXMol0018287
My Mom is a Girl Boss,MXMol0018282
My Mom is a Girl Boss,MXMol0018281
My Mom is a Girl Boss,MXMol0018280
My Mom is a Girl Boss,MXMol0018277
My Mom is a Girl Boss,MXMol0018263
My Mom is a Girl Boss,MXMol0018261
My Mom is a Girl Boss,MXMol0018259
My Mom is a Girl Boss,MXMol0018254
My Mom is a Girl Boss,MXMol0018248
My Mom is a Girl Boss,MXMol0018246
My Mom is a Girl Boss,MXMol0018240
My Mom is a Girl Boss,MXMol0018244
My Mom is a Girl Boss,MXMol0018286
My Mom is a Girl Boss,MXMol0018284
My Mom is a Girl Boss,MXMol0018279
My Mom is a Girl Boss,MXMol0018265
My Mom is a Girl Boss,MXMol0018260
My Mom is a Girl Boss,MXMol0018258
My Mom is a Girl Boss,MXMol0018256
My Mom is a Girl Boss,MXMol0018249
My Mom is a Girl Boss,MXMol0018245
My Mom is a Girl Boss,MXMol0018238
My Mom is a Girl Boss,MXMol0018236
My Mom is a Girl Boss,MXMol0018232
My Mom is a Girl Boss,MXMol0018250
My Mom is a Girl Boss,MXMol0018247
My Mom is a Girl Boss,MXMol0018241
My Mom is a Girl Boss,MXMol0018237
My Mom is a Girl Boss,MXMol0018229
My Mom is a Girl Boss,MXMol0018224
My Mom is a Girl Boss,MXMol0018220
My Mom is a Girl Boss,MXMol0018218
My Mom is a Girl Boss,MXMol0018213
My Mom is a Girl Boss,MXMol0018230
My Mom is a Girl Boss,MXMol0018228
My Mom is a Girl Boss,MXMol0018226
My Mom is a Girl Boss,MXMol0018221
My Mom is a Girl Boss,MXMol0018219
My Mom is a Girl Boss,MXMol0018217
My Mom is a Girl Boss,MXMol0018215
My Mom is a Girl Boss,MXMol0018210
My Mom is a Girl Boss,MXMol0018194
My Mom is a Girl Boss,MXMol0018189
My Mom is a Girl Boss,MXMol0018208
My Mom is a Girl Boss,MXMol0018205
My Mom is a Girl Boss,MXMol0018203
My Mom is a Girl Boss,MXMol0018197
My Mom is a Girl Boss,MXMol0018195
My Mom is a Girl Boss,MXMol0018193
My Mom is a Girl Boss,MXMol0018191
My Mom is a Girl Boss,MXMol0018187
My Mom is a Girl Boss,MXMol0018185
My Mom is a Girl Boss,MXMol0018243
My Mom is a Girl Boss,MXMol0018196
My Mom is a Girl Boss,MXMol0018192
My Mom is a Girl Boss,MXMol0018190
My Mom is a Girl Boss,MXMol0018188
My Mom is a Girl Boss,MXMol0018186
My Mom is a Girl Boss,MXMol0018184
My Mom is a Girl Boss,MXMol0018233
My Mom is a Girl Boss,MXMol0018231
My Mom is a Girl Boss,MXMol0018227
My Mom is a Girl Boss,MXMol0018222
My Mom is a Girl Boss,MXMol0018211
My Mom is a Girl Boss,MXMol0018209
My Mom is a Girl Boss,MXMol0018206
My Mom is a Girl Boss,MXMol0018216
My Mom is a Girl Boss,MXMol0018214
My Mom is a Girl Boss,MXMol0018212
My Mom is a Girl Boss,MXMol0018204
My Mom is a Girl Boss,MXMol0018202
My Mom is a Girl Boss,MXMol0018200
My Mom is a Girl Boss,MXMol0018198
My Mom is a Girl Boss,MXMol0018266
My Mom is a Girl Boss,MXMol0018264
My Mom is a Girl Boss,MXMol0018262
My Mom is a Girl Boss,MXMol0018257
My Mom is a Girl Boss,MXMol0018255
My Mom is a Girl Boss,MXMol0018253
My Mom is a Girl Boss,MXMol0018251
My Mom is a Girl Boss,MXMol0018242
My Mom is a Girl Boss,MXMol0018239
My Mom is a Girl Boss,MXMol0018234
My Mom is a Girl Boss,MXMol0018225
My Mom is a Girl Boss,MXMol0018223
My Mom is a Girl Boss,MXMol0018288
My Mom is a Girl Boss,MXMol0018285
My Mom is a Girl Boss,MXMol0018283
My Mom is a Girl Boss,MXMol0018278
My Mom is a Girl Boss,MXMol0018276
My Mom is a Girl Boss,MXMol0015856
My Mom is a Girl Boss,MXMol0015873
My Mom is a Girl Boss,MXMol0015869
My Mom is a Girl Boss,MXMol0015866
My Mom is a Girl Boss,MXMol0015864
My Mom is a Girl Boss,MXMol0015862
My Mom is a Girl Boss,MXMol0015859
My Mom is a Girl Boss,MXMol0015892
My Mom is a Girl Boss,MXMol0015889
My Mom is a Girl Boss,MXMol0015887
My Mom is a Girl Boss,MXMol0015885
My Mom is a Girl Boss,MXMol0015858
My Mom is a Girl Boss,MXMol0015852
My Mom is a Girl Boss,MXMol0015891
My Mom is a Girl Boss,MXMol0015886
My Mom is a Girl Boss,MXMol0015878
My Mom is a Girl Boss,MXMol0015876
My Mom is a Girl Boss,MXMol0015867
My Mom is a Girl Boss,MXMol0015861
My Mom is a Girl Boss,MXMol0015855
My Mom is a Girl Boss,MXMol0015851
My Mom is a Girl Boss,MXMol0015848
My Mom is a Girl Boss,MXMol0015888
My Mom is a Girl Boss,MXMol0015881
My Mom is a Girl Boss,MXMol0015879
My Mom is a Girl Boss,MXMol0015877
My Mom is a Girl Boss,MXMol0015874
My Mom is a Girl Boss,MXMol0015872
My Mom is a Girl Boss,MXMol0015870
My Mom is a Girl Boss,MXMol0015868
My Mom is a Girl Boss,MXMol0015865
My Mom is a Girl Boss,MXMol0015860
My Mom is a Girl Boss,MXMol0015854
My Mom is a Girl Boss,MXMol0015850
My Mom is a Girl Boss,MXMol0015890
My Mom is a Girl Boss,MXMol0015884
My Mom is a Girl Boss,MXMol0015880
My Mom is a Girl Boss,MXMol0015875
My Mom is a Girl Boss,MXMol0015871
My Mom is a Girl Boss,MXMol0015863
My Mom is a Girl Boss,MXMol0015857
My Mom is a Girl Boss,MXMol0015853
My Mom is a Girl Boss,MXMol0015846
My Mom is a Girl Boss,MXMol0018176
My Mom is a Girl Boss,MXMol0018173
My Mom is a Girl Boss,MXMol0018171
My Mom is a Girl Boss,MXMol0018170
My Mom is a Girl Boss,MXMol0018168
My Mom is a Girl Boss,MXMol0018164
My Mom is a Girl Boss,MXMol0018162
My Mom is a Girl Boss,MXMol0018156
My Mom is a Girl Boss,MXMol0018158
My Mom is a Girl Boss,MXMol0018015
My Mom is a Girl Boss,MXMol0018008
My Mom is a Girl Boss,MXMol0018006
My Mom is a Girl Boss,MXMol0018004
My Mom is a Girl Boss,MXMol0018002
My Mom is a Girl Boss,MXMol0017999
My Mom is a Girl Boss,MXMol0017995
My Mom is a Girl Boss,MXMol0017987
My Mom is a Girl Boss,MXMol0017984
My Mom is a Girl Boss,MXMol0017979
My Mom is a Girl Boss,MXMol0017977
My Mom is a Girl Boss,MXMol0017974
My Mom is a Girl Boss,MXMol0018043
My Mom is a Girl Boss,MXMol0018037
My Mom is a Girl Boss,MXMol0018035
My Mom is a Girl Boss,MXMol0018030
My Mom is a Girl Boss,MXMol0018028
My Mom is a Girl Boss,MXMol0018026
My Mom is a Girl Boss,MXMol0018042
My Mom is a Girl Boss,MXMol0018038
My Mom is a Girl Boss,MXMol0018033
My Mom is a Girl Boss,MXMol0018031
My Mom is a Girl Boss,MXMol0018029
My Mom is a Girl Boss,MXMol0018023
My Mom is a Girl Boss,MXMol0018021
My Mom is a Girl Boss,MXMol0018019
My Mom is a Girl Boss,MXMol0018017
My Mom is a Girl Boss,MXMol0013403
My Mom is a Girl Boss,MXMol0018044
My Mom is a Girl Boss,MXMol0018040
My Mom is a Girl Boss,MXMol0017968
My Mom is a Girl Boss,MXMol0017962
My Mom is a Girl Boss,MXMol0017957
My Mom is a Girl Boss,MXMol0013413
My Mom is a Girl Boss,MXMol0013411
My Mom is a Girl Boss,MXMol0013406
My Mom is a Girl Boss,MXMol0013402
My Mom is a Girl Boss,MXMol0013414
My Mom is a Girl Boss,MXMol0013410
My Mom is a Girl Boss,MXMol0013404
My Mom is a Girl Boss,MXMol0013399
My Mom is a Girl Boss,MXMol0013412
My Mom is a Girl Boss,MXMol0013409
My Mom is a Girl Boss,MXMol0013407
My Mom is a Girl Boss,MXMol0013405
My Mom is a Girl Boss,MXMol0013401
My Mom is a Girl Boss,MXMol0013397
My Mom is a Girl Boss,MXMol0018167
My Mom is a Girl Boss,MXMol0018163
My Mom is a Girl Boss,MXMol0018160
My Mom is a Girl Boss,MXMol0018154
My Mom is a Girl Boss,MXMol0018151
My Mom is a Girl Boss,MXMol0018174
My Mom is a Girl Boss,MXMol0018172
My Mom is a Girl Boss,MXMol0018169
My Mom is a Girl Boss,MXMol0018177
My Mom is a Girl Boss,MXMol0018175
My Mom is a Girl Boss,MXMol0018166
My Mom is a Girl Boss,MXMol0018161
My Mom is a Girl Boss,MXMol0018159
My Mom is a Girl Boss,MXMol0018157
My Mom is a Girl Boss,MXMol0018155
My Mom is a Girl Boss,MXMol0018153
My Mom is a Girl Boss,MXMol0018027
My Mom is a Girl Boss,MXMol0018025
My Mom is a Girl Boss,MXMol0018022
My Mom is a Girl Boss,MXMol0018018
My Mom is a Girl Boss,MXMol0018014
My Mom is a Girl Boss,MXMol0018041
My Mom is a Girl Boss,MXMol0018034
My Mom is a Girl Boss,MXMol0018032
My Mom is a Girl Boss,MXMol0018024
My Mom is a Girl Boss,MXMol0018020
My Mom is a Girl Boss,MXMol0018013
My Mom is a Girl Boss,MXMol0018010
My Mom is a Girl Boss,MXMol0018007
My Mom is a Girl Boss,MXMol0018000
My Mom is a Girl Boss,MXMol0017998
My Mom is a Girl Boss,MXMol0017996
My Mom is a Girl Boss,MXMol0017992
My Mom is a Girl Boss,MXMol0018039
My Mom is a Girl Boss,MXMol0018036
My Mom is a Girl Boss,MXMol0017963
My Mom is a Girl Boss,MXMol0017961
My Mom is a Girl Boss,MXMol0017991
My Mom is a Girl Boss,MXMol0017989
My Mom is a Girl Boss,MXMol0017985
My Mom is a Girl Boss,MXMol0017983
My Mom is a Girl Boss,MXMol0017981
My Mom is a Girl Boss,MXMol0017975
My Mom is a Girl Boss,MXMol0017973
My Mom is a Girl Boss,MXMol0017971
My Mom is a Girl Boss,MXMol0017967
My Mom is a Girl Boss,MXMol0017965
My Mom is a Girl Boss,MXMol0018016
My Mom is a Girl Boss,MXMol0018009
My Mom is a Girl Boss,MXMol0018005
My Mom is a Girl Boss,MXMol0017997
My Mom is a Girl Boss,MXMol0017990
My Mom is a Girl Boss,MXMol0017988
My Mom is a Girl Boss,MXMol0017986
My Mom is a Girl Boss,MXMol0017982
My Mom is a Girl Boss,MXMol0017980
My Mom is a Girl Boss,MXMol0017978
My Mom is a Girl Boss,MXMol0017976
My Mom is a Girl Boss,MXMol0017972
My Mom is a Girl Boss,MXMol0017970
My Mom is a Girl Boss,MXMol0017966
My Mom is a Girl Boss,MXMol0017964
My Mom is a Girl Boss,MXMol0017958
My Mom is a Girl Boss,MXMol0017956
My Mom is a Girl Boss,MXMol0019472
My Mom is a Girl Boss,MXMol0019473
My Mom is a Girl Boss,HDMol0042900
My Mom is a Girl Boss,HDMol0042899
My Mom is a Girl Boss,HDCla0045147
My Mom is a Girl Boss,HDCla0045150
My Mom is a Girl Boss,HDCla0045146
My Mom is a Girl Boss,HDCla0045148
My Mom is a Girl Boss,HDCla0045149
My Mom is a Girl Boss,HDCla0045151
My Mom is a Girl Boss,HDCla0045173
My Mom is a Girl Boss,HDCla0045154
My Mom is a Girl Boss,HDCla0045153
My Mom is a Girl Boss,HDCla0045152
My Mom is a Girl Boss,HDCla0045172
My Mom is a Girl Boss,HDExa0045177
My Mom is a Girl Boss,HDMap0045176
My Mom is a Girl Boss,HDMap0045175
My Mom is a Girl Boss,HDMap0045174
My Mom is a Girl Boss,HDRho0045157
My Mom is a Girl Boss,HDRho0045160
My Mom is a Girl Boss,HDRho0045158
My Mom is a Girl Boss,HDRho0045159
My Mom is a Girl Boss,HDRho0045161
My Mom is a Girl Boss,HDRho0045155
My Mom is a Girl Boss,HDRho0045169
My Mom is a Girl Boss,HDRho0045171
My Mom is a Girl Boss,HDRho0045170
My Mom is a Girl Boss,HDRho0045162
My Mom is a Girl Boss,HDRho0045167
My Mom is a Girl Boss,HDRho0045168
My Mom is a Girl Boss,HDRho0045156
My Mom is a Girl Boss,HDRho0045166
My Mom is a Girl Boss,HDRho0045163
My Mom is a Girl Boss,HDRho0045165
My Mom is a Girl Boss,HDRho0045164
My Mom is a Girl Boss,ELLen0035719
My Mom is a Girl Boss,ELHP0042687
My Mom is a Girl Boss,ELHP0042685
My Mom is a Girl Boss,ELHP0042684
My Mom is a Girl Boss,ELApp0035690
My Mom is a Girl Boss,ELApp0035689
My Mom is a Girl Boss,ELApp0035687
My Mom is a Girl Boss,ELApp0035685
My Mom is a Girl Boss,ELApp0035690
My Mom is a Girl Boss,ELApp0035688
My Mom is a Girl Boss,ELApp0035686
My Mom is a Girl Boss,ELApp0035684
My Mom is a Girl Boss,MXMAC0017209
My Mom is a Girl Boss,MXMAC0017203
My Mom is a Girl Boss,MXMAC0017210
My Mom is a Girl Boss,MXMAC0017207
My Mom is a Girl Boss,MXMAC0017204
My Mom is a Girl Boss,MXMAC0017211
My Mom is a Girl Boss,MXMAC0017208
My Mom is a Girl Boss,ELApp0041779
My Mom is a Girl Boss,ELApp0041786
My Mom is a Girl Boss,ELApp0041784
My Mom is a Girl Boss,ELApp0041782
My Mom is a Girl Boss,ELApp0041780
My Mom is a Girl Boss,ELApp0041787
My Mom is a Girl Boss,ELApp0041785
My Mom is a Girl Boss,ELApp0041783
My Mom is a Girl Boss,ELApp0041781
My Mom is a Girl Boss,ELApp0041778
My Mom is a Girl Boss,ELBRO0043944
My Mom is a Girl Boss,ELBRO0043942
My Mom is a Girl Boss,ELBRO0043940
My Mom is a Girl Boss,ELBRO0043938
My Mom is a Girl Boss,ELBRO0043936
My Mom is a Girl Boss,ELBRO0043947
My Mom is a Girl Boss,ELBRO0043945
My Mom is a Girl Boss,ELBRO0043943
My Mom is a Girl Boss,ELBRO0043941
My Mom is a Girl Boss,ELBRO0043939
My Mom is a Girl Boss,ELBRO0043937
My Mom is a Girl Boss,ELBRO0043935
My Mom is a Girl Boss,ELBRO0043948
My Mom is a Girl Boss,ELLen0035715
My Mom is a Girl Boss,ELLen0035718
My Mom is a Girl Boss,ELLen0035712
My Mom is a Girl Boss,ELSea0041274
My Mom is a Girl Boss,ELSea0041272
My Mom is a Girl Boss,ELSea0041273
My Mom is a Girl Boss,ELSea0041271
My Mom is a Girl Boss,MXSea0019616
My Mom is a Girl Boss,MXSea0019614
My Mom is a Girl Boss,MXSea0019621
My Mom is a Girl Boss,MXSea0019615
My Mom is a Girl Boss,MXSea0019613
My Mom is a Girl Boss,ELWD0043701
My Mom is a Girl Boss,ELWD0043699
My Mom is a Girl Boss,ELWD0043697
My Mom is a Girl Boss,ELWD0043700
My Mom is a Girl Boss,ELWD0043698
My Mom is a Girl Boss,MXWD0021338
My Mom is a Girl Boss,MXWD0021336
My Mom is a Girl Boss,MXWD0021334
My Mom is a Girl Boss,MXWD0021337
My Mom is a Girl Boss,MXWD0021335
My Mom is a Girl Boss,FSFOS0042459
My Mom is a Girl Boss,FSFOS0042460
My Mom is a Girl Boss,FSFOS0042461
My Mom is a Girl Boss,FSFOS0042462
My Mom is a Girl Boss,FSFOS0042465
My Mom is a Girl Boss,FSFOS0042466
My Mom is a Girl Boss,FSFOS0042467
My Mom is a Girl Boss,FSFOS0042468
My Mom is a Girl Boss,FSFOS0042469
My Mom is a Girl Boss,FSFOS0042471
My Mom is a Girl Boss,FSFOS0042472
My Mom is a Girl Boss,FSFOS0042473
My Mom is a Girl Boss,FSFOS0042474
My Mom is a Girl Boss,FSFOS0042475
My Mom is a Girl Boss,FSFOS0042476
My Mom is a Girl Boss,FSFOS0042477
My Mom is a Girl Boss,FSFOS0042478
My Mom is a Girl Boss,FSFOS0042479
My Mom is a Girl Boss,FSFOS0042480
My Mom is a Girl Boss,FSFOS0042481
My Mom is a Girl Boss,FSFOS0042482
My Mom is a Girl Boss,FSKIM0038021
My Mom is a Girl Boss,FSKIM0038022
My Mom is a Girl Boss,FSKIM0038023
My Mom is a Girl Boss,FSKIM0038024
My Mom is a Girl Boss,FSKIM0038025
My Mom is a Girl Boss,FSKIM0038026
My Mom is a Girl Boss,FSKIM0038027
My Mom is a Girl Boss,FSKIM0038028
My Mom is a Girl Boss,FSKIM0038029
My Mom is a Girl Boss,FSKIM0038030
My Mom is a Girl Boss,FSKIM0038031
My Mom is a Girl Boss,FSKIM0038032
My Mom is a Girl Boss,FSKIM0038033
My Mom is a Girl Boss,FSKIM0038034
My Mom is a Girl Boss,FSKIM0038035
My Mom is a Girl Boss,FSKIM0038036
My Mom is a Girl Boss,FSKIM0038037
My Mom is a Girl Boss,FSKIM0038038
My Mom is a Girl Boss,FSKIM0038039
My Mom is a Girl Boss,FSKIM0038040
My Mom is a Girl Boss,FSKIM0038041
My Mom is a Girl Boss,FSKIM0038042
My Mom is a Girl Boss,FSKIM0038043
My Mom is a Girl Boss,FSKIM0038044
My Mom is a Girl Boss,FSKIM0038045
My Mom is a Girl Boss,FSKIM0038046
My Mom is a Girl Boss,FSKIM0038047
My Mom is a Girl Boss,FSKIM0038048
My Mom is a Girl Boss,FSKIM0038049
My Mom is a Girl Boss,FSKIM0038050
My Mom is a Girl Boss,FSKIM0038051
My Mom is a Girl Boss,FSKIM0038052
My Mom is a Girl Boss,FSKIM0038053
My Mom is a Girl Boss,FSKIM0038054
My Mom is a Girl Boss,FSKIM0038055
My Mom is a Girl Boss,FSKIM0038056
My Mom is a Girl Boss,FSKIM0038057
My Mom is a Girl Boss,FSKIM0038058
My Mom is a Girl Boss,FSKIM0038059
My Mom is a Girl Boss,FSKIM0038060
My Mom is a Girl Boss,FSKIM0038061
My Mom is a Girl Boss,FSKIM0038062
My Mom is a Girl Boss,FSKIM0038063
My Mom is a Girl Boss,FSLUC0038064
My Mom is a Girl Boss,FSLUC0038065
My Mom is a Girl Boss,FSLUC0038066
My Mom is a Girl Boss,FSLUC0038067
My Mom is a Girl Boss,FSLUC0038068
My Mom is a Girl Boss,FSLUC0038069
My Mom is a Girl Boss,FSLUC0038070
My Mom is a Girl Boss,FSLUC0038071
My Mom is a Girl Boss,FSLUC0038072
My Mom is a Girl Boss,FSLUC0038073
My Mom is a Girl Boss,FSLUC0038074
My Mom is a Girl Boss,FSLUC0038075
My Mom is a Girl Boss,FSLUC0038076
My Mom is a Girl Boss,FSLUC0038077
My Mom is a Girl Boss,FSLUC0038078
My Mom is a Girl Boss,FSMAR0040041
My Mom is a Girl Boss,FSMAR0040042
My Mom is a Girl Boss,FSMAR0040043
My Mom is a Girl Boss,FSMAR0040044
My Mom is a Girl Boss,FSMAR0040045
My Mom is a Girl Boss,FSPOL0040051
My Mom is a Girl Boss,FSPOL0040052
My Mom is a Girl Boss,FSBur0037321
My Mom is a Girl Boss,FSBur0037322
My Mom is a Girl Boss,FSBur0037323
My Mom is a Girl Boss,FSBur0037324
My Mom is a Girl Boss,FSBur0037325
My Mom is a Girl Boss,FSBur0037326
My Mom is a Girl Boss,FSBur0037327
My Mom is a Girl Boss,FSBur0037328
My Mom is a Girl Boss,FSBur0037329
My Mom is a Girl Boss,FSBur0037330
My Mom is a Girl Boss,FSCoa0040645
My Mom is a Girl Boss,FSCoa0040646
My Mom is a Girl Boss,FSCoa0040647
My Mom is a Girl Boss,FSCoa0040648
My Mom is a Girl Boss,FSCoa0040650
My Mom is a Girl Boss,FSEmp0040054
My Mom is a Girl Boss,FSJac0035766
My Mom is a Girl Boss,FSJac0035767
My Mom is a Girl Boss,FSJac0035768
My Mom is a Girl Boss,FSJac0035769
My Mom is a Girl Boss,FSJac0035770
My Mom is a Girl Boss,FSJac0035771
My Mom is a Girl Boss,FSJac0035772
My Mom is a Girl Boss,FSJac0035773
My Mom is a Girl Boss,FSJac0035774
My Mom is a Girl Boss,FSJac0035775
My Mom is a Girl Boss,FSJac0035776
My Mom is a Girl Boss,FSJac0035777
My Mom is a Girl Boss,FSJac0035778
My Mom is a Girl Boss,FSJac0035779
My Mom is a Girl Boss,FSJac0035780
My Mom is a Girl Boss,FSJac0035781
My Mom is a Girl Boss,FSJac0035782
My Mom is a Girl Boss,FSJac0035783
My Mom is a Girl Boss,FSJac0035784
My Mom is a Girl Boss,FSJac0035785
My Mom is a Girl Boss,FSJac0035786
My Mom is a Girl Boss,FSJac0035787
My Mom is a Girl Boss,FSJac0035788
My Mom is a Girl Boss,FSJac0035789
My Mom is a Girl Boss,FSJac0035790
My Mom is a Girl Boss,FSJac0035791
My Mom is a Girl Boss,FSJac0035792
My Mom is a Girl Boss,FSJac0035793
My Mom is a Girl Boss,FSJac0035794
My Mom is a Girl Boss,FSJac0035795
My Mom is a Girl Boss,FSJac0035796
My Mom is a Girl Boss,FSJac0035797
My Mom is a Girl Boss,FSJac0035798
My Mom is a Girl Boss,FSJac0035799
My Mom is a Girl Boss,FSJac0035800
My Mom is a Girl Boss,FSJac0035801
My Mom is a Girl Boss,FSJac0035802
My Mom is a Girl Boss,FSJac0035803
My Mom is a Girl Boss,FSJac0035804
My Mom is a Girl Boss,FSJac0035805
My Mom is a Girl Boss,FSJac0035806
My Mom is a Girl Boss,FSJac0035807
My Mom is a Girl Boss,FSJac0035808
My Mom is a Girl Boss,FSJac0035809
My Mom is a Girl Boss,FSJac0035810
My Mom is a Girl Boss,FSJac0035811
My Mom is a Girl Boss,FSJac0035812
My Mom is a Girl Boss,FSJac0035813
My Mom is a Girl Boss,FSJac0035814
My Mom is a Girl Boss,FSJac0035815
My Mom is a Girl Boss,FSJac0035816
My Mom is a Girl Boss,FSJac0035817
My Mom is a Girl Boss,FSJac0035818
My Mom is a Girl Boss,FSJac0035819
My Mom is a Girl Boss,FSJac0035820
My Mom is a Girl Boss,FSJac0035821
My Mom is a Girl Boss,FSJac0035822
My Mom is a Girl Boss,FSJac0035823
My Mom is a Girl Boss,FSJac0035824
My Mom is a Girl Boss,FSJac0035825
My Mom is a Girl Boss,FSJac0035826
My Mom is a Girl Boss,FSJac0035827
My Mom is a Girl Boss,FSJac0035828
My Mom is a Girl Boss,FSJac0035829
My Mom is a Girl Boss,FSJac0035830
My Mom is a Girl Boss,FSJac0035831
My Mom is a Girl Boss,FSJac0035832
My Mom is a Girl Boss,FSJac0035833
My Mom is a Girl Boss,FSJac0035834
My Mom is a Girl Boss,FSJac0035835
My Mom is a Girl Boss,FSJac0035836
My Mom is a Girl Boss,FSJac0035837
My Mom is a Girl Boss,FSJac0040445
My Mom is a Girl Boss,FSJac0040446
My Mom is a Girl Boss,FSJac0040447
My Mom is a Girl Boss,FSJac0040448
My Mom is a Girl Boss,FSJac0040449
My Mom is a Girl Boss,FSJac0040450
My Mom is a Girl Boss,FSJac0040451
My Mom is a Girl Boss,FSJac0040452
My Mom is a Girl Boss,FSJac0040453
My Mom is a Girl Boss,FSJac0040454
My Mom is a Girl Boss,FSJac0040455
My Mom is a Girl Boss,FSJac0040456
My Mom is a Girl Boss,FSJac0040457
My Mom is a Girl Boss,FSJac0040458
My Mom is a Girl Boss,FSJac0040459
My Mom is a Girl Boss,FSJac0040460
My Mom is a Girl Boss,FSJac0040461
My Mom is a Girl Boss,FSJac0040462
My Mom is a Girl Boss,FSJac0040463
My Mom is a Girl Boss,FSJac0040464
My Mom is a Girl Boss,FSJac0040465
My Mom is a Girl Boss,FSJac0040466
My Mom is a Girl Boss,FSJac0040467
My Mom is a Girl Boss,FSJac0040468
My Mom is a Girl Boss,FSJac0040469
My Mom is a Girl Boss,FSJac0040470
My Mom is a Girl Boss,FSJac0040471
My Mom is a Girl Boss,FSJac0040472
My Mom is a Girl Boss,FSJac0040473
My Mom is a Girl Boss,FSMar0037277
My Mom is a Girl Boss,FSMar0037278
My Mom is a Girl Boss,FSMar0037279
My Mom is a Girl Boss,FSMar0037280
My Mom is a Girl Boss,FSMar0037281
My Mom is a Girl Boss,FSMar0037282
My Mom is a Girl Boss,FSMar0037283
My Mom is a Girl Boss,FSMar0037284
My Mom is a Girl Boss,FSMar0037285
My Mom is a Girl Boss,FSMar0037286
My Mom is a Girl Boss,FSMar0037287
My Mom is a Girl Boss,FSMar0037288
My Mom is a Girl Boss,FSMar0037289
My Mom is a Girl Boss,FSMic0040795
My Mom is a Girl Boss,FSMic0040796
My Mom is a Girl Boss,FSMic0040797
My Mom is a Girl Boss,FSMic0040798
My Mom is a Girl Boss,FSMic0040799
My Mom is a Girl Boss,FSMic0040800
My Mom is a Girl Boss,FSMic0040801
My Mom is a Girl Boss,FSMic0040802
My Mom is a Girl Boss,FSMin0041354
My Mom is a Girl Boss,FSMin0041355
My Mom is a Girl Boss,FSMin0041356
My Mom is a Girl Boss,FSMin0041357
My Mom is a Girl Boss,FSMin0041358
My Mom is a Girl Boss,FSMin0041359
My Mom is a Girl Boss,FSMin0041360
My Mom is a Girl Boss,FSMin0041361
My Mom is a Girl Boss,FSMin0041362
My Mom is a Girl Boss,FSMin0041363
My Mom is a Girl Boss,FSMin0041364
My Mom is a Girl Boss,FSMin0041365
My Mom is a Girl Boss,FSMin0041366
My Mom is a Girl Boss,FSMin0041367
My Mom is a Girl Boss,FSMin0041368
My Mom is a Girl Boss,FSMin0041369
My Mom is a Girl Boss,FSPOL0040053
My Mom is a Girl Boss,FSVog0040790
My Mom is a Girl Boss,FSVog0040791
My Mom is a Girl Boss,FSVog0040792
My Mom is a Girl Boss,MXHou0015312
My Mom is a Girl Boss,MXHou0015313
My Mom is a Girl Boss,MXHou0015314
My Mom is a Girl Boss,MXHou0015315
My Mom is a Girl Boss,MXHou0015316
My Mom is a Girl Boss,MXHou0015317
My Mom is a Girl Boss,MXHou0015318
My Mom is a Girl Boss,MXHou0015319
My Mom is a Girl Boss,MXHou0015320
My Mom is a Girl Boss,MXHou0015322
My Mom is a Girl Boss,MXHou0015323
My Mom is a Girl Boss,MXHou0015324
My Mom is a Girl Boss,MXHou0015325
My Mom is a Girl Boss,MXHou0015327
My Mom is a Girl Boss,MXHou0015328
My Mom is a Girl Boss,MXLe 0015344
My Mom is a Girl Boss,MXLe 0015345
My Mom is a Girl Boss,MXLe 0015346
My Mom is a Girl Boss,MXLe 0015347
My Mom is a Girl Boss,MXLe 0015348
My Mom is a Girl Boss,MXLe 0015351
My Mom is a Girl Boss,MXMin0015353
My Mom is a Girl Boss,MXMin0015354
My Mom is a Girl Boss,MXMin0015355
My Mom is a Girl Boss,MXMin0015356
My Mom is a Girl Boss,MXMin0015357
My Mom is a Girl Boss,MXMin0015358
My Mom is a Girl Boss,MXMin0015359
My Mom is a Girl Boss,MXMin0015360
My Mom is a Girl Boss,MXMin0015361
My Mom is a Girl Boss,MXMin0015362
My Mom is a Girl Boss,MXMin0015364
My Mom is a Girl Boss,FSCoa0044036
My Mom is a Girl Boss,FSCoa0044037
My Mom is a Girl Boss,FSCAR0042082
My Mom is a Girl Boss,FSCAR0042083
My Mom is a Girl Boss,FSLeg0040963
My Mom is a Girl Boss,FSLeg0040964
My Mom is a Girl Boss,FSSwi0040070
My Mom is a Girl Boss,FSLeg0040965
My Mom is a Girl Boss,FSLeg0040966
My Mom is a Girl Boss,FSSwi0039723
My Mom is a Girl Boss,FSSwi0039724
My Mom is a Girl Boss,FSSwi0039725
My Mom is a Girl Boss,FSSwi0039726
My Mom is a Girl Boss,FSSwi0039727
My Mom is a Girl Boss,FSLeg0040961
My Mom is a Girl Boss,FSLeg0040962
My Mom is a Girl Boss,SGASA0037480
My Mom is a Girl Boss,SGASA0037481
My Mom is a Girl Boss,BM0015
My Mom is a Girl Boss,BM0014
My Mom is a Girl Boss,BM0028
My Mom is a Girl Boss,BM0006
My Mom is a Girl Boss,SGBla0022042
My Mom is a Girl Boss,BM0024
My Mom is a Girl Boss,BM0026
My Mom is a Girl Boss,BM0027
My Mom is a Girl Boss,BM0004
My Mom is a Girl Boss,SGFra0037922
My Mom is a Girl Boss,SGFra0037921
My Mom is a Girl Boss,SGFra0038235
My Mom is a Girl Boss,SGFra0038234
My Mom is a Girl Boss,SGFra0038236
My Mom is a Girl Boss,SGFra0037920
My Mom is a Girl Boss,SGFra0000153
My Mom is a Girl Boss,SGFra0038237
My Mom is a Girl Boss,SGFra0041233
My Mom is a Girl Boss,WhHi-0401331
My Mom is a Girl Boss,SGHi-0034280
My Mom is a Girl Boss,HB0003
My Mom is a Girl Boss,WhHi-0404234
My Mom is a Girl Boss,SGHi-0023402
My Mom is a Girl Boss,HB0010
My Mom is a Girl Boss,SGHi-0002347
My Mom is a Girl Boss,HB0008
My Mom is a Girl Boss,HB0005
My Mom is a Girl Boss,HB0006
My Mom is a Girl Boss,HB0007
My Mom is a Girl Boss,SGHi-0030794
My Mom is a Girl Boss,HB0009
My Mom is a Girl Boss,SGHi-0037968
My Mom is a Girl Boss,SGHi-0034281
My Mom is a Girl Boss,SGHi-0029592
My Mom is a Girl Boss,SGHi-0031005
My Mom is a Girl Boss,SGHi-0023405
My Mom is a Girl Boss,SGHi-0029593
My Mom is a Girl Boss,SGMeg0034393
My Mom is a Girl Boss,SGMeg0034394
My Mom is a Girl Boss,WhMeg0370012
My Mom is a Girl Boss,WhMeg0370013
My Mom is a Girl Boss,WhMeg0370016
My Mom is a Girl Boss,WhMeg0370017
My Mom is a Girl Boss,WhMeg0370019
My Mom is a Girl Boss,WhMeg0370020
My Mom is a Girl Boss,WhMeg0370025
My Mom is a Girl Boss,WhMeg0370022
My Mom is a Girl Boss,WhMeg0370023
My Mom is a Girl Boss,WhMeg0370027
My Mom is a Girl Boss,WhMeg0370028
My Mom is a Girl Boss,WhMeg0370031
My Mom is a Girl Boss,WhMeg0370032
My Mom is a Girl Boss,WhMeg0370035
My Mom is a Girl Boss,WhMeg0370039
My Mom is a Girl Boss,WhMeg0370040
My Mom is a Girl Boss,WhMeg0370042
My Mom is a Girl Boss,WhMeg0370041
My Mom is a Girl Boss,WhMeg0370044
My Mom is a Girl Boss,SGMeg0045261
My Mom is a Girl Boss,WhMeg0370045
My Mom is a Girl Boss,WhMeg0370046
My Mom is a Girl Boss,WhMeg0370047
My Mom is a Girl Boss,WhMeg0370048
My Mom is a Girl Boss,WhMeg0370049
My Mom is a Girl Boss,WhMeg0370053
My Mom is a Girl Boss,WhMeg0370066
My Mom is a Girl Boss,WhMeg0370065
My Mom is a Girl Boss,WhMeg0370070
My Mom is a Girl Boss,WhMeg0370071
My Mom is a Girl Boss,DS0003
My Mom is a Girl Boss,DS0001
My Mom is a Girl Boss,DS0002
My Mom is a Girl Boss,SGVis0000656
My Mom is a Girl Boss,SGVis0020245
My Mom is a Girl Boss,SGVis0020116
My Mom is a Girl Boss,DS0036
My Mom is a Girl Boss,DS0037
My Mom is a Girl Boss,SGVis0026514
My Mom is a Girl Boss,SGVis0008814
My Mom is a Girl Boss,DS0035
My Mom is a Girl Boss,SGVis0032782
My Mom is a Girl Boss,DS0040
My Mom is a Girl Boss,SGVis0011357
My Mom is a Girl Boss,SGVis0020118
My Mom is a Girl Boss,SGVis0020117
My Mom is a Girl Boss,SGVis0041559
My Mom is a Girl Boss,SGVis0020246
My Mom is a Girl Boss,WhVis0324806
My Mom is a Girl Boss,SGVis0008807
My Mom is a Girl Boss,DS0026
My Mom is a Girl Boss,DS0027
My Mom is a Girl Boss,DS0025
My Mom is a Girl Boss,SGVis0041560
My Mom is a Girl Boss,SGVis0020119
My Mom is a Girl Boss,SGVis0020120
My Mom is a Girl Boss,SGVis0021460
My Mom is a Girl Boss,DS0014
My Mom is a Girl Boss,DS0015
My Mom is a Girl Boss,WhVis0336165
My Mom is a Girl Boss,WhVis0336150
My Mom is a Girl Boss,DS0034
My Mom is a Girl Boss,SGVis0000653
My Mom is a Girl Boss,DS0022
My Mom is a Girl Boss,WhVis0336092
My Mom is a Girl Boss,DS0012
My Mom is a Girl Boss,DS0013
My Mom is a Girl Boss,DS0041
My Mom is a Girl Boss,DS0004
My Mom is a Girl Boss,DS0005
My Mom is a Girl Boss,WhVis0324809
My Mom is a Girl Boss,WhVis0336186
My Mom is a Girl Boss,DS0039
My Mom is a Girl Boss,SGVis0008816
My Mom is a Girl Boss,SGVis0021463
My Mom is a Girl Boss,DS0006
My Mom is a Girl Boss,SGVis0026518
My Mom is a Girl Boss,SGVis0020121
My Mom is a Girl Boss,SGVis0021461
My Mom is a Girl Boss,WhVis0324807
My Mom is a Girl Boss,SGVis0020243
My Mom is a Girl Boss,DS0042
My Mom is a Girl Boss,DS0043
My Mom is a Girl Boss,WhVis0314999
My Mom is a Girl Boss,DS0019
My Mom is a Girl Boss,DS0020
My Mom is a Girl Boss,SGVis0020122
My Mom is a Girl Boss,SGVis0020123
My Mom is a Girl Boss,SGVis0026508
My Mom is a Girl Boss,DS0044
My Mom is a Girl Boss,WhVis0284828
My Mom is a Girl Boss,DS0029
My Mom is a Girl Boss,SGVis0008818
My Mom is a Girl Boss,SGVis0032781
My Mom is a Girl Boss,DS0017
My Mom is a Girl Boss,DS0018
My Mom is a Girl Boss,WhVis0408048
My Mom is a Girl Boss,DS0038
My Mom is a Girl Boss,WhVis0366413
My Mom is a Girl Boss,SGVis0020115
My Mom is a Girl Boss,SGVis0021462
My Mom is a Girl Boss,SGVis0020244
My Mom is a Girl Boss,SGVis0000651
My Mom is a Girl Boss,DS0009
My Mom is a Girl Boss,BunFreeSGMeg0045261
My Mom is a Girl Boss,BunSGBew0027167
My Mom is a Girl Boss,BUNSGBew0027168
My Mom is a Girl Boss,BUNSGBew0043009
My Mom is a Girl Boss,BUNSGBew0043011
My Mom is a Girl Boss,BunSGRub0044565
My Mom is a Girl Boss,SGRub0044565
My Mom is a Girl Boss,bun12SGBRA0035273
My Mom is a Girl Boss,bun12SGBRA0035274
My Mom is a Girl Boss,bun12SGBRA0035275
My Mom is a Girl Boss,bun2SGBRA0035273
My Mom is a Girl Boss,bun2SGBRA0035274
My Mom is a Girl Boss,bun2SGBRA0035275
My Mom is a Girl Boss,BunSGBRA0029393
My Mom is a Girl Boss,BunSGBRA0029394
My Mom is a Girl Boss,BunSGBRA0029397
My Mom is a Girl Boss,BunSGBRA0029398
My Mom is a Girl Boss,BunSGBRA0029399
My Mom is a Girl Boss,BunSGBRA0029400
My Mom is a Girl Boss,BunSGBRA0029402
My Mom is a Girl Boss,BunSGBRA0037751
My Mom is a Girl Boss,SGBRA0029395
My Mom is a Girl Boss,SGBRA0029396
My Mom is a Girl Boss,SGBRA0029400
My Mom is a Girl Boss,SGBRA0029401
My Mom is a Girl Boss,SGBRA0029403
My Mom is a Girl Boss,SGBRA0029404
My Mom is a Girl Boss,SGBRA0029405
My Mom is a Girl Boss,SGBRA0029406
My Mom is a Girl Boss,SGBRA0029407
My Mom is a Girl Boss,SGBRA0029408
My Mom is a Girl Boss,SGBRA0035273
My Mom is a Girl Boss,SGBRA0035274
My Mom is a Girl Boss,SGBRA0035275
My Mom is a Girl Boss,SGBRA0037751
